<?xml version="1.0" encoding="UTF-8" standalone="no"?>
<!DOCTYPE svg  PUBLIC '-//W3C//DTD SVG 1.1//EN'  'http://www.w3.org/Graphics/SVG/1.1/DTD/svg11.dtd'>
<svg xmlns="http://www.w3.org/2000/svg">
<defs>
<font id="Roboto-Regular" horiz-adv-x="1150">
<font-face underline-position="-600" font-weight="400" descent="-410" panose-1="2 0 0 0 0 0 0 0 0 0" units-per-em="2048" unicode-range="U+000D-2260" bbox="-65 -470 1898 1818" x-height="1082" underline-thickness="100" font-family="Roboto" ascent="1638" cap-height="1456"/>
<missing-glyph horiz-adv-x="2048"/>
<glyph glyph-name=".notdef" horiz-adv-x="2048"/>
<glyph glyph-name="glyph1" horiz-adv-x="0"/>
<glyph glyph-name="glyph1" horiz-adv-x="0"/>
<glyph glyph-name="uni000D" horiz-adv-x="2048" unicode=""/>
<glyph glyph-name="space" horiz-adv-x="507" unicode=" "/>
<glyph glyph-name="exclam" horiz-adv-x="527" unicode="!" d="M167 1456h194l-14 -1045h-167zM160 93q0 45 27.5 75.5t81.5 30.5t82 -30.5t28 -75.5t-28 -74.5t-82 -29.5t-81.5 29.5t-27.5 74.5z"/>
<glyph glyph-name="quotedbl" horiz-adv-x="655" unicode='&quot;' d="M406 1042l1 494h140v-136l-30 -358h-111zM136 1042l1 494h140v-136l-30 -358h-111z"/>
<glyph glyph-name="numbersign" horiz-adv-x="1261" unicode="#" d="M527 547h264l69 354h-264zM119 410v137h265l69 354h-258v139h285l82 416h143l-82 -416h264l82 416h144l-82 -416h204v-139h-231l-69 -354h225v-137h-251l-80 -410h-144l80 410h-264l-80 -410h-143l80 410h-239z"/>
<glyph glyph-name="dollar" d="M110 429h185q0 -139 73 -214t207 -75q131 0 206 63t75 172q0 92 -64.5 155t-217.5 114q-213 65 -310.5 169.5t-97.5 265.5q0 164 95.5 269t262.5 125v219h149v-220q168 -23 261.5 -141t93.5 -323h-184q0 141 -67 224t-181 83q-119 0 -182 -61.5t-63 -171.5 q0 -102 66.5 -162.5t219 -110t238 -109t126 -138.5t40.5 -185q0 -169 -101.5 -272t-284.5 -122v-191h-148v191q-186 17 -291.5 132.5t-105.5 313.5z" unicode="$"/>
<glyph glyph-name="percent" horiz-adv-x="1500" unicode="%" d="M952 279q0 -79 44 -129.5t118 -50.5q72 0 115 49.5t43 134.5v74q0 79 -43.5 129t-116.5 50q-71 0 -115.5 -49.5t-44.5 -133.5v-74zM814 285v72q0 131 83.5 215.5t214.5 84.5t215 -84t84 -223v-71q0 -131 -83.5 -215.5t-213.5 -84.5t-215 83.5t-85 222.5zM342 176 l711 1138l105 -66l-711 -1138zM243 1099q0 -78 44 -128.5t118 -50.5q71 0 114.5 49t43.5 134v73q0 78 -43 129t-117 51t-117 -51t-43 -133v-73zM105 1106v70q0 131 83.5 216t214.5 85q133 0 215.5 -85.5t82.5 -221.5v-71q0 -132 -83.5 -215.5t-212.5 -83.5q-130 0 -215 83.5 t-85 222.5z"/>
<glyph glyph-name="ampersand" horiz-adv-x="1273" unicode="&amp;" d="M405 1128q0 -96 118 -240l118 83q68 48 93 91.5t25 105.5q0 67 -50 111.5t-126 44.5q-82 0 -130 -55.5t-48 -140.5zM286 391q0 -118 76.5 -189t209.5 -71q147 0 269 112l-355 425l-33 -24q-167 -123 -167 -253zM101 391q0 105 58.5 193t223.5 205q-97 118 -130 190 t-33 143q0 166 98 260t266 94q150 0 248 -87.5t98 -220.5q0 -88 -44.5 -162.5t-155.5 -156.5l-107 -79l324 -387q68 130 68 289h167q0 -255 -123 -423l208 -249h-222l-97 115q-74 -66 -173.5 -100.5t-202.5 -34.5q-213 0 -342 113t-129 298z"/>
<glyph glyph-name="quotesingle" horiz-adv-x="357" unicode="&apos;" d="M103 1057l1 479h149v-111l-21 -368h-129z"/>
<glyph glyph-name="parenleft" horiz-adv-x="700" unicode="(" d="M133 591q0 226 60.5 434t180.5 378t249 240l38 -122q-146 -112 -239.5 -342t-102.5 -515l-1 -85q0 -386 141 -670q85 -170 202 -266l-38 -113q-133 74 -254 248q-236 340 -236 813z"/>
<glyph glyph-name="parenright" horiz-adv-x="712" unicode=")" d="M38 -357q154 118 247.5 366.5t95.5 551.5v32q0 210 -44 390.5t-122.5 323.5t-176.5 223l39 113q132 -73 251.5 -244t179 -377t59.5 -441q0 -223 -58.5 -427.5t-179 -377.5t-252.5 -246z"/>
<glyph glyph-name="asterisk" horiz-adv-x="882" unicode="*" d="M28 1073l46 151l302 -112l-9 344h153l-10 -349l297 110l46 -152l-307 -91l198 -271l-124 -94l-186 288l-180 -281l-125 91l201 276z"/>
<glyph glyph-name="plus" horiz-adv-x="1161" unicode="+" d="M78 606v175h406v425h186v-425h406v-175h-406v-460h-186v460h-406z"/>
<glyph glyph-name="comma" horiz-adv-x="402" unicode="," d="M29 -218q94 131 98 270v167h181v-145q0 -101 -49.5 -202t-124.5 -162z"/>
<glyph glyph-name="hyphen" horiz-adv-x="565" unicode="-" d="M37 543v151h488v-151h-488z"/>
<glyph glyph-name="period" horiz-adv-x="539" unicode="." d="M144 97q0 48 28.5 80t85.5 32t86.5 -32t29.5 -80q0 -46 -29.5 -77t-86.5 -31t-85.5 31t-28.5 77z"/>
<glyph glyph-name="slash" horiz-adv-x="844" unicode="/" d="M18 -125l608 1581h158l-607 -1581h-159z"/>
<glyph glyph-name="zero" d="M300 592q0 -236 68.5 -348.5t207.5 -112.5q137 0 203.5 106t69.5 334v303q0 235 -66 342.5t-209 107.5q-142 0 -207 -107t-67 -329v-296zM115 596v247q0 321 111 477t348 156q235 0 346 -150.5t114 -464.5v-240q0 -325 -111 -483t-347 -158q-233 0 -345 154.5t-116 461.5 z" unicode="0"/>
<glyph glyph-name="one" d="M170 1096v168l530 199h29v-1463h-186v1233z" unicode="1"/>
<glyph glyph-name="two" d="M93 1027q0 201 129.5 325t346.5 124q203 0 321 -106.5t118 -283.5q0 -215 -274 -512l-390 -423h731v-151h-954v133l504 560q112 127 154.5 206.5t42.5 164.5q0 114 -69 187t-184 73q-138 0 -214.5 -78.5t-76.5 -218.5h-185z" unicode="2"/>
<glyph glyph-name="three" d="M94 384h186q0 -115 75 -184t201 -69q134 0 205 70t71 201q0 127 -78 195t-225 70h-139v151h139q131 2 206 69t75 181q0 256 -255 256q-120 0 -191.5 -68.5t-71.5 -181.5h-185q0 173 126.5 287.5t321.5 114.5q206 0 323 -109t117 -303q0 -95 -61.5 -184t-167.5 -133 q120 -38 185.5 -126t65.5 -215q0 -196 -128 -311t-333 -115t-333.5 111t-128.5 293z" unicode="3"/>
<glyph glyph-name="four" d="M263 489h453v714l-22 -40zM53 338v109l652 1009h197v-967h202v-151h-202v-338h-186v338h-663z" unicode="4"/>
<glyph glyph-name="five" d="M154 383h175q17 -125 89 -188.5t190 -63.5q129 0 202.5 88t73.5 243q0 146 -79.5 234.5t-211.5 88.5q-121 0 -190 -53l-49 -40l-148 38l74 726h746v-171h-589l-44 -397q107 63 243 63q199 0 316 -131.5t117 -355.5q0 -225 -121.5 -354.5t-339.5 -129.5q-193 0 -315 107 t-139 296z" unicode="5"/>
<glyph glyph-name="six" d="M318 533q0 -180 81 -290t202 -110q125 0 196.5 92t71.5 241q0 150 -72.5 242.5t-192.5 92.5q-95 0 -175 -57t-111 -143v-68zM132 554v71q0 402 171.5 614.5t510.5 217.5h33v-157h-34q-216 -4 -344 -128t-148 -349q115 132 314 132q190 0 303.5 -134t113.5 -346 q0 -225 -122.5 -360t-328.5 -135q-209 0 -339 160.5t-130 413.5z" unicode="6"/>
<glyph glyph-name="seven" d="M77 1304v152h984v-104l-603 -1352h-194l601 1304h-788z" unicode="7"/>
<glyph glyph-name="eight" d="M331 1073q0 -111 66.5 -179.5t177.5 -68.5t177.5 68.5t66.5 179.5t-69 181t-175 70q-109 0 -176.5 -67.5t-67.5 -183.5zM297 397q0 -124 73.5 -195t204.5 -71q130 0 204 71.5t74 194.5q0 122 -77.5 199t-202.5 77t-200.5 -76t-75.5 -200zM112 393q0 118 64.5 213 t178.5 144q-97 48 -153 133t-56 193q0 184 118 292t311 108q192 0 310.5 -108t118.5 -292q0 -109 -57.5 -194t-155.5 -133q114 -49 180.5 -143t66.5 -213q0 -189 -127.5 -301t-335.5 -112q-210 0 -336.5 112.5t-126.5 300.5z" unicode="8"/>
<glyph glyph-name="nine" d="M282 982q0 -149 71.5 -245.5t191.5 -96.5q93 0 171.5 57t114.5 141v74q0 182 -79 296t-200 114q-122 0 -196 -93.5t-74 -246.5zM100 972q0 146 55.5 263t157.5 179t238 62q216 0 340.5 -161.5t124.5 -440.5v-54q0 -425 -168 -620.5t-507 -200.5h-36v156h39 q229 4 352 119.5t134 365.5q-58 -69 -138.5 -111t-176.5 -42q-126 0 -219.5 62t-144.5 174.5t-51 248.5z" unicode="9"/>
<glyph glyph-name="colon" horiz-adv-x="496" unicode=":" d="M135 980q0 48 28.5 80t85.5 32t86.5 -32t29.5 -80q0 -46 -29.5 -77t-86.5 -31t-85.5 31t-28.5 77zM134 97q0 48 28.5 80t85.5 32t86.5 -32t29.5 -80q0 -46 -29.5 -77t-86.5 -31t-85.5 31t-28.5 77z"/>
<glyph glyph-name="semicolon" horiz-adv-x="433" unicode=";" d="M111 980q0 48 28.5 80t85.5 32t86.5 -32t29.5 -80q0 -46 -29.5 -77t-86.5 -31t-85.5 31t-28.5 77zM41 -218q94 131 98 270v167h181v-145q0 -101 -49.5 -202t-124.5 -162z"/>
<glyph glyph-name="less" horiz-adv-x="1041" unicode="&lt;" d="M72 574v146l818 378v-196l-626 -258l626 -253v-196z"/>
<glyph glyph-name="equal" horiz-adv-x="1124" unicode="=" d="M152 814v161h834v-161h-834zM152 399v160h834v-160h-834z"/>
<glyph glyph-name="greater" horiz-adv-x="1070" unicode="&gt;" d="M134 196v192l661 262l-661 259v190l854 -378v-146z"/>
<glyph glyph-name="question" horiz-adv-x="967" unicode="?" d="M349 93q0 45 27.5 75.5t81.5 30.5t82 -30.5t28 -75.5t-28 -74.5t-82 -29.5t-81.5 29.5t-27.5 74.5zM75 1115q2 162 115.5 261.5t295.5 99.5q189 0 294.5 -101.5t105.5 -278.5q0 -175 -162 -345l-109 -108q-73 -81 -73 -233h-185q2 119 27 188t102 153l131 135 q84 95 84 204q0 105 -55 164.5t-160 59.5q-102 0 -164 -54t-62 -145h-185z"/>
<glyph glyph-name="at" horiz-adv-x="1839" unicode="@" d="M712 417q-4 -36 -4 -69q0 -93 35.5 -159t123.5 -66q60 0 115.5 51t91.5 146l1 9l46 503q-56 29 -120 29q-117 0 -193.5 -119t-95.5 -325zM118 478q12 275 123 494.5t301 339t429 119.5q249 0 427 -112t259.5 -310t81.5 -439q0 -33 -1 -68q-12 -242 -120 -382t-289 -140 q-187 0 -240 168q-54 -85 -123.5 -126.5t-143.5 -41.5q-142 0 -207.5 104t-65.5 252q0 39 4 81q15 165 75.5 294.5t156 203.5t200.5 74q81 0 145 -21.5t144 -84.5l-52 -554q-2 -26 -2 -50q0 -181 130 -181q113 0 183 112t76 292q2 40 2 79q0 331 -155 524.5t-489 193.5 q-201 0 -357 -99.5t-246 -287.5t-101 -434q-2 -35 -2 -70q0 -205 67 -374t214.5 -265.5t356.5 -96.5q90 0 180.5 22t150.5 57l37 -115q-62 -39 -164.5 -64t-207.5 -25q-250 0 -430 112.5t-264 311.5t-84 441q0 33 1 66z"/>
<glyph glyph-name="A" horiz-adv-x="1336" unicode="A" d="M421 538h495l-248 681zM28 0l556 1456h168l557 -1456h-197l-139 380h-610l-137 -380h-198z"/>
<glyph glyph-name="B" horiz-adv-x="1275" unicode="B" d="M361 835h290q126 0 201.5 63t75.5 171q0 120 -70 174.5t-213 54.5h-284v-463zM361 157h317q134 0 211.5 69.5t77.5 191.5q0 263 -286 263h-320v-524zM169 0v1456h476q237 0 356.5 -98t119.5 -290q0 -102 -58 -180.5t-158 -121.5q118 -33 186.5 -125.5t68.5 -220.5 q0 -196 -127 -308t-359 -112h-505z"/>
<glyph glyph-name="C" horiz-adv-x="1333" unicode="C" d="M119 660v140q0 203 72.5 357t205.5 236.5t308 82.5q232 0 372 -129.5t163 -358.5h-193q-25 174 -108.5 252t-233.5 78q-184 0 -288.5 -136t-104.5 -387v-141q0 -237 99 -377t277 -140q160 0 245.5 72.5t113.5 252.5h193q-27 -231 -170.5 -356.5t-381.5 -125.5 q-258 0 -413.5 185t-155.5 495z"/>
<glyph glyph-name="D" horiz-adv-x="1343" unicode="D" d="M361 157h202q222 0 345.5 138t123.5 393v85q0 248 -116.5 385.5t-330.5 139.5h-224v-1141zM169 0v1456h411q190 0 336 -84t225.5 -239t80.5 -356v-93q0 -206 -79.5 -361t-227 -238t-343.5 -85h-403z"/>
<glyph glyph-name="E" horiz-adv-x="1164" unicode="E" d="M169 0v1456h915v-158h-723v-468h631v-157h-631v-516h733v-157h-925z"/>
<glyph glyph-name="F" horiz-adv-x="1132" unicode="F" d="M169 0v1456h902v-158h-710v-498h611v-157h-611v-643h-192z"/>
<glyph glyph-name="G" horiz-adv-x="1395" unicode="G" d="M122 658v127q0 329 153.5 510t431.5 181q228 0 367 -116.5t170 -330.5h-192q-54 289 -344 289q-193 0 -292.5 -135.5t-100.5 -392.5v-119q0 -245 112 -389.5t303 -144.5q108 0 189 24t134 81v327h-337v156h528v-534q-74 -106 -206.5 -158.5t-308.5 -52.5 q-178 0 -316 83.5t-213.5 237.5t-77.5 357z"/>
<glyph glyph-name="H" horiz-adv-x="1460" unicode="H" d="M169 0v1456h192v-626h734v626h193v-1456h-193v673h-734v-673h-192z"/>
<glyph glyph-name="I" horiz-adv-x="557" unicode="I" d="M183 0v1456h192v-1456h-192z"/>
<glyph glyph-name="J" horiz-adv-x="1130" unicode="J" d="M53 402h192q0 -125 68.5 -195t198.5 -70q119 0 192.5 75t74.5 210v1034h193v-1031q0 -209 -125.5 -327t-334.5 -118q-217 0 -338 111t-121 311z"/>
<glyph glyph-name="K" horiz-adv-x="1284" unicode="K" d="M169 0v1456h192v-720l647 720h232l-573 -643l618 -813h-230l-516 677l-178 -185v-492h-192z"/>
<glyph glyph-name="L" horiz-adv-x="1102" unicode="L" d="M169 0v1456h193v-1299h690v-157h-883z"/>
<glyph glyph-name="M" horiz-adv-x="1788" unicode="M" d="M169 0v1456h248l476 -1188l476 1188h249v-1456h-192v567l18 612l-478 -1179h-147l-477 1176l19 -609v-567h-192z"/>
<glyph glyph-name="N" horiz-adv-x="1460" unicode="N" d="M169 0v1456h193l735 -1127v1127h191v-1456h-193l-733 1122v-1122h-193z"/>
<glyph glyph-name="O" horiz-adv-x="1408" unicode="O" d="M309 681q0 -251 105.5 -394.5t290.5 -143.5q186 0 288 135.5t105 388.5v108q0 259 -104 397.5t-291 138.5q-182 0 -286.5 -138.5t-107.5 -384.5v-107zM118 668v105q0 210 73 371t206.5 246.5t305.5 85.5q175 0 308.5 -84.5t205.5 -245t72 -373.5v-92q0 -214 -72 -373.5 t-204 -243.5t-308 -84q-172 0 -305 84.5t-206.5 241t-75.5 362.5z"/>
<glyph glyph-name="P" horiz-adv-x="1292" unicode="P" d="M361 727h345q154 0 236 72.5t82 209.5q0 130 -82 208t-225 81h-356v-571zM169 0v1456h537q239 0 374.5 -122t135.5 -323q0 -212 -132.5 -326.5t-379.5 -114.5h-343v-570h-192z"/>
<glyph glyph-name="Q" horiz-adv-x="1408" unicode="Q" d="M301 681q0 -250 104.5 -394t290.5 -144t288 135.5t105 388.5v108q0 257 -102.5 396.5t-292.5 139.5q-181 0 -285.5 -138.5t-107.5 -384.5v-107zM109 668v105q0 210 73 371t206.5 246.5t305.5 85.5q176 0 309.5 -85t205.5 -244.5t72 -372.5v-93q0 -211 -67 -363.5 t-188 -238.5l260 -204l-131 -121l-307 244q-72 -18 -152 -18q-172 0 -305 84.5t-206.5 241t-75.5 362.5z"/>
<glyph glyph-name="R" horiz-adv-x="1261" unicode="R" d="M361 746h295q143 0 227.5 74t84.5 198q0 135 -80.5 207t-232.5 73h-294v-552zM168 0v1456h482q246 0 378.5 -112t132.5 -326q0 -136 -73.5 -237t-204.5 -151l342 -618v-12h-206l-316 589h-342v-589h-193z"/>
<glyph glyph-name="S" horiz-adv-x="1215" unicode="S" d="M80 422h193q0 -132 97.5 -208.5t260.5 -76.5q152 0 233 62t81 169t-75 165.5t-272 115.5q-247 71 -359.5 174.5t-112.5 255.5q0 172 137.5 284.5t357.5 112.5q150 0 267.5 -58t182 -160t64.5 -223h-193q0 132 -84 207.5t-237 75.5q-142 0 -221.5 -62.5t-79.5 -173.5 q0 -89 75.5 -150.5t257 -112.5t284 -112.5t152 -143.5t49.5 -193q0 -177 -138 -283.5t-369 -106.5q-150 0 -280 57.5t-200.5 157.5t-70.5 227z"/>
<glyph glyph-name="T" horiz-adv-x="1222" unicode="T" d="M49 1298v158h1126v-158h-468v-1298h-191v1298h-467z"/>
<glyph glyph-name="U" horiz-adv-x="1328" unicode="U" d="M140 464v992h190v-986q0 -158 87 -245.5t248 -87.5q163 0 249.5 87t86.5 245v987h193v-990q-1 -206 -129.5 -337t-348.5 -147l-51 -2q-239 0 -381 129t-144 355z"/>
<glyph glyph-name="V" horiz-adv-x="1303" unicode="V" d="M28 1456h209l414 -1201l416 1201h210l-540 -1456h-170z"/>
<glyph glyph-name="W" horiz-adv-x="1817" unicode="W" d="M61 1456h192l230 -997l28 -192l41 173l288 1016h162l281 -1016l40 -176l31 196l226 996h193l-353 -1456h-175l-300 1061l-23 111l-23 -111l-311 -1061h-175z"/>
<glyph glyph-name="X" horiz-adv-x="1284" unicode="X" d="M57 0l472 734l-461 722h225l351 -558l349 558h226l-460 -722l471 -734h-228l-358 568l-360 -568h-227z"/>
<glyph glyph-name="Y" horiz-adv-x="1230" unicode="Y" d="M15 1456h220l378 -731l380 731h218l-502 -913v-543h-192v543z"/>
<glyph glyph-name="Z" horiz-adv-x="1226" unicode="Z" d="M86 0v144l798 1154h-785v158h1015v-141l-801 -1158h833v-157h-1060z"/>
<glyph glyph-name="bracketleft" horiz-adv-x="543" unicode="[" d="M146 -312v1976h377v-152h-191v-1672h191v-152h-377z"/>
<glyph glyph-name="backslash" horiz-adv-x="840" unicode="\" d="M40 1456h176l608 -1581h-176z"/>
<glyph glyph-name="bracketright" horiz-adv-x="543" unicode="]" d="M9 -160h193v1672h-193v152h378v-1976h-378v152z"/>
<glyph glyph-name="asciicircum" horiz-adv-x="856" unicode="^" d="M64 729l299 727h127l298 -727h-171l-191 482l-190 -482h-172z"/>
<glyph glyph-name="underscore" horiz-adv-x="924" unicode="_" d="M4 0h916v-151h-916v151z"/>
<glyph glyph-name="grave" horiz-adv-x="633" unicode="`" d="M57 1534h223l194 -294h-159z"/>
<glyph glyph-name="a" horiz-adv-x="1114" unicode="a" d="M294 326q0 -87 58 -136t149 -49q87 0 165 45t113 117v222h-145q-340 0 -340 -199zM109 300q0 169 128.5 262.5t361.5 93.5h180v85q0 97 -58 154.5t-171 57.5q-99 0 -166 -50t-67 -121h-186q0 81 57.5 156.5t156 119.5t216.5 44q187 0 293 -93.5t110 -257.5v-498 q0 -149 38 -237v-16h-194q-16 32 -26 114q-129 -134 -308 -134q-160 0 -262.5 90.5t-102.5 229.5z"/>
<glyph glyph-name="b" horiz-adv-x="1149" unicode="b" d="M325 307q85 -170 265 -170q133 0 207 103t74 310q0 189 -73 292t-210 103q-183 0 -263 -170v-468zM140 0v1536h185v-573q112 139 309 139t309.5 -149t112.5 -408v-16q0 -248 -114 -398.5t-306 -150.5q-205 0 -317 145l-9 -125h-170z"/>
<glyph glyph-name="c" horiz-adv-x="1072" unicode="c" d="M92 531v31q0 158 58 281t166.5 191t256.5 68q182 0 302.5 -109t128.5 -283h-175q-8 105 -79.5 172.5t-176.5 67.5q-141 0 -218.5 -101.5t-77.5 -293.5v-35q0 -187 77 -288t220 -101q99 0 173 60t82 150h175q-5 -93 -64 -177t-157.5 -134t-208.5 -50q-221 0 -351.5 147.5 t-130.5 403.5z"/>
<glyph glyph-name="d" horiz-adv-x="1155" unicode="d" d="M280 529q0 -184 76 -288t210 -104q176 0 257 158v497q-83 153 -255 153q-136 0 -212 -105t-76 -311zM95 536v14q0 249 118 400.5t309 151.5q190 0 301 -130v564h185v-1536h-170l-9 116q-111 -136 -309 -136q-188 0 -306.5 154t-118.5 402z"/>
<glyph glyph-name="e" horiz-adv-x="1085" unicode="e" d="M284 640h542v14q-8 141 -76 218.5t-184 77.5q-112 0 -188 -81.5t-94 -228.5zM93 511v34q0 161 61.5 287.5t172 198t239.5 71.5q211 0 328 -139t117 -398v-77h-733q4 -160 93.5 -258.5t227.5 -98.5q98 0 166 40t119 106l113 -88q-136 -209 -408 -209q-220 0 -358 144.5 t-138 386.5z"/>
<glyph glyph-name="f" horiz-adv-x="711" unicode="f" d="M60 939v143h171v111q0 174 93 269t263 95q64 0 127 -17l-10 -150q-47 9 -100 9q-90 0 -139 -52.5t-49 -150.5v-114h231v-143h-231v-939h-185v939h-171z"/>
<glyph glyph-name="g" horiz-adv-x="1149" unicode="g" d="M282 529q0 -183 75 -287.5t210 -104.5q175 0 257 159v494q-85 155 -255 155q-135 0 -211 -105t-76 -311zM96 550q0 253 117 402.5t310 149.5q198 0 309 -140l9 120h169v-1056q0 -210 -124.5 -331t-334.5 -121q-117 0 -229 50t-171 137l96 111q119 -147 291 -147 q135 0 210.5 76t75.5 214v93q-111 -128 -303 -128q-190 0 -307.5 153t-117.5 417z"/>
<glyph glyph-name="h" horiz-adv-x="1128" unicode="h" d="M140 0v1536h185v-585q123 151 320 151q343 0 346 -387v-715h-185v716q-1 117 -53.5 173t-163.5 56q-90 0 -158 -48t-106 -126v-771h-185z"/>
<glyph glyph-name="i" horiz-adv-x="497" unicode="i" d="M156 0v1082h185v-1082h-185zM141 1369q0 45 27.5 76t81.5 31t82 -31t28 -76t-28 -75t-82 -30t-81.5 30t-27.5 75z"/>
<glyph glyph-name="j" horiz-adv-x="489" unicode="j" d="M127 1369q0 44 27.5 75.5t80.5 31.5q54 0 82 -31t28 -76t-28 -75t-82 -30t-81 30t-27 75zM-65 -271q32 -8 84 -8q62 0 94.5 33.5t32.5 116.5v1211h185v-1207q0 -312 -283 -312q-61 0 -113 18v148z"/>
<glyph glyph-name="k" horiz-adv-x="1038" unicode="k" d="M141 0v1536h185v-929l99 119l337 356h225l-421 -452l470 -630h-217l-377 501l-116 -121v-380h-185z"/>
<glyph glyph-name="l" horiz-adv-x="497" unicode="l" d="M156 0v1536h185v-1536h-185z"/>
<glyph glyph-name="m" horiz-adv-x="1795" unicode="m" d="M139 0v1082h175l5 -120q119 140 321 140q227 0 309 -174q54 78 140.5 126t204.5 48q356 0 362 -377v-725h-185v714q0 116 -53 173.5t-178 57.5q-103 0 -171 -61.5t-79 -165.5v-718h-186v709q0 236 -231 236q-182 0 -249 -155v-790h-185z"/>
<glyph glyph-name="n" horiz-adv-x="1130" unicode="n" d="M140 0v1082h175l6 -136q124 156 324 156q343 0 346 -387v-715h-185v716q-1 117 -53.5 173t-163.5 56q-90 0 -158 -48t-106 -126v-771h-185z"/>
<glyph glyph-name="o" horiz-adv-x="1168" unicode="o" d="M277 529q0 -180 83.5 -289t223.5 -109q141 0 224 110.5t83 309.5q0 178 -84.5 288.5t-224.5 110.5q-137 0 -221 -109t-84 -312zM91 538v13q0 159 62.5 286t174 196t254.5 69q221 0 357.5 -153t136.5 -407v-13q0 -158 -60.5 -283.5t-173 -195.5t-258.5 -70 q-220 0 -356.5 153t-136.5 405z"/>
<glyph glyph-name="p" horiz-adv-x="1149" unicode="p" d="M325 279q83 -148 254 -148q133 0 211.5 105.5t78.5 313.5q0 183 -78 289t-214 106q-168 0 -252 -149v-517zM140 -416v1498h169l9 -120q113 140 314 140q195 0 308.5 -147t113.5 -409v-17q0 -247 -113 -398t-306 -151q-197 0 -310 125v-521h-185z"/>
<glyph glyph-name="q" horiz-adv-x="1164" unicode="q" d="M280 529q0 -186 78.5 -292t211.5 -106q165 0 252 146v530q-88 143 -250 143q-134 0 -213 -106.5t-79 -314.5zM95 537v13q0 255 117 403.5t314 148.5q192 0 303 -129l8 109h170v-1498h-185v516q-112 -120 -298 -120q-196 0 -312.5 152.5t-116.5 404.5z"/>
<glyph glyph-name="r" horiz-adv-x="693" unicode="r" d="M140 0v1082h180l3 -125q91 145 258 145q54 0 82 -14v-172q-42 7 -91 7q-182 0 -247 -155v-768h-185z"/>
<glyph glyph-name="s" horiz-adv-x="1056" unicode="s" d="M95 333h185q5 -93 74.5 -147.5t183.5 -54.5q105 0 168.5 42.5t63.5 113.5q0 75 -56.5 116.5t-197 71.5t-223 72t-122 100t-39.5 138q0 133 112.5 225t287.5 92q184 0 298.5 -95t114.5 -243h-186q0 76 -64.5 131t-162.5 55q-101 0 -158 -44t-57 -115q0 -67 53 -101 t191.5 -65t224.5 -74t127.5 -103.5t41.5 -147.5q0 -145 -116 -232.5t-301 -87.5q-130 0 -230 46t-156.5 128.5t-56.5 178.5z"/>
<glyph glyph-name="t" horiz-adv-x="669" unicode="t" d="M9 939v143h197v262h185v-262h202v-143h-202v-671q0 -65 27 -97.5t92 -32.5q32 0 88 12v-150q-73 -20 -142 -20q-124 0 -187 75t-63 213v671h-197z"/>
<glyph glyph-name="u" horiz-adv-x="1129" unicode="u" d="M136 378v704h185v-699q0 -246 200 -246q212 0 282 158v787h185v-1082h-176l-4 107q-108 -127 -317 -127q-173 0 -263.5 100.5t-91.5 297.5z"/>
<glyph glyph-name="v" horiz-adv-x="992" unicode="v" d="M33 1082h189l275 -831l268 831h189l-388 -1082h-141z"/>
<glyph glyph-name="w" horiz-adv-x="1539" unicode="w" d="M43 1082h184l213 -810l252 810h149l257 -827l208 827h185l-315 -1082h-150l-263 820l-256 -820h-150z"/>
<glyph glyph-name="x" horiz-adv-x="1015" unicode="x" d="M41 0l365 547l-354 535h214l237 -395l240 395h216l-354 -535l365 -547h-214l-250 405l-250 -405h-215z"/>
<glyph glyph-name="y" horiz-adv-x="969" unicode="y" d="M22 1082h202l270 -811l252 811h198l-435 -1249q-101 -270 -321 -270l-35 3l-69 13v150l50 -4q94 0 146.5 38t86.5 139l41 110z"/>
<glyph glyph-name="z" horiz-adv-x="1015" unicode="z" d="M88 0v136l597 793h-588v153h820v-131l-603 -800h633v-151h-859z"/>
<glyph glyph-name="braceleft" horiz-adv-x="693" unicode="{" d="M64 543v145q212 0 212 242v208q2 183 89.5 295.5t266.5 163.5l38 -115q-209 -67 -209 -349v-202q0 -227 -167 -316q167 -90 167 -319v-206q3 -275 209 -341l-38 -115q-177 50 -266.5 164.5t-89.5 302.5v199q0 243 -212 243z"/>
<glyph glyph-name="bar" horiz-adv-x="499" unicode="|" d="M175 -270v1726h149v-1726h-149z"/>
<glyph glyph-name="braceright" horiz-adv-x="693" unicode="}" d="M19 -251q203 65 210 331v220q0 231 181 315q-181 82 -181 315v203q0 282 -209 349l38 115q177 -50 266 -162.5t90 -297.5v-210q0 -239 212 -239v-145q-212 0 -212 -243v-202q0 -188 -90.5 -301t-265.5 -163z"/>
<glyph glyph-name="asciitilde" horiz-adv-x="1393" unicode="~" d="M131 436q0 160 92 263t231 103q76 0 146 -32t158 -112.5t152 -90.5l29 -2q76 0 123.5 58t47.5 153l153 1q0 -158 -93.5 -266.5t-230.5 -108.5q-72 0 -136 26.5t-148.5 100.5t-121.5 92t-79 18q-78 0 -120 -53.5t-42 -147.5z"/>
<glyph glyph-name="uni00A0" horiz-adv-x="507" unicode=" "/>
<glyph glyph-name="cent" horiz-adv-x="1120" unicode="¢" d="M105 527v35q0 212 101 354.5t278 175.5v226h185v-223q150 -23 246 -129t102 -256h-175q-8 105 -79.5 172.5t-176.5 67.5q-141 0 -218.5 -101.5t-77.5 -293.5v-35q0 -187 77.5 -288t218.5 -101q100 0 174 60.5t82 149.5h175q-6 -126 -105 -226.5t-243 -126.5v-233h-185 v234q-179 34 -279 176t-100 362z"/>
<glyph glyph-name="sterling" horiz-adv-x="1190" unicode="£" d="M91 622v157h160l-9 260q0 199 122.5 318t322.5 119q190 0 301 -106t111 -283h-191q0 107 -63.5 169t-174.5 62q-105 0 -170 -77t-65 -202l9 -260h319v-157h-314l8 -220q0 -154 -62 -245h733l-1 -157h-1032v157h77q40 9 65 74.5t27 161.5v8l-8 221h-165z"/>
<glyph glyph-name="yen" horiz-adv-x="1240" unicode="¥" d="M31 1456h220l363 -674l364 674h219l-418 -720h312v-125h-384v-165h384v-124h-384v-322h-193v322h-378v124h378v165h-378v125h313z"/>
<glyph glyph-name="dieresis" horiz-adv-x="856" unicode="¨" d="M532 1369q0 45 27.5 76t81.5 31t82 -31t28 -76t-28 -75t-82 -30t-81.5 30t-27.5 75zM102 1371q0 45 27.5 75.5t81.5 30.5t82 -30.5t28 -75.5t-28 -75t-82 -30t-81.5 30t-27.5 75z"/>
<glyph glyph-name="copyright" horiz-adv-x="1609" unicode="©" d="M442 676v110q0 176 95.5 281.5t250.5 105.5q160 0 246 -82t86 -231h-146q0 99 -47.5 141.5t-138.5 42.5q-94 0 -148 -69t-54 -192v-113q0 -120 54 -189t148 -69q92 0 138.5 42t46.5 143h146q0 -153 -86.5 -233.5t-244.5 -80.5q-157 0 -251.5 105.5t-94.5 287.5zM206 729 q0 -172 80 -318.5t217.5 -229.5t297.5 -83t297 83t217 229.5t80 318.5q0 170 -79 315t-216.5 228.5t-298.5 83.5q-160 0 -298 -82.5t-217.5 -228.5t-79.5 -316zM91 729q0 202 93.5 375t259 272.5t357.5 99.5t357 -99.5t258.5 -272.5t93.5 -375q0 -197 -90 -369 t-255.5 -276.5t-363.5 -104.5q-197 0 -362.5 103.5t-256.5 275.5t-91 371z"/>
<glyph glyph-name="guillemotleft" horiz-adv-x="961" unicode="«" d="M432 539v19l295 389h141l-258 -399l258 -397h-141zM102 539v19l295 389h141l-258 -399l258 -397h-141z"/>
<glyph glyph-name="uni00AD" horiz-adv-x="565" unicode="­" d="M37 543v151h488v-151h-488z"/>
<glyph glyph-name="registered" horiz-adv-x="1610" unicode="®" d="M653 782h156q72 2 116 35t44 87q0 73 -39 103.5t-139 30.5h-138v-256zM512 316v849h276q153 0 237.5 -65.5t84.5 -190.5q0 -123 -128 -188q122 -50 123 -204v-61q0 -86 17 -124v-16h-145q-14 36 -14 128.5t-3 109.5q-16 96 -131 100h-176v-338h-141zM205 729 q0 -172 80 -318.5t217.5 -229.5t297.5 -83q161 0 299 84.5t216.5 229.5t78.5 317q0 171 -78.5 315.5t-216.5 228t-299 83.5q-160 0 -298 -82.5t-217.5 -228.5t-79.5 -316zM90 729q0 202 93.5 375t259 272.5t357.5 99.5t357 -99.5t258.5 -272.5t93.5 -375q0 -197 -90 -369 t-255.5 -276.5t-363.5 -104.5q-197 0 -362.5 103.5t-256.5 275.5t-91 371z"/>
<glyph glyph-name="plusminus" horiz-adv-x="1094" unicode="±" d="M135 0v152h835v-152h-835zM97 703v151h385v413h167v-413h364v-151h-364v-414h-167v414h-385z"/>
<glyph glyph-name="acute" horiz-adv-x="642" unicode="´" d="M123 1240l193 294h224l-268 -294h-149z"/>
<glyph glyph-name="cedilla" horiz-adv-x="507" unicode="¸" d="M116 -328q79 0 122.5 26t43.5 73q0 44 -32 65t-130 30l32 134h133l-12 -52q153 -27 153 -173q0 -97 -80 -153.5t-223 -56.5z"/>
<glyph glyph-name="guillemotright" horiz-adv-x="960" unicode="»" d="M451 152l258 398l-258 399h142l295 -389v-19l-295 -389h-142zM102 152l258 398l-258 399h142l295 -389v-19l-295 -389h-142z"/>
<glyph glyph-name="multiply" horiz-adv-x="1092" unicode="×" d="M89 329l330 336l-328 335l119 123l329 -335l329 335l119 -123l-328 -335l330 -336l-119 -123l-331 337l-331 -337z"/>
<glyph glyph-name="circumflex" horiz-adv-x="964" unicode="ˆ" d="M169 1252v12l246 272h112l247 -274v-10h-153l-150 170l-149 -170h-153z"/>
<glyph glyph-name="tilde" horiz-adv-x="966" unicode="˜" d="M123 1248q0 107 60.5 177t153.5 70q35 0 63 -10t76 -39t73.5 -38t56.5 -9q43 0 71.5 34t28.5 79l124 -12q0 -108 -61.5 -175t-153.5 -67q-41 0 -71 10t-78.5 41t-70 37.5t-49.5 6.5q-41 0 -70 -31.5t-29 -80.5z"/>
<glyph glyph-name="uni0401" horiz-adv-x="1164" unicode="Ё" d="M728 1691q0 45 27.5 76t81.5 31t82 -31t28 -76t-28 -75t-82 -30t-81.5 30t-27.5 75zM298 1693q0 45 27.5 75.5t81.5 30.5t82 -30.5t28 -75.5t-28 -75t-82 -30t-81.5 30t-27.5 75zM169 0v1456h915v-158h-723v-468h631v-157h-631v-516h733v-157h-925z"/>
<glyph glyph-name="uni0410" horiz-adv-x="1336" unicode="А" d="M421 538h495l-248 681zM28 0l556 1456h168l557 -1456h-197l-139 380h-610l-137 -380h-198z"/>
<glyph glyph-name="uni0411" horiz-adv-x="1291" unicode="Б" d="M355 157h351q143 0 222.5 76t79.5 204q0 123 -76.5 194t-217.5 73h-359v-547zM162 0v1456h895v-158h-702v-436h362q228 -3 356 -117t128 -310q0 -197 -129 -314t-352 -121h-558z"/>
<glyph glyph-name="uni0412" horiz-adv-x="1275" unicode="В" d="M361 835h290q126 0 201.5 63t75.5 171q0 120 -70 174.5t-213 54.5h-284v-463zM361 157h317q134 0 211.5 69.5t77.5 191.5q0 263 -286 263h-320v-524zM169 0v1456h476q237 0 356.5 -98t119.5 -290q0 -102 -58 -180.5t-158 -121.5q118 -33 186.5 -125.5t68.5 -220.5 q0 -196 -127 -308t-359 -112h-505z"/>
<glyph glyph-name="uni0413" horiz-adv-x="1139" unicode="Г" d="M177 0v1456h895v-158h-702v-1298h-193z"/>
<glyph glyph-name="uni0414" horiz-adv-x="1540" unicode="Д" d="M388 157h710v1141h-493l-21 -428q-13 -251 -66.5 -428t-129.5 -285zM50 157h119q94 106 149.5 284.5t69.5 391.5l32 623h871v-1299h190l-2 -514h-191v357h-1045v-358h-192z"/>
<glyph glyph-name="uni0415" horiz-adv-x="1164" unicode="Е" d="M169 0v1456h915v-158h-723v-468h631v-157h-631v-516h733v-157h-925z"/>
<glyph glyph-name="uni0416" horiz-adv-x="1859" unicode="Ж" d="M27 0l490 768l-452 688h227l387 -632h165v632h192v-632h158l387 632h226l-452 -687l490 -769h-239l-414 664h-156v-664h-192v664h-165l-412 -664h-240z"/>
<glyph glyph-name="uni0417" horiz-adv-x="1215" unicode="З" d="M80 404h192q0 -115 91 -191.5t231 -76.5q157 0 250.5 73t93.5 193q0 256 -317 261h-180v158h179q146 3 221 66t75 178q0 116 -84.5 184.5t-237.5 68.5q-128 0 -214.5 -70.5t-86.5 -174.5h-192q0 116 63.5 208t177.5 143.5t252 51.5q244 0 379 -109.5t135 -304.5 q0 -101 -62 -184t-173 -131q257 -86 257 -341q0 -196 -146 -311t-390 -115q-145 0 -263.5 51.5t-184.5 146.5t-66 226z"/>
<glyph glyph-name="uni0418" horiz-adv-x="1460" unicode="И" d="M177 0v1456h193v-1122l717 1122h192v-1456h-192v1122l-717 -1122h-193z"/>
<glyph glyph-name="uni0419" horiz-adv-x="1460" unicode="Й" d="M434 1818h151q0 -70 38 -109.5t111 -39.5q70 0 109.5 39t39.5 110h150q0 -121 -82.5 -194.5t-216.5 -73.5t-217 74t-83 194zM177 0v1456h193v-1122l717 1122h192v-1456h-192v1122l-717 -1122h-193z"/>
<glyph glyph-name="uni041A" horiz-adv-x="1316" unicode="К" d="M178 0v1456h192v-642h150l509 642h239l-556 -706l597 -750h-235l-527 654h-177v-654h-192z"/>
<glyph glyph-name="uni041B" horiz-adv-x="1449" unicode="Л" d="M47 0v157l40 2q93 7 143 60.5t76 170.5t37 360l30 706h897v-1456h-192v1298h-522l-26 -577q-15 -290 -59.5 -436t-130.5 -214.5t-230 -70.5h-63z"/>
<glyph glyph-name="uni041C" horiz-adv-x="1788" unicode="М" d="M169 0v1456h248l476 -1188l476 1188h249v-1456h-192v567l18 612l-478 -1179h-147l-477 1176l19 -609v-567h-192z"/>
<glyph glyph-name="uni041D" horiz-adv-x="1460" unicode="Н" d="M169 0v1456h192v-626h734v626h193v-1456h-193v673h-734v-673h-192z"/>
<glyph glyph-name="uni041E" horiz-adv-x="1408" unicode="О" d="M309 681q0 -251 105.5 -394.5t290.5 -143.5q186 0 288 135.5t105 388.5v108q0 259 -104 397.5t-291 138.5q-182 0 -286.5 -138.5t-107.5 -384.5v-107zM118 668v105q0 210 73 371t206.5 246.5t305.5 85.5q175 0 308.5 -84.5t205.5 -245t72 -373.5v-92q0 -214 -72 -373.5 t-204 -243.5t-308 -84q-172 0 -305 84.5t-206.5 241t-75.5 362.5z"/>
<glyph glyph-name="uni041F" horiz-adv-x="1461" unicode="П" d="M178 0v1456h1103v-1456h-193v1298h-718v-1298h-192z"/>
<glyph glyph-name="uni0420" horiz-adv-x="1292" unicode="Р" d="M361 727h345q154 0 236 72.5t82 209.5q0 130 -82 208t-225 81h-356v-571zM169 0v1456h537q239 0 374.5 -122t135.5 -323q0 -212 -132.5 -326.5t-379.5 -114.5h-343v-570h-192z"/>
<glyph glyph-name="uni0421" horiz-adv-x="1333" unicode="С" d="M119 660v140q0 203 72.5 357t205.5 236.5t308 82.5q232 0 372 -129.5t163 -358.5h-193q-25 174 -108.5 252t-233.5 78q-184 0 -288.5 -136t-104.5 -387v-141q0 -237 99 -377t277 -140q160 0 245.5 72.5t113.5 252.5h193q-27 -231 -170.5 -356.5t-381.5 -125.5 q-258 0 -413.5 185t-155.5 495z"/>
<glyph glyph-name="uni0422" horiz-adv-x="1222" unicode="Т" d="M49 1298v158h1126v-158h-468v-1298h-191v1298h-467z"/>
<glyph glyph-name="uni0423" horiz-adv-x="1287" unicode="У" d="M77 1456h215l377 -845l335 845h223l-515 -1213q-52 -116 -97 -164.5t-105.5 -74t-151.5 -25.5q-79 0 -101 9l6 152l91 -4q105 0 156 101l25 52l38 89z"/>
<glyph glyph-name="uni0424" horiz-adv-x="1580" unicode="Ф" d="M888 288h28q191 0 298.5 117.5t107.5 319.5q0 200 -107.5 317t-302.5 117h-24v-871zM267 723q0 -206 109 -320.5t300 -114.5h26v871h-28q-188 0 -297.5 -115.5t-109.5 -320.5zM83 723q0 167 75.5 301t212 210t303.5 76h28v206h186v-206h31q165 -1 301 -77t211.5 -209.5 t75.5 -298.5q0 -166 -76 -301t-210 -210.5t-298 -77.5h-35v-196h-186v196h-28q-167 0 -303.5 76t-212 210t-75.5 301z"/>
<glyph glyph-name="uni0425" horiz-adv-x="1284" unicode="Х" d="M57 0l472 734l-461 722h225l351 -558l349 558h226l-460 -722l471 -734h-228l-358 568l-360 -568h-227z"/>
<glyph glyph-name="uni0426" horiz-adv-x="1497" unicode="Ц" d="M175 0v1456h193v-1299h718v1299h192v-1295h153l-18 -512h-173v351h-1065z"/>
<glyph glyph-name="uni0427" horiz-adv-x="1402" unicode="Ч" d="M150 989v467h193v-462q1 -152 69.5 -219t231.5 -67q190 0 387 54v694h193v-1456h-193v603q-105 -30 -191 -41.5t-196 -11.5q-249 0 -370 108t-124 331z"/>
<glyph glyph-name="uni0428" horiz-adv-x="1927" unicode="Ш" d="M176 0v1456h193v-1299h501v1299h191v-1299h498v1299h192v-1456h-1575z"/>
<glyph glyph-name="uni0429" horiz-adv-x="1984" unicode="Щ" d="M176 0v1456h193v-1299h501v1299h191v-1299h498v1299h192v-1305h147l-18 -502h-165v351h-1539z"/>
<glyph glyph-name="uni042A" horiz-adv-x="1554" unicode="Ъ" d="M619 157h351q142 0 221.5 76t79.5 204q0 123 -76.5 194t-216.5 73h-359v-547zM16 1304v152h603v-594h346q239 0 369 -114.5t130 -312.5q0 -197 -129 -314.5t-355 -120.5h-554v1304h-410z"/>
<glyph glyph-name="uni042B" horiz-adv-x="1771" unicode="Ы" d="M1392 0v1456h192v-1456h-192zM370 157h351q143 0 222.5 76t79.5 204q0 123 -76.5 194t-217.5 73h-359v-547zM178 0v1456h192v-594h362q228 -3 356 -117t128 -310q0 -197 -129 -314t-352 -121h-557z"/>
<glyph glyph-name="uni042C" horiz-adv-x="1285" unicode="Ь" d="M355 157h351q143 0 222.5 76t79.5 204q0 123 -76.5 194t-217.5 73h-359v-547zM163 0v1456h192v-594h362q228 -3 356 -117t128 -310q0 -197 -129 -314t-352 -121h-557z"/>
<glyph glyph-name="uni042D" horiz-adv-x="1380" unicode="Э" d="M147 462h193q28 -180 113.5 -252.5t245.5 -72.5q173 0 273.5 135t102.5 375h-573v158h573q0 237 -103.5 375t-289.5 138q-150 0 -233.5 -78t-108.5 -252h-193q23 229 163 358.5t372 129.5q176 0 309.5 -83.5t205 -238t71.5 -355.5v-145q0 -201 -71 -355t-200.5 -236.5 t-297.5 -82.5q-238 0 -381.5 125.5t-170.5 356.5z"/>
<glyph glyph-name="uni042E" horiz-adv-x="1831" unicode="Ю" d="M774 681q0 -251 105.5 -394.5t290.5 -143.5q186 0 288 135.5t105 388.5v108q0 259 -104 397.5t-291 138.5q-182 0 -286.5 -138.5t-107.5 -384.5v-107zM183 0v1456h192v-668h208q3 206 75 361.5t205 241t305 85.5q175 0 308.5 -84.5t205.5 -245t72 -373.5v-92 q0 -214 -72 -373.5t-204 -243.5t-308 -84q-166 0 -297.5 80t-206 229t-82.5 348h-209v-637h-192z"/>
<glyph glyph-name="uni042F" horiz-adv-x="1304" unicode="Я" d="M337 1017q0 -132 82.5 -212t229.5 -81h282v574h-273q-156 0 -238.5 -74t-82.5 -207zM89 0l338 620q-282 111 -282 397q0 208 136.5 323.5t379.5 115.5h463v-1456h-193v567h-336l-301 -567h-205z"/>
<glyph glyph-name="uni0430" horiz-adv-x="1114" unicode="а" d="M294 326q0 -87 58 -136t149 -49q87 0 165 45t113 117v222h-145q-340 0 -340 -199zM109 300q0 169 128.5 262.5t361.5 93.5h180v85q0 97 -58 154.5t-171 57.5q-99 0 -166 -50t-67 -121h-186q0 81 57.5 156.5t156 119.5t216.5 44q187 0 293 -93.5t110 -257.5v-498 q0 -149 38 -237v-16h-194q-16 32 -26 114q-129 -134 -308 -134q-160 0 -262.5 90.5t-102.5 229.5z"/>
<glyph glyph-name="uni0431" horiz-adv-x="1132" unicode="б" d="M283 507q0 -174 80.5 -275.5t217.5 -101.5q138 0 218 102t80 298q0 153 -80.5 245.5t-219.5 92.5q-136 0 -216 -91.5t-80 -253.5v-16zM97 516v90q0 341 126.5 542t373.5 245q140 25 189 61t49 99h152q0 -125 -56.5 -195t-180.5 -99l-138 -31q-165 -39 -247.5 -131.5 t-107.5 -246.5q147 170 358 170q204 0 326.5 -136.5t122.5 -359.5v-17q0 -153 -59 -273.5t-169.5 -187t-254.5 -66.5q-218 0 -351 145.5t-133 390.5z"/>
<glyph glyph-name="uni0432" horiz-adv-x="1170" unicode="в" d="M342 623h239q260 0 260 152t-246 157h-253v-309zM342 149h306q116 0 173.5 43t57.5 121q0 162 -238 162h-299v-326zM157 0v1082h422q216 0 331.5 -75.5t115.5 -221.5q0 -75 -45 -135.5t-133 -92.5q98 -23 157.5 -90t59.5 -160q0 -149 -109.5 -228t-309.5 -79h-489z"/>
<glyph glyph-name="uni0433" horiz-adv-x="859" unicode="г" d="M154 0v1082h685v-153h-499v-929h-186z"/>
<glyph glyph-name="uni0434" horiz-adv-x="1236" unicode="д" d="M350 151h497v760h-333l-11 -258q-17 -323 -153 -502zM46 -318l1 469h84l64 79q108 140 123 420l17 432h697v-931h139v-469h-185v318h-755v-318h-185z"/>
<glyph glyph-name="uni0435" horiz-adv-x="1085" unicode="е" d="M284 640h542v14q-8 141 -76 218.5t-184 77.5q-112 0 -188 -81.5t-94 -228.5zM93 511v34q0 161 61.5 287.5t172 198t239.5 71.5q211 0 328 -139t117 -398v-77h-733q4 -160 93.5 -258.5t227.5 -98.5q98 0 166 40t119 106l113 -88q-136 -209 -408 -209q-220 0 -358 144.5 t-138 386.5z"/>
<glyph glyph-name="uni0436" horiz-adv-x="1568" unicode="ж" d="M21 0l387 560l-350 522h224l279 -448h127v448h185v-448h126l281 448h224l-351 -523l387 -559h-234l-303 470h-130v-470h-185v470h-130l-303 -470h-234z"/>
<glyph glyph-name="uni0437" horiz-adv-x="1040" unicode="з" d="M88 320h184q0 -79 70.5 -135.5t175.5 -56.5q106 0 171 49t65 127q0 91 -54.5 130.5t-169.5 39.5h-185v156h201q189 5 189 156q0 76 -58 120.5t-159 44.5q-98 0 -163.5 -51t-65.5 -120h-184q0 141 118 231t295 90q190 0 296 -81.5t106 -232.5q0 -73 -44 -134t-125 -97 q189 -64 189 -252q0 -149 -115 -236t-307 -87q-187 0 -308.5 91.5t-121.5 247.5z"/>
<glyph glyph-name="uni0438" horiz-adv-x="1182" unicode="и" d="M156 0v1082h185v-790l499 790h185v-1082h-185v789l-499 -789h-185z"/>
<glyph glyph-name="uni0439" horiz-adv-x="1182" unicode="й" d="M291 1476h151q0 -70 38 -109.5t111 -39.5q70 0 109.5 39t39.5 110h150q0 -121 -82.5 -194.5t-216.5 -73.5t-217 74t-83 194zM156 0v1082h185v-790l499 790h185v-1082h-185v789l-499 -789h-185z"/>
<glyph glyph-name="uni043A" horiz-adv-x="1106" unicode="к" d="M156 0v1082h186v-458h121l364 458h224l-428 -520l464 -562h-235l-375 461h-135v-461h-186z"/>
<glyph glyph-name="uni043B" horiz-adv-x="1184" unicode="л" d="M44 0v163l53 4q90 10 129 104t50 348l20 463h731v-1082h-186v929h-368l-22 -405q-18 -279 -93.5 -399t-239.5 -125h-74z"/>
<glyph glyph-name="uni043C" horiz-adv-x="1519" unicode="м" d="M157 0v1082h240l366 -837l368 837h231v-1082h-185v787l-350 -787h-128l-357 804v-804h-185z"/>
<glyph glyph-name="uni043D" horiz-adv-x="1181" unicode="н" d="M156 0v1082h186v-469h497v469h185v-1082h-185v462h-497v-462h-186z"/>
<glyph glyph-name="uni043E" horiz-adv-x="1168" unicode="о" d="M277 529q0 -180 83.5 -289t223.5 -109q141 0 224 110.5t83 309.5q0 178 -84.5 288.5t-224.5 110.5q-137 0 -221 -109t-84 -312zM91 538v13q0 159 62.5 286t174 196t254.5 69q221 0 357.5 -153t136.5 -407v-13q0 -158 -60.5 -283.5t-173 -195.5t-258.5 -70 q-220 0 -356.5 153t-136.5 405z"/>
<glyph glyph-name="uni043F" horiz-adv-x="1182" unicode="п" d="M156 0v1082h869v-1082h-185v929h-498v-929h-186z"/>
<glyph glyph-name="uni0440" horiz-adv-x="1149" unicode="р" d="M325 279q83 -148 254 -148q133 0 211.5 105.5t78.5 313.5q0 183 -78 289t-214 106q-168 0 -252 -149v-517zM140 -416v1498h169l9 -120q113 140 314 140q195 0 308.5 -147t113.5 -409v-17q0 -247 -113 -398t-306 -151q-197 0 -310 125v-521h-185z"/>
<glyph glyph-name="uni0441" horiz-adv-x="1072" unicode="с" d="M92 531v31q0 158 58 281t166.5 191t256.5 68q182 0 302.5 -109t128.5 -283h-175q-8 105 -79.5 172.5t-176.5 67.5q-141 0 -218.5 -101.5t-77.5 -293.5v-35q0 -187 77 -288t220 -101q99 0 173 60t82 150h175q-5 -93 -64 -177t-157.5 -134t-208.5 -50q-221 0 -351.5 147.5 t-130.5 403.5z"/>
<glyph glyph-name="uni0442" horiz-adv-x="984" unicode="т" d="M40 932v150h904v-150h-363v-932h-185v932h-356z"/>
<glyph glyph-name="uni0443" horiz-adv-x="969" unicode="у" d="M22 1082h202l270 -811l252 811h198l-435 -1249q-101 -270 -321 -270l-35 3l-69 13v150l50 -4q94 0 146.5 38t86.5 139l41 110z"/>
<glyph glyph-name="uni0444" horiz-adv-x="1485" unicode="ф" d="M827 147q45 -17 112 -17q124 0 192.5 96t68.5 295q0 204 -70 316.5t-193 112.5q-63 0 -110 -20v-783zM285 500q0 -182 65 -276t187 -94q58 0 105 18v785q-42 17 -103 17q-122 0 -188 -109t-66 -341zM100 506v15q0 271 105 426t288 155q85 0 149 -29v463h185v-469 q70 35 164 35q184 0 289 -155t105 -447q0 -239 -104.5 -380t-287.5 -141q-97 0 -166 32v-427h-185v424q-66 -29 -151 -29q-182 0 -286.5 141t-104.5 386z"/>
<glyph glyph-name="uni0445" horiz-adv-x="1015" unicode="х" d="M41 0l365 547l-354 535h214l237 -395l240 395h216l-354 -535l365 -547h-214l-250 405l-250 -405h-215z"/>
<glyph glyph-name="uni0446" horiz-adv-x="1213" unicode="ц" d="M156 0v1082h186v-931h498v931h185v-931h129l-18 -472h-166v321h-814z"/>
<glyph glyph-name="uni0447" horiz-adv-x="1113" unicode="ч" d="M103 760v323h185v-329q5 -242 233 -242q128 0 250 32v538h186v-1082h-186v392q-122 -32 -250 -32q-203 0 -309.5 104t-108.5 296z"/>
<glyph glyph-name="uni0448" horiz-adv-x="1656" unicode="ш" d="M156 0v1082h186v-931h396v931h185v-931h395v931h186v-1082h-1348z"/>
<glyph glyph-name="uni0449" horiz-adv-x="1694" unicode="щ" d="M145 0v1082h186v-931h396v931h185v-931h395v931h186v-931h152l-18 -472h-166v321h-1316z"/>
<glyph glyph-name="uni044A" horiz-adv-x="1271" unicode="ъ" d="M536 151h275q104 0 161 53.5t57 146.5q0 90 -55.5 147.5t-155.5 59.5h-282v-407zM30 930v152h506v-373h281q184 -2 291 -96t107 -255q0 -162 -110 -260t-296 -98h-458v930h-321z"/>
<glyph glyph-name="uni044B" horiz-adv-x="1590" unicode="ы" d="M1221 0v1082h186v-1082h-186zM342 151h275q104 0 161 53.5t57 146.5q0 90 -55.5 147.5t-155.5 59.5h-282v-407zM157 0v1082h185v-373h281q184 -2 291 -96t107 -255q0 -162 -110 -260t-296 -98h-458z"/>
<glyph glyph-name="uni044C" horiz-adv-x="1112" unicode="ь" d="M342 151h275q104 0 161 53.5t57 146.5q0 90 -55.5 147.5t-155.5 59.5h-282v-407zM157 0v1082h185v-373h281q184 -2 291 -96t107 -255q0 -162 -110 -260t-296 -98h-458z"/>
<glyph glyph-name="uni044D" horiz-adv-x="1101" unicode="э" d="M100 371h176q0 -102 71 -171.5t173 -69.5q119 0 196 92t89 253h-406v152h404q-14 146 -89 234.5t-194 88.5q-99 0 -171.5 -63t-72.5 -149h-176q0 93 59 178t157 135.5t204 50.5q211 0 341.5 -152.5t130.5 -398.5v-31q0 -152 -59.5 -277.5t-167 -194t-245.5 -68.5 q-180 0 -300 112t-120 279z"/>
<glyph glyph-name="uni044E" horiz-adv-x="1671" unicode="ю" d="M784 529q0 -180 83.5 -289t224.5 -109t223.5 111t82.5 309q0 177 -84 288t-224 111q-138 0 -222 -109t-84 -312zM157 0v1082h185v-459h260q21 216 153.5 347.5t334.5 131.5q212 0 347 -143t146 -372l1 -58q0 -158 -62 -285t-174 -195.5t-256 -68.5q-209 0 -342 136.5 t-149 354.5h-259v-471h-185z"/>
<glyph glyph-name="uni044F" horiz-adv-x="1124" unicode="я" d="M290 750q0 -79 54 -127.5t143 -49.5h294v359h-266q-103 0 -164 -50.5t-61 -131.5zM47 0l272 449q-104 38 -159.5 117.5t-55.5 185.5q0 148 111 238.5t297 91.5h455v-1082h-186v421h-279l-255 -421h-200z"/>
<glyph glyph-name="uni0451" horiz-adv-x="1085" unicode="ё" d="M674 1369q0 45 27.5 76t81.5 31t82 -31t28 -76t-28 -75t-82 -30t-81.5 30t-27.5 75zM284 640h542v14q-8 141 -76 218.5t-184 77.5q-112 0 -188 -81.5t-94 -228.5zM244 1371q0 45 27.5 75.5t81.5 30.5t82 -30.5t28 -75.5t-28 -75t-82 -30t-81.5 30t-27.5 75zM93 511v34 q0 161 61.5 287.5t172 198t239.5 71.5q211 0 328 -139t117 -398v-77h-733q4 -160 93.5 -258.5t227.5 -98.5q98 0 166 40t119 106l113 -88q-136 -209 -408 -209q-220 0 -358 144.5t-138 386.5z"/>
<glyph glyph-name="uni2002" horiz-adv-x="909" unicode=" "/>
<glyph glyph-name="uni2003" horiz-adv-x="1818" unicode=" "/>
<glyph glyph-name="uni2009" horiz-adv-x="363" unicode=" "/>
<glyph glyph-name="endash" horiz-adv-x="1344" unicode="–" d="M155 651v151h1002v-151h-1002z"/>
<glyph glyph-name="emdash" horiz-adv-x="1599" unicode="—" d="M71 651v151h1336v-151h-1336z"/>
<glyph glyph-name="quoteleft" horiz-adv-x="409" unicode="‘" d="M96 1073v116q0 102 48.5 202t125.5 164l106 -72q-93 -127 -96 -274v-136h-184z"/>
<glyph glyph-name="quotesinglbase" horiz-adv-x="407" unicode="‚" d="M36 -210q91 127 94 273v118h185v-100q0 -101 -49.5 -202t-124.5 -162z"/>
<glyph glyph-name="quotedblleft" horiz-adv-x="724" unicode="“" d="M419 1073v116q0 102 48.5 202t125.5 164l106 -72q-93 -127 -96 -274v-136h-184zM104 1073v116q0 102 48.5 202t125.5 164l106 -72q-93 -127 -96 -274v-136h-184z"/>
<glyph glyph-name="quotedblright" horiz-adv-x="731" unicode="”" d="M367 1118q93 130 96 274v144h183v-130q-1 -100 -49.5 -199.5t-124.5 -160.5zM60 1118q93 130 96 274v144h183v-130q-1 -100 -49.5 -199.5t-124.5 -160.5z"/>
<glyph glyph-name="ellipsis" horiz-adv-x="1370" unicode="…" d="M1000 97q0 48 28.5 80t85.5 32t86.5 -32t29.5 -80q0 -46 -29.5 -77t-86.5 -31t-85.5 31t-28.5 77zM585 97q0 48 28.5 80t85.5 32t86.5 -32t29.5 -80q0 -46 -29.5 -77t-86.5 -31t-85.5 31t-28.5 77zM148 97q0 48 28.5 80t85.5 32t86.5 -32t29.5 -80q0 -46 -29.5 -77 t-86.5 -31t-85.5 31t-28.5 77z"/>
<glyph glyph-name="guilsinglleft" horiz-adv-x="614" unicode="‹" d="M108 541v19l295 389h141l-258 -399l258 -397h-141z"/>
<glyph glyph-name="guilsinglright" horiz-adv-x="614" unicode="›" d="M89 152l258 398l-258 399h142l295 -389v-19l-295 -389h-142z"/>
<glyph glyph-name="Euro" d="M95 541v124h178v137h-178v125h178q10 262 152.5 405.5t385.5 143.5q106 0 241 -31l-20 -162q-109 35 -219 35q-164 0 -252.5 -101.5t-94.5 -289.5h383v-125h-384v-137h384v-124h-384q4 -195 94 -300t255 -105q116 0 218 34l20 -160q-120 -30 -240 -30 q-248 0 -390.5 146.5t-148.5 414.5h-178z" unicode="€"/>
<glyph glyph-name="uni20BD" horiz-adv-x="1359" unicode="₽" d="M429 727h346q155 0 236 73t81 213q0 127 -84 205.5t-227 79.5h-352v-571zM31 275v158h207v137h-207v157h207v729h537q234 0 371 -119t137 -322q0 -213 -131.5 -328.5t-373.5 -116.5h-349v-137h335v-158h-335v-275h-191v275h-207z"/>
<glyph glyph-name="trademark" horiz-adv-x="1281" unicode="™" d="M568 919v537h112l144 -399l144 399h112v-537h-90v394l-140 -394h-52l-140 393v-393h-90zM103 1375v81h386v-81h-147v-456h-91v456h-148z"/>
<glyph glyph-name="approxequal" horiz-adv-x="1154" unicode="≈" d="M102 712v189q48 51 113.5 80t131.5 29h9q77 0 147 -33l152 -78q66 -31 144 -31q134 0 236 128v-190q-103 -109 -236 -109q-78 0 -144 31l-161 83q-64 29 -137 29h-10q-66 0 -131.5 -34t-113.5 -94zM101 294v189q48 51 113 80.5t131 29.5h9q77 0 147 -33l149 -77 q68 -33 148 -33q133 0 235 128l1 -189q-103 -109 -236 -109q-78 0 -144 31l-152 78q-70 33 -147 33h-9q-66 0 -131.5 -34t-113.5 -94z"/>
<glyph glyph-name="notequal" horiz-adv-x="1124" unicode="≠" d="M152 399v160h267l149 255h-416v161h510l153 262l95 -59l-119 -203h195v-161h-289l-148 -255h437v-160h-531l-142 -244l-95 59l108 185h-174z"/>
<hkern k="40" u1=" " u2="Т"/>
<hkern k="40" u1=" " u2="T"/>
<hkern k="-11" u1='&quot;' u2="w"/>
<hkern k="-11" u1="&apos;" u2="w"/>
<hkern k="-22" u1="(" u2="Y"/>
<hkern k="-18" u1="(" u2="W"/>
<hkern k="-20" u1="(" u2="V"/>
<hkern k="224" u1="/" u2="/"/>
<hkern k="54" u1="A" u2="т"/>
<hkern k="59" u1="A" u2="Ь"/>
<hkern k="-19" u1="A" u2="Д"/>
<hkern k="33" u1="A" u2="w"/>
<hkern k="17" u1="A" u2="t"/>
<hkern k="61" u1="A" u2="?"/>
<hkern k="17" u1="C" u2="}"/>
<hkern k="12" u1="C" u2="]"/>
<hkern k="26" u1="C" u2=")"/>
<hkern k="32" u1="D" u2="Ь"/>
<hkern k="33" u1="D" u2="Д"/>
<hkern k="22" u1="E" u2="w"/>
<hkern k="18" u1="E" u2="f"/>
<hkern k="234" u1="F" u2="…"/>
<hkern k="234" u1="F" u2="‚"/>
<hkern k="21" u1="F" u2="ё"/>
<hkern k="21" u1="F" u2="ф"/>
<hkern k="24" u1="F" u2="у"/>
<hkern k="21" u1="F" u2="с"/>
<hkern k="21" u1="F" u2="о"/>
<hkern k="21" u1="F" u2="е"/>
<hkern k="34" u1="F" u2="а"/>
<hkern k="-20" u1="F" u2="Т"/>
<hkern k="170" u1="F" u2="А"/>
<hkern k="24" u1="F" u2="y"/>
<hkern k="24" u1="F" u2="v"/>
<hkern k="22" u1="F" u2="u"/>
<hkern k="26" u1="F" u2="r"/>
<hkern k="21" u1="F" u2="q"/>
<hkern k="21" u1="F" u2="o"/>
<hkern k="21" u1="F" u2="g"/>
<hkern k="21" u1="F" u2="e"/>
<hkern k="21" u1="F" u2="d"/>
<hkern k="21" u1="F" u2="c"/>
<hkern k="34" u1="F" u2="a"/>
<hkern k="-20" u1="F" u2="T"/>
<hkern k="264" u1="F" u2="J"/>
<hkern k="170" u1="F" u2="A"/>
<hkern k="234" u1="F" u2="."/>
<hkern k="234" u1="F" u2=","/>
<hkern k="-21" u1="H" u2="д"/>
<hkern k="-21" u1="H" u2="Д"/>
<hkern k="-21" u1="I" u2="д"/>
<hkern k="-21" u1="I" u2="Д"/>
<hkern k="71" u1="K" u2="т"/>
<hkern k="41" u1="K" u2="б"/>
<hkern k="63" u1="K" u2="w"/>
<hkern k="92" u1="L" u2="w"/>
<hkern k="-21" u1="M" u2="д"/>
<hkern k="-21" u1="M" u2="Д"/>
<hkern k="-21" u1="N" u2="д"/>
<hkern k="-21" u1="N" u2="Д"/>
<hkern k="32" u1="O" u2="Ь"/>
<hkern k="33" u1="O" u2="Д"/>
<hkern k="54" u1="P" u2="д"/>
<hkern k="88" u1="P" u2="Д"/>
<hkern k="-14" u1="P" u2="t"/>
<hkern k="43" u1="Q" u2="Т"/>
<hkern k="35" u1="Q" u2="Y"/>
<hkern k="20" u1="Q" u2="W"/>
<hkern k="28" u1="Q" u2="V"/>
<hkern k="43" u1="Q" u2="T"/>
<hkern k="80" u1="R" u2="Т"/>
<hkern k="48" u1="R" u2="Y"/>
<hkern k="19" u1="R" u2="V"/>
<hkern k="80" u1="R" u2="T"/>
<hkern k="135" u1="T" u2="я"/>
<hkern k="128" u1="T" u2="э"/>
<hkern k="131" u1="T" u2="ы"/>
<hkern k="78" u1="T" u2="т"/>
<hkern k="128" u1="T" u2="з"/>
<hkern k="140" u1="T" u2="д"/>
<hkern k="96" u1="T" u2="в"/>
<hkern k="28" u1="T" u2="б"/>
<hkern k="-15" u1="T" u2="Ь"/>
<hkern k="91" u1="T" u2="Д"/>
<hkern k="216" u1="T" u2="»"/>
<hkern k="328" u1="T" u2="«"/>
<hkern k="57" u1="T" u2="w"/>
<hkern k="75" u1="T" u2="r"/>
<hkern k="40" u1="T" u2=" "/>
<hkern k="-19" u1="V" u2="}"/>
<hkern k="30" u1="V" u2="r"/>
<hkern k="-17" u1="V" u2="]"/>
<hkern k="-20" u1="V" u2=")"/>
<hkern k="-14" u1="W" u2="}"/>
<hkern k="21" u1="W" u2="r"/>
<hkern k="-12" u1="W" u2="]"/>
<hkern k="-15" u1="W" u2=")"/>
<hkern k="41" u1="X" u2="т"/>
<hkern k="23" u1="X" u2="б"/>
<hkern k="-18" u1="X" u2="Д"/>
<hkern k="51" u1="Y" u2="»"/>
<hkern k="82" u1="Y" u2="«"/>
<hkern k="-19" u1="Y" u2="}"/>
<hkern k="22" u1="Y" u2="t"/>
<hkern k="40" u1="Y" u2="r"/>
<hkern k="22" u1="Y" u2="f"/>
<hkern k="-18" u1="Y" u2="]"/>
<hkern k="49" u1="Y" u2="*"/>
<hkern k="-20" u1="Y" u2=")"/>
<hkern k="30" u1="Y" u2="&amp;"/>
<hkern k="27" u1="Z" u2="w"/>
<hkern k="18" u1="[" u2="U"/>
<hkern k="18" u1="[" u2="J"/>
<hkern k="16" u1="a" u2="т"/>
<hkern k="80" u1="b" u2="т"/>
<hkern k="18" u1="b" u2="д"/>
<hkern k="11" u1="e" u2="т"/>
<hkern k="-16" u1="f" u2="”"/>
<hkern k="-16" u1="f" u2="“"/>
<hkern k="-16" u1="f" u2="‘"/>
<hkern k="24" u1="f" u2="ё"/>
<hkern k="24" u1="f" u2="ф"/>
<hkern k="24" u1="f" u2="с"/>
<hkern k="24" u1="f" u2="е"/>
<hkern k="-19" u1="f" u2="}"/>
<hkern k="24" u1="f" u2="q"/>
<hkern k="24" u1="f" u2="g"/>
<hkern k="24" u1="f" u2="e"/>
<hkern k="24" u1="f" u2="d"/>
<hkern k="24" u1="f" u2="c"/>
<hkern k="-18" u1="f" u2="]"/>
<hkern k="-20" u1="f" u2=")"/>
<hkern k="-16" u1="f" u2="&apos;"/>
<hkern k="-16" u1="f" u2='&quot;'/>
<hkern k="64" u1="h" u2="т"/>
<hkern k="20" u1="k" u2="ё"/>
<hkern k="20" u1="k" u2="ф"/>
<hkern k="20" u1="k" u2="с"/>
<hkern k="20" u1="k" u2="е"/>
<hkern k="20" u1="k" u2="q"/>
<hkern k="20" u1="k" u2="g"/>
<hkern k="20" u1="k" u2="e"/>
<hkern k="20" u1="k" u2="d"/>
<hkern k="20" u1="k" u2="c"/>
<hkern k="64" u1="m" u2="т"/>
<hkern k="64" u1="n" u2="т"/>
<hkern k="22" u1="o" u2="т"/>
<hkern k="72" u1="o" u2="д"/>
<hkern k="80" u1="p" u2="т"/>
<hkern k="18" u1="p" u2="д"/>
<hkern k="-17" u1="r" u2="w"/>
<hkern k="-50" u1="r" u2="t"/>
<hkern k="-15" u1="r" u2="f"/>
<hkern k="20" u1="t" u2="о"/>
<hkern k="20" u1="t" u2="o"/>
<hkern k="56" u1="v" u2="д"/>
<hkern k="-13" u1="v" u2="f"/>
<hkern k="124" u1="w" u2="…"/>
<hkern k="124" u1="w" u2="‚"/>
<hkern k="124" u1="w" u2="."/>
<hkern k="124" u1="w" u2=","/>
<hkern k="56" u1="y" u2="д"/>
<hkern k="-13" u1="y" u2="f"/>
<hkern k="20" u1="{" u2="U"/>
<hkern k="20" u1="{" u2="J"/>
<hkern k="22" u1="Ё" u2="w"/>
<hkern k="18" u1="Ё" u2="f"/>
<hkern k="54" u1="А" u2="т"/>
<hkern k="59" u1="А" u2="Ь"/>
<hkern k="-19" u1="А" u2="Д"/>
<hkern k="33" u1="А" u2="w"/>
<hkern k="17" u1="А" u2="t"/>
<hkern k="61" u1="А" u2="?"/>
<hkern k="15" u1="Б" u2="х"/>
<hkern k="48" u1="Б" u2="т"/>
<hkern k="15" u1="Б" u2="ж"/>
<hkern k="26" u1="Б" u2="Ь"/>
<hkern k="24" u1="Б" u2="Ч"/>
<hkern k="14" u1="Б" u2="Х"/>
<hkern k="18" u1="Б" u2="У"/>
<hkern k="26" u1="Б" u2="Т"/>
<hkern k="14" u1="Б" u2="Ж"/>
<hkern k="15" u1="Б" u2="x"/>
<hkern k="25" u1="Б" u2="Y"/>
<hkern k="14" u1="Б" u2="X"/>
<hkern k="25" u1="Б" u2="V"/>
<hkern k="26" u1="Б" u2="T"/>
<hkern k="249" u1="Г" u2="я"/>
<hkern k="237" u1="Г" u2="э"/>
<hkern k="242" u1="Г" u2="ы"/>
<hkern k="152" u1="Г" u2="т"/>
<hkern k="237" u1="Г" u2="з"/>
<hkern k="258" u1="Г" u2="д"/>
<hkern k="183" u1="Г" u2="в"/>
<hkern k="67" u1="Г" u2="б"/>
<hkern k="-5" u1="Г" u2="Ь"/>
<hkern k="174" u1="Г" u2="Д"/>
<hkern k="387" u1="Г" u2="»"/>
<hkern k="577" u1="Г" u2="«"/>
<hkern k="116" u1="Г" u2="w"/>
<hkern k="147" u1="Г" u2="r"/>
<hkern k="32" u1="Д" u2="ч"/>
<hkern k="-16" u1="Д" u2="л"/>
<hkern k="-19" u1="Д" u2="д"/>
<hkern k="32" u1="Д" u2="Ь"/>
<hkern k="31" u1="Д" u2="Ч"/>
<hkern k="32" u1="Д" u2="Т"/>
<hkern k="24" u1="Д" u2="С"/>
<hkern k="24" u1="Д" u2="О"/>
<hkern k="-16" u1="Д" u2="Л"/>
<hkern k="-20" u1="Д" u2="Д"/>
<hkern k="-16" u1="Д" u2="А"/>
<hkern k="33" u1="Д" u2="Y"/>
<hkern k="32" u1="Д" u2="V"/>
<hkern k="32" u1="Д" u2="T"/>
<hkern k="24" u1="Д" u2="Q"/>
<hkern k="24" u1="Д" u2="O"/>
<hkern k="24" u1="Д" u2="G"/>
<hkern k="24" u1="Д" u2="C"/>
<hkern k="-16" u1="Д" u2="A"/>
<hkern k="22" u1="Е" u2="w"/>
<hkern k="18" u1="Е" u2="f"/>
<hkern k="41" u1="Ж" u2="т"/>
<hkern k="23" u1="Ж" u2="б"/>
<hkern k="-18" u1="Ж" u2="Д"/>
<hkern k="15" u1="З" u2="Ь"/>
<hkern k="12" u1="З" u2="Х"/>
<hkern k="13" u1="З" u2="У"/>
<hkern k="15" u1="З" u2="Т"/>
<hkern k="11" u1="З" u2="Л"/>
<hkern k="12" u1="З" u2="Ж"/>
<hkern k="16" u1="З" u2="Y"/>
<hkern k="12" u1="З" u2="X"/>
<hkern k="12" u1="З" u2="V"/>
<hkern k="15" u1="З" u2="T"/>
<hkern k="14" u1="З" u2="7"/>
<hkern k="-21" u1="И" u2="д"/>
<hkern k="-21" u1="И" u2="Д"/>
<hkern k="71" u1="К" u2="т"/>
<hkern k="41" u1="К" u2="б"/>
<hkern k="63" u1="К" u2="w"/>
<hkern k="-21" u1="Л" u2="д"/>
<hkern k="-21" u1="Л" u2="Д"/>
<hkern k="-21" u1="М" u2="д"/>
<hkern k="-21" u1="М" u2="Д"/>
<hkern k="-21" u1="Н" u2="д"/>
<hkern k="-21" u1="Н" u2="Д"/>
<hkern k="32" u1="О" u2="Ь"/>
<hkern k="33" u1="О" u2="Д"/>
<hkern k="54" u1="Р" u2="д"/>
<hkern k="88" u1="Р" u2="Д"/>
<hkern k="-14" u1="Р" u2="t"/>
<hkern k="17" u1="С" u2="}"/>
<hkern k="12" u1="С" u2="]"/>
<hkern k="26" u1="С" u2=")"/>
<hkern k="135" u1="Т" u2="я"/>
<hkern k="128" u1="Т" u2="э"/>
<hkern k="131" u1="Т" u2="ы"/>
<hkern k="78" u1="Т" u2="т"/>
<hkern k="128" u1="Т" u2="з"/>
<hkern k="140" u1="Т" u2="д"/>
<hkern k="96" u1="Т" u2="в"/>
<hkern k="28" u1="Т" u2="б"/>
<hkern k="-15" u1="Т" u2="Ь"/>
<hkern k="91" u1="Т" u2="Д"/>
<hkern k="216" u1="Т" u2="»"/>
<hkern k="328" u1="Т" u2="«"/>
<hkern k="57" u1="Т" u2="w"/>
<hkern k="75" u1="Т" u2="r"/>
<hkern k="40" u1="Т" u2=" "/>
<hkern k="46" u1="У" u2="я"/>
<hkern k="33" u1="У" u2="ы"/>
<hkern k="42" u1="У" u2="з"/>
<hkern k="83" u1="У" u2="д"/>
<hkern k="32" u1="У" u2="в"/>
<hkern k="-18" u1="У" u2="Ь"/>
<hkern k="82" u1="У" u2="Д"/>
<hkern k="41" u1="Х" u2="т"/>
<hkern k="23" u1="Х" u2="б"/>
<hkern k="-18" u1="Х" u2="Д"/>
<hkern k="-21" u1="Ц" u2="д"/>
<hkern k="-21" u1="Ц" u2="Д"/>
<hkern k="-21" u1="Ш" u2="д"/>
<hkern k="-21" u1="Ш" u2="Д"/>
<hkern k="24" u1="Щ" u2="ч"/>
<hkern k="25" u1="Щ" u2="т"/>
<hkern k="-15" u1="Щ" u2="л"/>
<hkern k="-18" u1="Щ" u2="д"/>
<hkern k="12" u1="Щ" u2="Э"/>
<hkern k="26" u1="Щ" u2="Ь"/>
<hkern k="27" u1="Щ" u2="Ч"/>
<hkern k="-14" u1="Щ" u2="Х"/>
<hkern k="-11" u1="Щ" u2="У"/>
<hkern k="26" u1="Щ" u2="Т"/>
<hkern k="-14" u1="Щ" u2="Л"/>
<hkern k="-14" u1="Щ" u2="Ж"/>
<hkern k="-19" u1="Щ" u2="Д"/>
<hkern k="-15" u1="Щ" u2="А"/>
<hkern k="26" u1="Щ" u2="Y"/>
<hkern k="-14" u1="Щ" u2="X"/>
<hkern k="26" u1="Щ" u2="V"/>
<hkern k="26" u1="Щ" u2="T"/>
<hkern k="-15" u1="Щ" u2="A"/>
<hkern k="49" u1="Ъ" u2="т"/>
<hkern k="61" u1="Ъ" u2="Ь"/>
<hkern k="49" u1="Ь" u2="т"/>
<hkern k="61" u1="Ь" u2="Ь"/>
<hkern k="22" u1="Э" u2="л"/>
<hkern k="27" u1="Э" u2="Х"/>
<hkern k="23" u1="Э" u2="У"/>
<hkern k="29" u1="Э" u2="Т"/>
<hkern k="27" u1="Э" u2="Л"/>
<hkern k="27" u1="Э" u2="Ж"/>
<hkern k="30" u1="Э" u2="Д"/>
<hkern k="28" u1="Э" u2="Y"/>
<hkern k="27" u1="Э" u2="X"/>
<hkern k="29" u1="Э" u2="T"/>
<hkern k="21" u1="Ю" u2="л"/>
<hkern k="28" u1="Ю" u2="д"/>
<hkern k="28" u1="Ю" u2="Х"/>
<hkern k="23" u1="Ю" u2="У"/>
<hkern k="30" u1="Ю" u2="Т"/>
<hkern k="28" u1="Ю" u2="Л"/>
<hkern k="28" u1="Ю" u2="Ж"/>
<hkern k="31" u1="Ю" u2="Д"/>
<hkern k="28" u1="Ю" u2="X"/>
<hkern k="30" u1="Ю" u2="T"/>
<hkern k="21" u1="Я" u2="Т"/>
<hkern k="13" u1="Я" u2="Y"/>
<hkern k="21" u1="Я" u2="T"/>
<hkern k="16" u1="а" u2="т"/>
<hkern k="17" u1="б" u2="ю"/>
<hkern k="17" u1="б" u2="ь"/>
<hkern k="17" u1="б" u2="щ"/>
<hkern k="17" u1="б" u2="ш"/>
<hkern k="17" u1="б" u2="ц"/>
<hkern k="16" u1="б" u2="х"/>
<hkern k="18" u1="б" u2="т"/>
<hkern k="17" u1="б" u2="р"/>
<hkern k="17" u1="б" u2="п"/>
<hkern k="17" u1="б" u2="н"/>
<hkern k="17" u1="б" u2="м"/>
<hkern k="17" u1="б" u2="к"/>
<hkern k="17" u1="б" u2="й"/>
<hkern k="17" u1="б" u2="и"/>
<hkern k="16" u1="б" u2="ж"/>
<hkern k="18" u1="б" u2="д"/>
<hkern k="17" u1="б" u2="г"/>
<hkern k="16" u1="б" u2="x"/>
<hkern k="17" u1="б" u2="p"/>
<hkern k="17" u1="б" u2="n"/>
<hkern k="17" u1="б" u2="m"/>
<hkern k="14" u1="в" u2="”"/>
<hkern k="14" u1="в" u2="“"/>
<hkern k="14" u1="в" u2="‘"/>
<hkern k="11" u1="в" u2="у"/>
<hkern k="12" u1="в" u2="т"/>
<hkern k="11" u1="в" u2="y"/>
<hkern k="11" u1="в" u2="v"/>
<hkern k="14" u1="в" u2="&apos;"/>
<hkern k="14" u1="в" u2='&quot;'/>
<hkern k="55" u1="г" u2="д"/>
<hkern k="30" u1="д" u2="ъ"/>
<hkern k="19" u1="д" u2="ч"/>
<hkern k="19" u1="д" u2="т"/>
<hkern k="-20" u1="д" u2="д"/>
<hkern k="11" u1="е" u2="т"/>
<hkern k="11" u1="з" u2="”"/>
<hkern k="11" u1="з" u2="“"/>
<hkern k="11" u1="з" u2="‘"/>
<hkern k="11" u1="з" u2="&apos;"/>
<hkern k="11" u1="з" u2='&quot;'/>
<hkern k="16" u1="к" u2="ё"/>
<hkern k="16" u1="к" u2="ф"/>
<hkern k="16" u1="к" u2="с"/>
<hkern k="21" u1="к" u2="о"/>
<hkern k="16" u1="к" u2="е"/>
<hkern k="16" u1="к" u2="q"/>
<hkern k="21" u1="к" u2="o"/>
<hkern k="16" u1="к" u2="g"/>
<hkern k="16" u1="к" u2="e"/>
<hkern k="16" u1="к" u2="d"/>
<hkern k="16" u1="к" u2="c"/>
<hkern k="22" u1="о" u2="т"/>
<hkern k="72" u1="о" u2="д"/>
<hkern k="80" u1="р" u2="т"/>
<hkern k="18" u1="р" u2="д"/>
<hkern k="-13" u1="т" u2="”"/>
<hkern k="-13" u1="т" u2="“"/>
<hkern k="-13" u1="т" u2="‘"/>
<hkern k="80" u1="т" u2="ё"/>
<hkern k="80" u1="т" u2="ф"/>
<hkern k="-11" u1="т" u2="у"/>
<hkern k="80" u1="т" u2="с"/>
<hkern k="42" u1="т" u2="о"/>
<hkern k="81" u1="т" u2="л"/>
<hkern k="80" u1="т" u2="е"/>
<hkern k="86" u1="т" u2="д"/>
<hkern k="16" u1="т" u2="а"/>
<hkern k="-11" u1="т" u2="y"/>
<hkern k="-11" u1="т" u2="v"/>
<hkern k="80" u1="т" u2="q"/>
<hkern k="42" u1="т" u2="o"/>
<hkern k="80" u1="т" u2="g"/>
<hkern k="-13" u1="т" u2="f"/>
<hkern k="80" u1="т" u2="e"/>
<hkern k="80" u1="т" u2="d"/>
<hkern k="80" u1="т" u2="c"/>
<hkern k="16" u1="т" u2="a"/>
<hkern k="-13" u1="т" u2="&apos;"/>
<hkern k="-13" u1="т" u2='&quot;'/>
<hkern k="56" u1="у" u2="д"/>
<hkern k="-13" u1="у" u2="f"/>
<hkern k="80" u1="ф" u2="т"/>
<hkern k="18" u1="ф" u2="д"/>
<hkern k="-12" u1="ц" u2="я"/>
<hkern k="16" u1="ц" u2="ч"/>
<hkern k="16" u1="ц" u2="т"/>
<hkern k="-16" u1="ц" u2="л"/>
<hkern k="-20" u1="ц" u2="д"/>
<hkern k="-12" u1="щ" u2="ё"/>
<hkern k="9" u1="щ" u2="ч"/>
<hkern k="-12" u1="щ" u2="ф"/>
<hkern k="29" u1="щ" u2="т"/>
<hkern k="-12" u1="щ" u2="с"/>
<hkern k="-24" u1="щ" u2="л"/>
<hkern k="-12" u1="щ" u2="е"/>
<hkern k="-58" u1="щ" u2="д"/>
<hkern k="-12" u1="щ" u2="q"/>
<hkern k="-12" u1="щ" u2="g"/>
<hkern k="-12" u1="щ" u2="e"/>
<hkern k="-12" u1="щ" u2="d"/>
<hkern k="-12" u1="щ" u2="c"/>
<hkern k="70" u1="ъ" u2="т"/>
<hkern k="70" u1="ь" u2="т"/>
<hkern k="80" u1="э" u2="т"/>
<hkern k="18" u1="э" u2="д"/>
<hkern k="16" u1="ю" u2="х"/>
<hkern k="12" u1="ю" u2="у"/>
<hkern k="13" u1="ю" u2="л"/>
<hkern k="16" u1="ю" u2="ж"/>
<hkern k="17" u1="ю" u2="д"/>
<hkern k="12" u1="ю" u2="y"/>
<hkern k="16" u1="ю" u2="x"/>
<hkern k="12" u1="ю" u2="v"/>
<hkern k="11" u1="ё" u2="т"/>
<hkern k="-11" u1="‘" u2="w"/>
<hkern k="-11" u1="“" u2="w"/>
<hkern k="-11" u1="”" u2="w"/>
<hkern k="27" g2="T,uni0422" g1="B,uni0412"/>
<hkern k="24" g2="V" g1="B,uni0412"/>
<hkern k="55" g2="Y" g1="B,uni0412"/>
<hkern k="13" g2="uni0423" g1="B,uni0412"/>
<hkern k="-17" g2="uni041B" g1="H,I,M,N,uni0418,uni041B,uni041C,uni041D,uni0426,uni0428"/>
<hkern k="27" g2="uni0447" g1="H,I,M,N,uni0418,uni041B,uni041C,uni041D,uni0426,uni0428"/>
<hkern k="-17" g2="uni043B" g1="H,I,M,N,uni0418,uni041B,uni041C,uni041D,uni0426,uni0428"/>
<hkern k="29" g2="T,uni0422" g1="H,I,M,N,uni0418,uni041B,uni041C,uni041D,uni0426,uni0428"/>
<hkern k="28" g2="Y" g1="H,I,M,N,uni0418,uni041B,uni041C,uni041D,uni0426,uni0428"/>
<hkern k="28" g2="uni0427" g1="H,I,M,N,uni0418,uni041B,uni041C,uni041D,uni0426,uni0428"/>
<hkern k="-18" g2="A,uni0410" g1="H,I,M,N,uni0418,uni041B,uni041C,uni041D,uni0426,uni0428"/>
<hkern k="-17" g2="X,uni0416,uni0425" g1="H,I,M,N,uni0418,uni041B,uni041C,uni041D,uni0426,uni0428"/>
<hkern k="31" g2="uni041B" g1="D,O,uni041E"/>
<hkern k="27" g2="T,uni0422" g1="D,O,uni041E"/>
<hkern k="22" g2="V" g1="D,O,uni041E"/>
<hkern k="43" g2="Y" g1="D,O,uni041E"/>
<hkern k="21" g2="A,uni0410" g1="D,O,uni041E"/>
<hkern k="22" g2="X,uni0416,uni0425" g1="D,O,uni041E"/>
<hkern k="102" g2="comma,period,quotesinglbase,ellipsis" g1="D,O,uni041E"/>
<hkern k="23" g2="Z" g1="D,O,uni041E"/>
<hkern k="29" g2="T,uni0422" g1="C,uni0421"/>
<hkern k="26" g2="v,y,uni0443" g1="E,uni0401,uni0415"/>
<hkern k="19" g2="o,uni043E" g1="E,uni0401,uni0415"/>
<hkern k="-20" g2="T,uni0422" g1="E,uni0401,uni0415"/>
<hkern k="17" g2="u" g1="E,uni0401,uni0415"/>
<hkern k="19" g2="c,d,e,g,q,uni0435,uni0441,uni0444,uni0451" g1="E,uni0401,uni0415"/>
<hkern k="53" g2="uni041B" g1="T,uni0422"/>
<hkern k="72" g2="v,y,uni0443" g1="T,uni0422"/>
<hkern k="132" g2="uni0447" g1="T,uni0422"/>
<hkern k="130" g2="uni043B" g1="T,uni0422"/>
<hkern k="28" g2="C,G,O,Q,uni041E,uni0421" g1="T,uni0422"/>
<hkern k="99" g2="o,uni043E" g1="T,uni0422"/>
<hkern k="-15" g2="W" g1="T,uni0422"/>
<hkern k="-16" g2="T,uni0422" g1="T,uni0422"/>
<hkern k="95" g2="u" g1="T,uni0422"/>
<hkern k="60" g2="z" g1="T,uni0422"/>
<hkern k="-16" g2="V" g1="T,uni0422"/>
<hkern k="-16" g2="Y" g1="T,uni0422"/>
<hkern k="79" g2="A,uni0410" g1="T,uni0422"/>
<hkern k="218" g2="comma,period,quotesinglbase,ellipsis" g1="T,uni0422"/>
<hkern k="99" g2="c,d,e,g,q,uni0435,uni0441,uni0444,uni0451" g1="T,uni0422"/>
<hkern k="77" g2="x,uni0436,uni0445" g1="T,uni0422"/>
<hkern k="232" g2="hyphen,endash,emdash" g1="T,uni0422"/>
<hkern k="109" g2="m,n,p,uni0433,uni0438,uni0439,uni043A,uni043C,uni043D,uni043F,uni0440,uni0446,uni0448,uni0449,uni044C,uni044E" g1="T,uni0422"/>
<hkern k="16" g2="S" g1="T,uni0422"/>
<hkern k="113" g2="a,uni0430" g1="T,uni0422"/>
<hkern k="116" g2="s" g1="T,uni0422"/>
<hkern k="240" g2="J" g1="T,uni0422"/>
<hkern k="110" g2="uni041B" g1="uni0413"/>
<hkern k="142" g2="v,y,uni0443" g1="uni0413"/>
<hkern k="244" g2="uni0447" g1="uni0413"/>
<hkern k="241" g2="uni043B" g1="uni0413"/>
<hkern k="67" g2="C,G,O,Q,uni041E,uni0421" g1="uni0413"/>
<hkern k="188" g2="o,uni043E" g1="uni0413"/>
<hkern k="-5" g2="W" g1="uni0413"/>
<hkern k="-7" g2="T,uni0422" g1="uni0413"/>
<hkern k="181" g2="u" g1="uni0413"/>
<hkern k="122" g2="z" g1="uni0413"/>
<hkern k="-7" g2="V" g1="uni0413"/>
<hkern k="-7" g2="Y" g1="uni0413"/>
<hkern k="194" g2="A,uni0410" g1="uni0413"/>
<hkern k="390" g2="comma,period,quotesinglbase,ellipsis" g1="uni0413"/>
<hkern k="188" g2="c,d,e,g,q,uni0435,uni0441,uni0444,uni0451" g1="uni0413"/>
<hkern k="150" g2="x,uni0436,uni0445" g1="uni0413"/>
<hkern k="414" g2="hyphen,endash,emdash" g1="uni0413"/>
<hkern k="205" g2="m,n,p,uni0433,uni0438,uni0439,uni043A,uni043C,uni043D,uni043F,uni0440,uni0446,uni0448,uni0449,uni044C,uni044E" g1="uni0413"/>
<hkern k="47" g2="S" g1="uni0413"/>
<hkern k="212" g2="a,uni0430" g1="uni0413"/>
<hkern k="217" g2="s" g1="uni0413"/>
<hkern k="40" g2="uni043B" g1="uni0433"/>
<hkern k="20" g2="o,uni043E" g1="uni0433"/>
<hkern k="20" g2="c,d,e,g,q,uni0435,uni0441,uni0444,uni0451" g1="uni0433"/>
<hkern k="40" g2="v,y,uni0443" g1="K,uni041A"/>
<hkern k="93" g2="uni0447" g1="K,uni041A"/>
<hkern k="31" g2="C,G,O,Q,uni041E,uni0421" g1="K,uni041A"/>
<hkern k="27" g2="o,uni043E" g1="K,uni041A"/>
<hkern k="23" g2="u" g1="K,uni041A"/>
<hkern k="26" g2="c,d,e,g,q,uni0435,uni0441,uni0444,uni0451" g1="K,uni041A"/>
<hkern k="64" g2="hyphen,endash,emdash" g1="K,uni041A"/>
<hkern k="23" g2="m,n,p,uni0433,uni0438,uni0439,uni043A,uni043C,uni043D,uni043F,uni0440,uni0446,uni0448,uni0449,uni044C,uni044E" g1="K,uni041A"/>
<hkern k="133" g2="v,y,uni0443" g1="L"/>
<hkern k="65" g2="C,G,O,Q,uni041E,uni0421" g1="L"/>
<hkern k="54" g2="U" g1="L"/>
<hkern k="336" g2="quotedbl,quotesingle,quoteleft,quotedblleft,quotedblright" g1="L"/>
<hkern k="143" g2="W" g1="L"/>
<hkern k="275" g2="T,uni0422" g1="L"/>
<hkern k="44" g2="u" g1="L"/>
<hkern k="175" g2="V" g1="L"/>
<hkern k="239" g2="Y" g1="L"/>
<hkern k="-19" g2="A,uni0410" g1="L"/>
<hkern k="55" g2="uni041B" g1="P,uni0420"/>
<hkern k="-15" g2="v,y,uni0443" g1="P,uni0420"/>
<hkern k="39" g2="uni043B" g1="P,uni0420"/>
<hkern k="13" g2="o,uni043E" g1="P,uni0420"/>
<hkern k="138" g2="A,uni0410" g1="P,uni0420"/>
<hkern k="31" g2="X,uni0416,uni0425" g1="P,uni0420"/>
<hkern k="324" g2="comma,period,quotesinglbase,ellipsis" g1="P,uni0420"/>
<hkern k="26" g2="Z" g1="P,uni0420"/>
<hkern k="13" g2="c,d,e,g,q,uni0435,uni0441,uni0444,uni0451" g1="P,uni0420"/>
<hkern k="11" g2="a,uni0430" g1="P,uni0420"/>
<hkern k="200" g2="J" g1="P,uni0420"/>
<hkern k="22" g2="A,uni0410" g1="J,U"/>
<hkern k="11" g2="v,y,uni0443" g1="V"/>
<hkern k="13" g2="C,G,O,Q,uni041E,uni0421" g1="V"/>
<hkern k="46" g2="o,uni043E" g1="V"/>
<hkern k="28" g2="u" g1="V"/>
<hkern k="75" g2="A,uni0410" g1="V"/>
<hkern k="225" g2="comma,period,quotesinglbase,ellipsis" g1="V"/>
<hkern k="44" g2="c,d,e,g,q,uni0435,uni0441,uni0444,uni0451" g1="V"/>
<hkern k="37" g2="hyphen,endash,emdash" g1="V"/>
<hkern k="46" g2="a,uni0430" g1="V"/>
<hkern k="-17" g2="uni041B" g1="X,uni0416,uni0425"/>
<hkern k="31" g2="v,y,uni0443" g1="X,uni0416,uni0425"/>
<hkern k="47" g2="uni0447" g1="X,uni0416,uni0425"/>
<hkern k="-17" g2="uni043B" g1="X,uni0416,uni0425"/>
<hkern k="25" g2="C,G,O,Q,uni041E,uni0421" g1="X,uni0416,uni0425"/>
<hkern k="21" g2="o,uni043E" g1="X,uni0416,uni0425"/>
<hkern k="21" g2="u" g1="X,uni0416,uni0425"/>
<hkern k="-14" g2="V" g1="X,uni0416,uni0425"/>
<hkern k="26" g2="c,d,e,g,q,uni0435,uni0441,uni0444,uni0451" g1="X,uni0416,uni0425"/>
<hkern k="46" g2="hyphen,endash,emdash" g1="X,uni0416,uni0425"/>
<hkern k="20" g2="v,y,uni0443" g1="Y"/>
<hkern k="29" g2="C,G,O,Q,uni041E,uni0421" g1="Y"/>
<hkern k="96" g2="U" g1="Y"/>
<hkern k="65" g2="o,uni043E" g1="Y"/>
<hkern k="-17" g2="W" g1="Y"/>
<hkern k="-17" g2="T,uni0422" g1="Y"/>
<hkern k="39" g2="u" g1="Y"/>
<hkern k="30" g2="z" g1="Y"/>
<hkern k="-18" g2="V" g1="Y"/>
<hkern k="-18" g2="Y" g1="Y"/>
<hkern k="94" g2="A,uni0410" g1="Y"/>
<hkern k="-13" g2="X,uni0416,uni0425" g1="Y"/>
<hkern k="211" g2="comma,period,quotesinglbase,ellipsis" g1="Y"/>
<hkern k="65" g2="c,d,e,g,q,uni0435,uni0441,uni0444,uni0451" g1="Y"/>
<hkern k="23" g2="x,uni0436,uni0445" g1="Y"/>
<hkern k="52" g2="hyphen,endash,emdash" g1="Y"/>
<hkern k="40" g2="m,n,p,uni0433,uni0438,uni0439,uni043A,uni043C,uni043D,uni043F,uni0440,uni0446,uni0448,uni0449,uni044C,uni044E" g1="Y"/>
<hkern k="16" g2="S" g1="Y"/>
<hkern k="73" g2="a,uni0430" g1="Y"/>
<hkern k="58" g2="s" g1="Y"/>
<hkern k="96" g2="J" g1="Y"/>
<hkern k="31" g2="o,uni043E" g1="W"/>
<hkern k="-14" g2="T,uni0422" g1="W"/>
<hkern k="19" g2="u" g1="W"/>
<hkern k="43" g2="A,uni0410" g1="W"/>
<hkern k="123" g2="comma,period,quotesinglbase,ellipsis" g1="W"/>
<hkern k="31" g2="c,d,e,g,q,uni0435,uni0441,uni0444,uni0451" g1="W"/>
<hkern k="60" g2="hyphen,endash,emdash" g1="W"/>
<hkern k="33" g2="a,uni0430" g1="W"/>
<hkern k="27" g2="v,y,uni0443" g1="Z"/>
<hkern k="26" g2="C,G,O,Q,uni041E,uni0421" g1="Z"/>
<hkern k="21" g2="o,uni043E" g1="Z"/>
<hkern k="19" g2="u" g1="Z"/>
<hkern k="-13" g2="A,uni0410" g1="Z"/>
<hkern k="21" g2="c,d,e,g,q,uni0435,uni0441,uni0444,uni0451" g1="Z"/>
<hkern k="54" g2="uni041B" g1="uni0423"/>
<hkern k="23" g2="uni0447" g1="uni0423"/>
<hkern k="69" g2="uni043B" g1="uni0423"/>
<hkern k="23" g2="C,G,O,Q,uni041E,uni0421" g1="uni0423"/>
<hkern k="67" g2="o,uni043E" g1="uni0423"/>
<hkern k="-18" g2="T,uni0422" g1="uni0423"/>
<hkern k="-18" g2="Y" g1="uni0423"/>
<hkern k="91" g2="A,uni0410" g1="uni0423"/>
<hkern k="403" g2="comma,period,quotesinglbase,ellipsis" g1="uni0423"/>
<hkern k="67" g2="c,d,e,g,q,uni0435,uni0441,uni0444,uni0451" g1="uni0423"/>
<hkern k="119" g2="hyphen,endash,emdash" g1="uni0423"/>
<hkern k="102" g2="m,n,p,uni0433,uni0438,uni0439,uni043A,uni043C,uni043D,uni043F,uni0440,uni0446,uni0448,uni0449,uni044C,uni044E" g1="uni0423"/>
<hkern k="111" g2="a,uni0430" g1="uni0423"/>
<hkern k="46" g2="s" g1="uni0423"/>
<hkern k="15" g2="v,y,uni0443" g1="a,uni0430"/>
<hkern k="67" g2="quotedbl,quotesingle,quoteleft,quotedblleft,quotedblright" g1="a,uni0430"/>
<hkern k="11" g2="quotedbl,quotesingle,quoteleft,quotedblleft,quotedblright" g1="c,uni0441"/>
<hkern k="11" g2="v,y,uni0443" g1="b,p,uni0440,uni0444,uni044D"/>
<hkern k="14" g2="uni043B" g1="b,p,uni0440,uni0444,uni044D"/>
<hkern k="29" g2="quotedbl,quotesingle,quoteleft,quotedblleft,quotedblright" g1="b,p,uni0440,uni0444,uni044D"/>
<hkern k="15" g2="z" g1="b,p,uni0440,uni0444,uni044D"/>
<hkern k="15" g2="x,uni0436,uni0445" g1="b,p,uni0440,uni0444,uni044D"/>
<hkern k="13" g2="v,y,uni0443" g1="e,uni0435,uni0451"/>
<hkern k="14" g2="quotedbl,quotesingle,quoteleft,quotedblleft,quotedblright" g1="e,uni0435,uni0451"/>
<hkern k="104" g2="quotedbl,quotesingle,quoteleft,quotedblleft,quotedblright" g1="h,m,n"/>
<hkern k="15" g2="v,y,uni0443" g1="o,uni043E"/>
<hkern k="16" g2="uni043B" g1="o,uni043E"/>
<hkern k="136" g2="quotedbl,quotesingle,quoteleft,quotedblleft,quotedblright" g1="o,uni043E"/>
<hkern k="16" g2="z" g1="o,uni043E"/>
<hkern k="21" g2="x,uni0436,uni0445" g1="o,uni043E"/>
<hkern k="41" g2="uni043B" g1="v,y,uni0443"/>
<hkern k="-15" g2="quotedbl,quotesingle,quoteleft,quotedblleft,quotedblright" g1="v,y,uni0443"/>
<hkern k="15" g2="o,uni043E" g1="v,y,uni0443"/>
<hkern k="107" g2="comma,period,quotesinglbase,ellipsis" g1="v,y,uni0443"/>
<hkern k="13" g2="c,d,e,g,q,uni0435,uni0441,uni0444,uni0451" g1="v,y,uni0443"/>
<hkern k="15" g2="a,uni0430" g1="v,y,uni0443"/>
<hkern k="-18" g2="v,y,uni0443" g1="r"/>
<hkern k="-16" g2="quotedbl,quotesingle,quoteleft,quotedblleft,quotedblright" g1="r"/>
<hkern k="20" g2="o,uni043E" g1="r"/>
<hkern k="123" g2="comma,period,quotesinglbase,ellipsis" g1="r"/>
<hkern k="19" g2="c,d,e,g,q,uni0435,uni0441,uni0444,uni0451" g1="r"/>
<hkern k="40" g2="a,uni0430" g1="r"/>
<hkern k="20" g2="o,uni043E" g1="x,uni0436,uni0445"/>
<hkern k="20" g2="c,d,e,g,q,uni0435,uni0441,uni0444,uni0451" g1="x,uni0436,uni0445"/>
<hkern k="16" g2="o,uni043E" g1="z"/>
<hkern k="16" g2="c,d,e,g,q,uni0435,uni0441,uni0444,uni0451" g1="z"/>
<hkern k="107" g2="quotedbl,quotesingle,quoteleft,quotedblleft,quotedblright" g1="quotedbl,quotesingle,quoteleft,quotedblleft,quotedblright"/>
<hkern k="61" g2="o,uni043E" g1="quotedbl,quotesingle,quoteleft,quotedblleft,quotedblright"/>
<hkern k="120" g2="A,uni0410" g1="quotedbl,quotesingle,quoteleft,quotedblleft,quotedblright"/>
<hkern k="59" g2="c,d,e,g,q,uni0435,uni0441,uni0444,uni0451" g1="quotedbl,quotesingle,quoteleft,quotedblleft,quotedblright"/>
<hkern k="20" g2="m,n,p,uni0433,uni0438,uni0439,uni043A,uni043C,uni043D,uni043F,uni0440,uni0446,uni0448,uni0449,uni044C,uni044E" g1="quotedbl,quotesingle,quoteleft,quotedblleft,quotedblright"/>
<hkern k="50" g2="a,uni0430" g1="quotedbl,quotesingle,quoteleft,quotedblleft,quotedblright"/>
<hkern k="80" g2="s" g1="quotedbl,quotesingle,quoteleft,quotedblleft,quotedblright"/>
<hkern k="170" g2="quotedbl,quotesingle,quoteleft,quotedblleft,quotedblright" g1="comma,period,quotesinglbase,ellipsis"/>
<hkern k="11" g2="uni041B" g1="uni042A,uni042C"/>
<hkern k="64" g2="quotedbl,quotesingle,quoteleft,quotedblleft,quotedblright" g1="uni042A,uni042C"/>
<hkern k="267" g2="T,uni0422" g1="uni042A,uni042C"/>
<hkern k="56" g2="V" g1="uni042A,uni042C"/>
<hkern k="83" g2="Y" g1="uni042A,uni042C"/>
<hkern k="25" g2="uni0427" g1="uni042A,uni042C"/>
<hkern k="21" g2="uni0423" g1="uni042A,uni042C"/>
<hkern k="16" g2="X,uni0416,uni0425" g1="uni042A,uni042C"/>
<hkern k="55" g2="x,uni0436,uni0445" g1="uni042A,uni042C"/>
<hkern k="35" g2="v,y,uni0443" g1="uni044A,uni044C"/>
<hkern k="39" g2="uni0447" g1="uni044A,uni044C"/>
<hkern k="135" g2="quotedbl,quotesingle,quoteleft,quotedblleft,quotedblright" g1="uni044A,uni044C"/>
<hkern k="11" g2="x,uni0436,uni0445" g1="uni044A,uni044C"/>
</font>
</defs>
</svg>
