<?xml version="1.0" encoding="UTF-8" standalone="no"?>
<!DOCTYPE svg  PUBLIC '-//W3C//DTD SVG 1.1//EN'  'http://www.w3.org/Graphics/SVG/1.1/DTD/svg11.dtd'>
<svg xmlns="http://www.w3.org/2000/svg">
<defs>
<font id="Roboto-Light" horiz-adv-x="1135">
<font-face underline-position="-600" font-weight="300" descent="-410" panose-1="2 0 0 0 0 0 0 0 0 0" units-per-em="2048" unicode-range="U+000D-2260" bbox="-104 -470 1852 1814" x-height="1082" underline-thickness="100" font-family="Roboto" ascent="1638" cap-height="1456"/>
<missing-glyph horiz-adv-x="2048"/>
<glyph glyph-name=".notdef" horiz-adv-x="2048"/>
<glyph glyph-name="glyph1" horiz-adv-x="0"/>
<glyph glyph-name="glyph1" horiz-adv-x="0"/>
<glyph glyph-name="uni000D" horiz-adv-x="2048" unicode=""/>
<glyph glyph-name="space" horiz-adv-x="498" unicode=" "/>
<glyph glyph-name="exclam" horiz-adv-x="462" unicode="!" d="M167 1456h124l-7 -1051h-111zM153 70q0 34 22 57.5t60 23.5t60.5 -23.5t22.5 -57.5q0 -33 -22.5 -55.5t-60.5 -22.5t-60 22.5t-22 55.5z"/>
<glyph glyph-name="quotedbl" horiz-adv-x="588" unicode='&quot;' d="M378 1083l4 453h97v-140l-20 -313h-81zM143 1083l3 453h97v-140l-20 -313h-80z"/>
<glyph glyph-name="numbersign" horiz-adv-x="1191" unicode="#" d="M456 503h315l83 441h-315zM85 410v93h272l83 441h-279v96h297l79 416h99l-79 -416h315l79 416h100l-79 -416h229v-96h-247l-83 -441h255v-93h-273l-77 -410h-100l77 410h-314l-77 -410h-99l77 410h-255z"/>
<glyph glyph-name="dollar" d="M115 418h120q0 -156 91 -244.5t254 -88.5q142 0 231.5 76t89.5 198q0 111 -72 181.5t-254 133.5q-226 71 -317 168.5t-91 252.5q0 163 100 264.5t272 115.5v202h102v-202q176 -16 272.5 -132t96.5 -315h-119q0 157 -81.5 249.5t-222.5 92.5q-142 0 -221.5 -74.5 t-79.5 -198.5q0 -120 73 -187.5t248.5 -127t255 -114t119 -129t39.5 -178.5q0 -164 -102.5 -264.5t-281.5 -114.5v-190h-101v189q-201 13 -311 126.5t-110 310.5z" unicode="$"/>
<glyph glyph-name="percent" horiz-adv-x="1513" unicode="%" d="M938 279q0 -94 51.5 -154t138.5 -60q86 0 136.5 60.5t50.5 158.5v73q0 96 -51.5 154.5t-137.5 58.5q-84 0 -136 -59t-52 -158v-74zM842 284v73q0 130 80.5 215t203.5 85t204.5 -84.5t81.5 -222.5v-71q0 -130 -80.5 -215t-203.5 -85t-204.5 84.5t-81.5 220.5zM359 169 l711 1138l75 -48l-711 -1138zM206 1099q0 -93 51.5 -153t138.5 -60q85 0 135.5 60.5t50.5 156.5v73q0 93 -52 153.5t-136 60.5q-83 0 -135.5 -60t-52.5 -160v-71zM109 1106v70q0 130 80.5 215.5t204.5 85.5t204.5 -85.5t80.5 -221.5v-71q0 -128 -79.5 -213.5t-203.5 -85.5 q-123 0 -205 84t-82 222z"/>
<glyph glyph-name="ampersand" horiz-adv-x="1260" unicode="&amp;" d="M358 1149q0 -122 135 -288l131 100q64 46 105 101t41 129q0 78 -54 130.5t-144 52.5q-98 0 -156 -63t-58 -162zM227 371q0 -131 90 -210.5t243 -79.5q91 0 176.5 38.5t153.5 109.5l-407 472l-14 15l-46 -35q-196 -160 -196 -310zM108 371q0 106 62.5 200.5t219.5 212.5 l14 10q-87 105 -126.5 187.5t-39.5 163.5q0 153 91 242t244 89q139 0 225 -80.5t86 -204.5q0 -144 -166 -283l-160 -124l400 -466q91 147 91 333h111q0 -248 -128 -419l199 -232h-144l-126 146q-79 -78 -182.5 -122t-218.5 -44q-208 0 -330 106.5t-122 284.5z"/>
<glyph glyph-name="quotesingle" horiz-adv-x="348" unicode="&apos;" d="M119 1090q5 296 5 446h102v-141l-17 -305h-90z"/>
<glyph glyph-name="parenleft" horiz-adv-x="653" unicode="(" d="M140 588q0 218 56 423.5t164 376t232 244.5l29 -81q-66 -47 -131 -137t-116 -214t-82.5 -278.5t-31.5 -350.5q0 -209 47.5 -402t130.5 -340.5t183 -221.5l-29 -77q-127 76 -235 245.5t-162.5 373t-54.5 439.5z"/>
<glyph glyph-name="parenright" horiz-adv-x="667" unicode=")" d="M33 -393q98 70 181.5 217t131.5 342.5t48 424.5q0 207 -48 399.5t-132.5 344t-180.5 220.5l29 77q126 -77 233 -246t163 -375t56 -438q0 -220 -54.5 -423.5t-161.5 -372.5t-236 -247z"/>
<glyph glyph-name="asterisk" horiz-adv-x="869" unicode="*" d="M29 1108l32 101l332 -123l-4 370h104l-8 -373l324 127l33 -101l-333 -115l223 -294l-85 -63l-214 305l-204 -303l-85 61l217 300z"/>
<glyph glyph-name="plus" horiz-adv-x="1156" unicode="+" d="M75 628v112h434v466h121v-466h443v-112h-443v-482h-121v482h-434z"/>
<glyph glyph-name="comma" horiz-adv-x="392" unicode="," d="M60 -220q91 122 94 253v155h117v-125q0 -208 -140 -335z"/>
<glyph glyph-name="hyphen" horiz-adv-x="586" unicode="-" d="M49 592v101h479v-101h-479z"/>
<glyph glyph-name="period" horiz-adv-x="489" unicode="." d="M145 72q0 35 22.5 59.5t62.5 24.5t63 -24.5t23 -59.5t-23 -57.5t-63 -22.5t-62.5 22.5t-22.5 57.5z"/>
<glyph glyph-name="slash" horiz-adv-x="813" unicode="/" d="M30 -125l608 1581h108l-607 -1581h-109z"/>
<glyph glyph-name="zero" d="M239 594q0 -249 84.5 -381t245.5 -132q160 0 242.5 129t83.5 378v280q0 250 -81.5 378t-246.5 128q-162 0 -244 -125t-84 -369v-286zM120 592v261q0 307 114 465t333 158q216 0 330 -152.5t118 -449.5v-267q0 -308 -113 -467.5t-333 -159.5q-216 0 -331 156.5t-118 455.5 z" unicode="0"/>
<glyph glyph-name="one" d="M178 1165v112l496 184h20v-1461h-120v1312z" unicode="1"/>
<glyph glyph-name="two" d="M105 1036q0 123 55.5 224t158 158.5t233.5 57.5q200 0 312.5 -105t112.5 -286q0 -102 -63.5 -223t-223.5 -302l-406 -459h765v-101h-912v92l499 566q124 143 172 236t48 181q0 138 -81 218.5t-223 80.5q-147 0 -237.5 -94t-90.5 -244h-119z" unicode="2"/>
<glyph glyph-name="three" d="M98 395h120q0 -139 97 -226.5t249 -87.5q155 0 241.5 79.5t86.5 230.5q0 146 -93.5 223t-275.5 77h-120v102h124q103 0 180 36.5t117.5 100t40.5 146.5q0 140 -79 219t-227 79q-140 0 -229.5 -82.5t-89.5 -217.5h-120q0 113 57 206.5t158 144.5t224 51q198 0 312 -108 t114 -296q0 -105 -66.5 -193.5t-182.5 -132.5q136 -38 206 -130.5t70 -220.5q0 -187 -122 -301t-326 -114q-130 0 -238.5 52t-168 145.5t-59.5 217.5z" unicode="3"/>
<glyph glyph-name="four" d="M214 469h538v832l-53 -92zM67 368v68l674 1020h131v-987h227v-101h-227v-368h-120v368h-685z" unicode="4"/>
<glyph glyph-name="five" d="M168 383h115q17 -149 101 -225.5t227 -76.5q156 0 235.5 99t79.5 282q0 160 -89 261t-243 101q-85 0 -148 -21.5t-133 -83.5l-95 27l71 710h728v-111h-625l-51 -492q117 80 274 80q197 0 314 -128t117 -341q0 -230 -114 -357t-321 -127q-190 0 -308 106t-135 297z" unicode="5"/>
<glyph glyph-name="six" d="M250 512q0 -190 97.5 -310t253.5 -120q140 0 226.5 111t86.5 280q0 172 -86.5 276t-233.5 104q-114 0 -212.5 -67.5t-131.5 -171.5v-102zM130 523v120q0 391 178 605.5t505 218.5h30v-105h-14q-261 0 -411 -153.5t-166 -426.5q60 83 153 128.5t208 45.5 q192 0 305.5 -132.5t113.5 -346.5q0 -142 -53 -256t-152 -177.5t-226 -63.5q-209 0 -340 151.5t-131 391.5z" unicode="6"/>
<glyph glyph-name="seven" d="M77 1354v102h957v-69l-622 -1387h-125l618 1354h-828z" unicode="7"/>
<glyph glyph-name="eight" d="M263 1082q0 -128 84.5 -206t221.5 -78q135 0 220.5 78.5t85.5 205.5q0 125 -86.5 208.5t-220.5 83.5q-136 0 -220.5 -80.5t-84.5 -211.5zM225 385q0 -139 93 -221.5t252 -82.5q155 0 249 82t94 222q0 136 -97 223.5t-248 87.5t-247 -86t-96 -225zM106 386q0 124 73 221 t200 140q-108 42 -172 131.5t-64 202.5q0 181 116.5 288t308.5 107t309.5 -108t117.5 -287q0 -113 -66 -202.5t-174 -131.5q126 -43 202 -139t76 -222q0 -187 -127 -296.5t-336 -109.5q-211 0 -337.5 109t-126.5 297z" unicode="8"/>
<glyph glyph-name="nine" d="M219 970q0 -167 87.5 -278.5t227.5 -111.5q120 0 215.5 71.5t135.5 185.5v69q0 222 -92.5 344.5t-249.5 122.5q-142 0 -233 -114.5t-91 -288.5zM101 965q0 144 55.5 262t155 183.5t229.5 65.5q219 0 341 -153.5t122 -435.5v-108q0 -394 -168 -592t-513 -198h-22l1 104h42 q261 4 397 148t143 433q-64 -94 -159 -145.5t-206 -51.5q-124 0 -219 64t-147 177t-52 247z" unicode="9"/>
<glyph glyph-name="colon" horiz-adv-x="430" unicode=":" d="M129 995q0 35 22.5 59.5t62.5 24.5t63 -24.5t23 -59.5t-23 -57.5t-63 -22.5t-62.5 22.5t-22.5 57.5zM127 72q0 35 22.5 59.5t62.5 24.5t63 -24.5t23 -59.5t-23 -57.5t-63 -22.5t-62.5 22.5t-22.5 57.5z"/>
<glyph glyph-name="semicolon" horiz-adv-x="399" unicode=";" d="M118 995q0 35 22.5 59.5t62.5 24.5t63 -24.5t23 -59.5t-23 -57.5t-63 -22.5t-62.5 22.5t-22.5 57.5zM60 -220q91 122 94 253v155h117v-125q0 -208 -140 -335z"/>
<glyph glyph-name="less" horiz-adv-x="1047" unicode="&lt;" d="M77 608v97l827 378v-126l-696 -302l696 -300v-126z"/>
<glyph glyph-name="equal" horiz-adv-x="1133" unicode="=" d="M149 829v106h834v-106h-834zM149 418v106h834v-106h-834z"/>
<glyph glyph-name="greater" horiz-adv-x="1061" unicode="&gt;" d="M124 231v124l711 304l-711 303v123l845 -378v-97z"/>
<glyph glyph-name="question" horiz-adv-x="930" unicode="?" d="M360 70q0 34 21.5 57.5t60.5 23.5q38 0 60.5 -23.5t22.5 -57.5q0 -33 -22.5 -55.5t-60.5 -22.5q-39 0 -60.5 22.5t-21.5 55.5zM84 1115q2 164 111 262.5t277 98.5q172 0 271.5 -100.5t99.5 -272.5q0 -108 -49 -202.5t-186 -220.5q-113 -95 -113 -276h-119q2 118 32 190 t129 169.5t127.5 138t44 89t15.5 110.5q0 125 -66.5 196.5t-185.5 71.5q-120 0 -193.5 -68.5t-75.5 -185.5h-119z"/>
<glyph glyph-name="at" horiz-adv-x="1870" unicode="@" d="M673 286q11 -100 56 -154.5t119 -54.5q185 0 273 255l45 516q-67 49 -158 49q-111 0 -192.5 -88.5t-114 -222t-32.5 -228.5q0 -37 4 -72zM125 478q12 278 122.5 492.5t302.5 332t437 117.5q255 0 432 -106.5t256.5 -299t79.5 -432.5q0 -34 -1 -69q-5 -147 -54 -272.5 t-135.5 -193t-200.5 -67.5q-97 0 -158 51t-81 143q-108 -194 -298 -194q-140 0 -202 108.5t-62 257.5q0 39 4 81q15 163 74.5 290.5t155 199t204.5 71.5q77 0 135 -21.5t135 -86.5l-51 -570q-2 -23 -2 -45q0 -84 35.5 -141.5t122.5 -57.5q123 0 199.5 120.5t85.5 326.5 q2 40 2 78q0 347 -164.5 541.5t-515.5 194.5q-211 0 -380.5 -105.5t-267.5 -298.5t-105 -335.5t-7 -175.5q0 -212 73.5 -390.5t232 -281.5t377.5 -103q92 0 181 22t149 57l31 -80q-57 -38 -159 -63.5t-206 -25.5q-250 0 -430 112.5t-264 311.5t-84 441q0 33 1 66z"/>
<glyph glyph-name="A" horiz-adv-x="1279" unicode="A" d="M347 513h584l-292 793zM30 0l551 1456h117l551 -1456h-128l-151 408h-661l-150 -408h-129z"/>
<glyph glyph-name="B" horiz-adv-x="1255" unicode="B" d="M307 803h336q154 3 238.5 72.5t84.5 202.5q0 140 -87.5 206.5t-264.5 66.5h-307v-548zM307 104h369q158 0 250.5 80.5t92.5 223.5q0 135 -88.5 213.5t-244.5 78.5h-379v-596zM184 0v1456h430q234 0 355 -96.5t121 -284.5q0 -113 -61.5 -196.5t-168.5 -119.5 q127 -28 204.5 -125t77.5 -224q0 -193 -124.5 -301.5t-346.5 -108.5h-487z"/>
<glyph glyph-name="C" horiz-adv-x="1330" unicode="C" d="M131 630v189q0 194 68 344t195.5 231.5t293.5 81.5q234 0 369.5 -126.5t157.5 -349.5h-124q-46 371 -403 371q-198 0 -315.5 -148t-117.5 -409v-178q0 -252 114.5 -402t309.5 -150q193 0 291 92.5t121 277.5h124q-25 -230 -164.5 -352t-371.5 -122q-162 0 -286.5 81 t-192.5 229.5t-69 339.5z"/>
<glyph glyph-name="D" horiz-adv-x="1341" unicode="D" d="M307 104h276q230 0 369 152.5t139 412.5v128q0 251 -137 402t-361 152h-286v-1247zM184 0v1456h407q179 0 321 -81.5t221.5 -233.5t79.5 -346v-134q0 -195 -79 -346t-222.5 -233t-329.5 -82h-398z"/>
<glyph glyph-name="E" horiz-adv-x="1165" unicode="E" d="M184 0v1456h901v-105h-778v-549h681v-104h-681v-594h783v-104h-906z"/>
<glyph glyph-name="F" horiz-adv-x="1152" unicode="F" d="M184 0v1456h902v-105h-779v-566h679v-105h-679v-680h-123z"/>
<glyph glyph-name="G" horiz-adv-x="1400" unicode="G" d="M145 638v184q0 303 153 478.5t411 175.5q225 0 362 -114.5t163 -315.5h-123q-27 160 -130.5 242.5t-270.5 82.5q-204 0 -323 -145t-119 -409v-172q0 -166 56.5 -293.5t162 -197.5t242.5 -70q159 0 273 50q74 33 110 77v376h-391v104h514v-518q-64 -91 -200.5 -142 t-305.5 -51q-171 0 -304 82t-206 232t-74 344z"/>
<glyph glyph-name="H" horiz-adv-x="1449" unicode="H" d="M184 0v1456h123v-654h832v654h124v-1456h-124v698h-832v-698h-123z"/>
<glyph glyph-name="I" horiz-adv-x="545" unicode="I" d="M211 0v1456h123v-1456h-123z"/>
<glyph glyph-name="J" horiz-adv-x="1127" unicode="J" d="M71 401h123q0 -158 83 -237.5t234 -79.5q139 0 226.5 92t89.5 250v1030h124v-1023q0 -207 -119.5 -330t-320.5 -123q-212 0 -326 111t-114 310z"/>
<glyph glyph-name="K" horiz-adv-x="1292" unicode="K" d="M184 0v1456h123v-785l746 785h155l-610 -648l657 -808h-150l-593 723l-205 -202v-521h-123z"/>
<glyph glyph-name="L" horiz-adv-x="1079" unicode="L" d="M184 0v1456h124v-1352h719v-104h-843z"/>
<glyph glyph-name="M" horiz-adv-x="1772" unicode="M" d="M184 0v1456h163l537 -1285l539 1285h164v-1456h-123v634l10 650l-542 -1284h-95l-540 1279l10 -641v-638h-123z"/>
<glyph glyph-name="N" horiz-adv-x="1454" unicode="N" d="M184 0v1456h124l838 -1247v1247h122v-1456h-123l-837 1246v-1246h-124z"/>
<glyph glyph-name="O" horiz-adv-x="1386" unicode="O" d="M248 649q0 -259 120 -410.5t326 -151.5q209 0 326 149.5t117 416.5v154q0 263 -119 412t-326 149q-203 0 -323.5 -149.5t-120.5 -417.5v-152zM125 655v150q0 199 70.5 352.5t199.5 236t297 82.5t296.5 -81t198.5 -229t73 -343v-174q0 -201 -69.5 -353t-198.5 -234 t-298 -82q-255 0 -412 182.5t-157 492.5z"/>
<glyph glyph-name="P" horiz-adv-x="1261" unicode="P" d="M307 697h373q179 0 273 85t94 237q0 151 -93.5 240.5t-265.5 91.5h-381v-654zM184 0v1456h496q227 0 358.5 -116t131.5 -319q0 -205 -126.5 -316.5t-366.5 -111.5h-370v-593h-123z"/>
<glyph glyph-name="Q" horiz-adv-x="1386" unicode="Q" d="M244 649q0 -259 119.5 -410.5t325.5 -151.5q208 0 326 149t118 416v155q0 263 -119 412t-327 149q-202 0 -322.5 -149.5t-120.5 -417.5v-152zM121 642v163q0 199 70.5 352.5t199.5 236t296 82.5q170 0 299 -82t199.5 -235t70.5 -353v-157q0 -208 -73.5 -362.5 t-209.5 -233.5l265 -231l-85 -76l-297 257q-82 -23 -167 -23q-166 0 -295.5 82t-200.5 232.5t-72 347.5z"/>
<glyph glyph-name="R" horiz-adv-x="1300" unicode="R" d="M305 711h377q155 0 249 88t94 228q0 154 -98 239t-275 85h-347v-640zM181 0v1456h473q233 0 364 -113t131 -316q0 -140 -82 -247t-220 -148l364 -619v-13h-131l-352 606h-423v-606h-124z"/>
<glyph glyph-name="S" horiz-adv-x="1213" unicode="S" d="M88 416h123q0 -154 115 -243t306 -89q170 0 273 75t103 199q0 121 -85 191.5t-311 134t-330 138.5q-148 106 -148 278q0 167 137.5 271.5t351.5 104.5q145 0 259.5 -56t177.5 -156t63 -223h-124q0 149 -102 239.5t-274 90.5q-167 0 -266 -74.5t-99 -194.5q0 -111 89 -181 t285 -123.5t297 -111t152 -137.5t51 -189q0 -172 -137.5 -276t-362.5 -104q-154 0 -282.5 55t-195 154t-66.5 227z"/>
<glyph glyph-name="T" horiz-adv-x="1223" unicode="T" d="M52 1351v105h1120v-105h-499v-1351h-123v1351h-498z"/>
<glyph glyph-name="U" horiz-adv-x="1346" unicode="U" d="M162 453v1003h122v-985q0 -184 105 -285.5t285 -101.5t284.5 102t104.5 284v986h124v-994q-1 -147 -65 -256t-180.5 -167.5t-267.5 -58.5q-230 0 -368.5 125.5t-143.5 347.5z"/>
<glyph glyph-name="V" horiz-adv-x="1263" unicode="V" d="M31 1456h134l458 -1276l8 -31l9 31l458 1276h135l-542 -1456h-118z"/>
<glyph glyph-name="W" horiz-adv-x="1836" unicode="W" d="M61 1456h126l266 -1063l45 -226l55 216l316 1073h111l312 -1073l54 -218l48 228l263 1063h126l-373 -1456h-118l-330 1139l-37 144l-36 -144l-338 -1139h-118z"/>
<glyph glyph-name="X" horiz-adv-x="1253" unicode="X" d="M55 0l498 738l-483 718h147l410 -616l410 616h147l-482 -718l497 -738h-148l-424 636l-426 -636h-146z"/>
<glyph glyph-name="Y" horiz-adv-x="1226" unicode="Y" d="M24 1456h146l441 -794l445 794h142l-526 -908v-548h-123v548z"/>
<glyph glyph-name="Z" horiz-adv-x="1225" unicode="Z" d="M90 0v93l864 1258h-838v105h990v-88l-867 -1264h899v-104h-1048z"/>
<glyph glyph-name="bracketleft" horiz-adv-x="491" unicode="[" d="M163 -312v1976h330v-102h-210v-1772h210v-102h-330z"/>
<glyph glyph-name="backslash" horiz-adv-x="807" unicode="\" d="M48 1456h117l608 -1581h-117z"/>
<glyph glyph-name="bracketright" horiz-adv-x="491" unicode="]" d="M0 -210h211v1772h-211v102h331v-1976h-331v102z"/>
<glyph glyph-name="asciicircum" horiz-adv-x="852" unicode="^" d="M77 729l299 727h90l298 -727h-116l-227 569l-228 -569h-116z"/>
<glyph glyph-name="underscore" horiz-adv-x="884" unicode="_" d="M1 0h881v-101h-881v101z"/>
<glyph glyph-name="grave" horiz-adv-x="585" unicode="`" d="M103 1524h144l191 -279h-109z"/>
<glyph glyph-name="a" horiz-adv-x="1097" unicode="a" d="M220 297q0 -91 67.5 -151t175.5 -60q120 0 214.5 58t137.5 155v238h-214q-179 -2 -280 -65.5t-101 -174.5zM100 287q0 158 131.5 250t366.5 92h217v123q0 116 -71.5 182.5t-208.5 66.5q-125 0 -207 -64t-82 -154l-120 1q0 129 120 223.5t295 94.5q181 0 285.5 -90.5 t107.5 -252.5v-512q0 -157 33 -235v-12h-128q-18 51 -23 151q-63 -82 -160.5 -126.5t-206.5 -44.5q-156 0 -252.5 87t-96.5 220z"/>
<glyph glyph-name="b" d="M274 288q90 -204 318 -204q148 0 231.5 117t83.5 350q0 214 -83 330.5t-234 116.5q-115 0 -195 -56.5t-121 -165.5v-488zM155 0v1536h119v-611q114 177 338 177q192 0 303.5 -146.5t111.5 -407.5v-18q0 -253 -112 -401.5t-301 -148.5q-226 0 -342 168l-5 -148h-112z" unicode="b"/>
<glyph glyph-name="c" horiz-adv-x="1055" unicode="c" d="M94 526v36q0 160 56 283t160.5 190t244.5 67q178 0 293.5 -106t123.5 -279h-115q-8 127 -91.5 205t-210.5 78q-162 0 -251.5 -117t-89.5 -328v-35q0 -207 89.5 -323t252.5 -116q125 0 209.5 70.5t91.5 182.5h115q-5 -99 -62 -180.5t-151.5 -127.5t-202.5 -46 q-213 0 -337.5 148t-124.5 398z"/>
<glyph glyph-name="d" horiz-adv-x="1138" unicode="d" d="M229 530q0 -207 83 -326.5t234 -119.5q221 0 314 195v508q-93 211 -312 211q-151 0 -235 -118.5t-84 -349.5zM108 537v14q0 252 112.5 401.5t305.5 149.5q219 0 334 -173v607h119v-1536h-112l-5 144q-115 -164 -338 -164q-187 0 -301.5 150.5t-114.5 406.5z"/>
<glyph glyph-name="e" horiz-adv-x="1058" unicode="e" d="M213 635h649v13q-5 156 -89 254t-220 98q-135 0 -227.5 -99t-112.5 -266zM90 510v43q0 156 60.5 281t168.5 196.5t234 71.5q197 0 312.5 -134.5t115.5 -367.5v-67h-772v-23q0 -184 105.5 -306.5t265.5 -122.5q96 0 169.5 35t133.5 112l75 -57q-132 -191 -383 -191 q-138 0 -249.5 68t-173.5 189.5t-62 272.5z"/>
<glyph glyph-name="f" horiz-adv-x="678" unicode="f" d="M63 984v98h179v131q0 166 84.5 255t235.5 89q68 0 127 -17l-9 -100q-50 12 -109 12q-99 0 -154 -61.5t-55 -174.5v-134h258v-98h-258v-984h-120v984h-179z"/>
<glyph glyph-name="g" horiz-adv-x="1136" unicode="g" d="M229 530q0 -207 83 -326.5t234 -119.5q221 0 313 198v503q-42 104 -121 158.5t-190 54.5q-151 0 -235 -118.5t-84 -349.5zM108 535v16q0 254 112.5 402.5t305.5 148.5q221 0 336 -176l6 156h112v-1060q0 -209 -117 -331t-317 -122q-113 0 -215.5 50.5t-161.5 134.5l67 72 q127 -156 302 -156q150 0 234 88.5t87 245.5v136q-115 -160 -335 -160q-188 0 -302 150t-114 405z"/>
<glyph glyph-name="h" horiz-adv-x="1124" unicode="h" d="M156 0v1536h119v-637q59 97 151 150t201 53q174 0 259 -98t86 -294v-710h-119v711q-1 145 -61.5 216t-193.5 71q-111 0 -196.5 -69.5t-126.5 -187.5v-741h-119z"/>
<glyph glyph-name="i" horiz-adv-x="459" unicode="i" d="M170 0v1082h120v-1082h-120zM149 1395q0 34 22 57.5t60 23.5t60.5 -23.5t22.5 -57.5t-22.5 -57t-60.5 -23t-60 23t-22 57z"/>
<glyph glyph-name="j" horiz-adv-x="467" unicode="j" d="M145 1395q0 34 21.5 57.5t59.5 23.5q39 0 61 -23.5t22 -57.5t-22 -57t-61 -23q-38 0 -59.5 23t-21.5 57zM-104 -418l2 99q44 -13 90 -13q178 0 178 205v1209h119v-1211q0 -150 -72 -229t-212 -79q-54 0 -105 19z"/>
<glyph glyph-name="k" horiz-adv-x="1003" unicode="k" d="M156 0v1536h120v-983l113 122l414 407h151l-459 -456l499 -626h-143l-438 545l-137 -132v-413h-120z"/>
<glyph glyph-name="l" horiz-adv-x="459" unicode="l" d="M170 0v1536h120v-1536h-120z"/>
<glyph glyph-name="m" horiz-adv-x="1815" unicode="m" d="M150 0v1082h115l4 -176q60 98 150 147t200 49q256 0 325 -210q58 101 155 155.5t214 54.5q348 0 355 -380v-722h-120v713q-1 145 -62.5 215t-200.5 70q-129 -2 -218 -83.5t-99 -198.5v-716h-120v722q-1 139 -65.5 207.5t-198.5 68.5q-113 0 -194 -64.5t-120 -191.5v-742 h-120z"/>
<glyph glyph-name="n" horiz-adv-x="1125" unicode="n" d="M156 0v1082h114l4 -185q61 100 152 152.5t201 52.5q174 0 259 -98t86 -294v-710h-119v711q-1 145 -61.5 216t-193.5 71q-111 0 -196.5 -69.5t-126.5 -187.5v-741h-119z"/>
<glyph glyph-name="o" horiz-adv-x="1147" unicode="o" d="M210 524q0 -194 100.5 -318.5t263.5 -124.5q162 0 262.5 124.5t100.5 328.5v23q0 124 -46 227t-129 159.5t-190 56.5q-160 0 -261 -125.5t-101 -328.5v-22zM90 533v24q0 156 60.5 281t171 194.5t250.5 69.5q216 0 350 -151.5t134 -401.5v-25q0 -157 -60.5 -282.5 t-170.5 -193.5t-251 -68q-215 0 -349.5 151.5t-134.5 401.5z"/>
<glyph glyph-name="p" d="M274 272q43 -93 123 -142t189 -49q151 0 235.5 120.5t84.5 349.5q0 207 -85 327t-237 120q-110 0 -189 -53t-121 -154v-519zM155 -416v1498h111l6 -153q117 173 339 173q194 0 304.5 -147t110.5 -408v-17q0 -253 -112 -401.5t-300 -148.5q-222 0 -340 156v-552h-119z" unicode="p"/>
<glyph glyph-name="q" horiz-adv-x="1142" unicode="q" d="M229 530q0 -210 84.5 -329.5t234.5 -119.5q215 0 311 187v530q-45 97 -124.5 149.5t-184.5 52.5q-151 0 -236 -119.5t-85 -350.5zM108 535v16q0 254 112.5 402.5t307.5 148.5q219 0 333 -167l6 147h112v-1498h-120v550q-118 -154 -333 -154q-190 0 -304 150t-114 405z "/>
<glyph glyph-name="r" horiz-adv-x="689" unicode="r" d="M156 0v1082h117l2 -172q95 192 305 192q50 0 79 -13l-3 -109q-38 7 -81 7q-112 0 -189.5 -62.5t-110.5 -181.5v-743h-119z"/>
<glyph glyph-name="s" horiz-adv-x="1037" unicode="s" d="M101 303h120q7 -105 88.5 -163.5t215.5 -58.5q125 0 202 55t77 139q0 89 -71.5 143t-215.5 84.5t-223.5 70t-118 96.5t-38.5 138q0 128 107 211.5t274 83.5q181 0 290.5 -89.5t109.5 -233.5h-120q0 95 -79.5 158t-200.5 63q-118 0 -189.5 -52.5t-71.5 -136.5 q0 -81 59.5 -125.5t217 -81.5t236 -79t116.5 -101t38 -143q0 -137 -110.5 -219t-288.5 -82q-189 0 -306.5 91.5t-117.5 231.5z"/>
<glyph glyph-name="t" horiz-adv-x="658" unicode="t" d="M23 984v98h199v277h120v-277h224v-98h-224v-721q0 -90 32.5 -134t108.5 -44q30 0 97 10l5 -98q-47 -17 -128 -17q-123 0 -179 71.5t-56 210.5v722h-199z"/>
<glyph glyph-name="u" horiz-adv-x="1125" unicode="u" d="M152 378v704h119v-689q0 -309 250 -309q260 0 329 215v783h120v-1082h-116l-2 137q-108 -157 -345 -157q-173 0 -263 100.5t-92 297.5z"/>
<glyph glyph-name="v" horiz-adv-x="985" unicode="v" d="M38 1082h123l332 -917l329 917h123l-404 -1082h-97z"/>
<glyph glyph-name="w" horiz-adv-x="1544" unicode="w" d="M63 1082h123l229 -833l18 -93l24 98l260 828h102l257 -821l28 -114l23 105l222 830h124l-315 -1082h-102l-278 858l-13 59l-13 -60l-273 -857h-102z"/>
<glyph glyph-name="x" horiz-adv-x="996" unicode="x" d="M48 0l382 551l-367 531h141l292 -439l292 439h142l-367 -531l383 -551h-141l-308 458l-308 -458h-141z"/>
<glyph glyph-name="y" horiz-adv-x="973" unicode="y" d="M32 1082h131l336 -910l316 910h129l-462 -1266l-24 -56q-89 -197 -275 -197q-43 0 -92 14l-1 99l62 -6q88 0 142.5 43.5t92.5 149.5l53 146z"/>
<glyph glyph-name="z" horiz-adv-x="996" unicode="z" d="M87 0v88l656 891h-636v103h787v-89l-659 -892h703v-101h-851z"/>
<glyph glyph-name="braceleft" horiz-adv-x="676" unicode="{" d="M68 543v104q231 0 231 261v229q1 183 85 296t253 164l26 -79q-244 -78 -244 -391v-213q0 -246 -184 -319q184 -77 184 -318v-228q4 -292 247 -373l-29 -80q-168 50 -253 163t-85 300v221q0 263 -231 263z"/>
<glyph glyph-name="bar" horiz-adv-x="452" unicode="|" d="M178 -270v1726h101v-1726h-101z"/>
<glyph glyph-name="braceright" horiz-adv-x="676" unicode="}" d="M9 -324q243 81 247 373v224q0 253 193 321q-193 68 -193 319v213q0 316 -244 392l26 79q171 -51 254.5 -165.5t83.5 -300.5v-223q0 -261 231 -261v-104q-231 0 -231 -263v-221q0 -187 -85 -300t-253 -163z"/>
<glyph glyph-name="asciitilde" horiz-adv-x="1402" unicode="~" d="M145 449q0 149 81 243.5t215 94.5q74 0 140.5 -31t158.5 -113q67 -63 115 -88.5t103 -25.5q88 0 140 63t52 172h104q0 -149 -83.5 -245t-212.5 -96q-72 0 -134.5 27.5t-153.5 108t-135 101t-94 20.5q-89 0 -138.5 -59t-49.5 -171z"/>
<glyph glyph-name="uni00A0" horiz-adv-x="498" unicode=" "/>
<glyph glyph-name="cent" horiz-adv-x="1115" unicode="¢" d="M119 526v36q0 222 105.5 367.5t291.5 168.5v220h120v-219q155 -16 255 -121t106 -261h-115q-8 127 -91.5 205t-210.5 78q-162 0 -251.5 -117t-89.5 -328v-35q0 -207 89.5 -323t252.5 -116q123 0 207.5 69.5t93.5 183.5h115q-8 -139 -110.5 -237t-250.5 -114v-228h-120 v229q-185 23 -291 166t-106 376z"/>
<glyph glyph-name="sterling" horiz-adv-x="1170" unicode="£" d="M93 645v104h184l-9 290q0 200 110.5 318.5t295.5 118.5q182 0 287.5 -105.5t105.5 -282.5h-123q0 135 -75 209t-204 74q-125 0 -199 -88.5t-74 -243.5l9 -290h344v-104h-341l9 -277v-10q0 -166 -64 -254h745v-104h-997v104h98q51 13 77 107q18 67 18 141v15l-9 278h-188z "/>
<glyph glyph-name="yen" horiz-adv-x="1223" unicode="¥" d="M44 1456h143l420 -722l421 722h143l-453 -751h367v-89h-418v-204h418v-88h-418v-324h-123v324h-414v88h414v204h-414v89h366z"/>
<glyph glyph-name="dieresis" horiz-adv-x="881" unicode="¨" d="M580 1395q0 34 22 57.5t60 23.5q39 0 61 -23.5t22 -57.5q0 -33 -22 -56t-61 -23q-38 0 -60 23t-22 56zM143 1396q0 34 21.5 57.5t60.5 23.5q38 0 60.5 -23.5t22.5 -57.5q0 -33 -22.5 -56t-60.5 -23q-39 0 -60.5 23t-21.5 56z"/>
<glyph glyph-name="copyright" horiz-adv-x="1637" unicode="©" d="M474 686v90q0 174 92 280.5t241 106.5t232 -80.5t83 -232.5h-99q0 224 -216 224q-106 0 -170 -81t-64 -222v-91q0 -134 63 -215.5t171 -81.5q106 0 160.5 53t54.5 171h99q0 -152 -82 -233t-232 -81t-241.5 106t-91.5 287zM192 729q0 -176 81.5 -330t228.5 -244t315 -90 q167 0 312 89t228.5 242.5t83.5 332.5q0 178 -83 330.5t-228.5 241t-312.5 88.5q-171 0 -318 -91t-227 -243t-80 -326zM107 729q0 202 93.5 375t259 272.5t357.5 99.5t357 -99.5t258.5 -272.5t93.5 -375q0 -197 -90 -369t-255.5 -276.5t-363.5 -104.5q-197 0 -362.5 103.5 t-256.5 275.5t-91 371z"/>
<glyph glyph-name="guillemotleft" horiz-adv-x="933" unicode="«" d="M432 527v19l295 379h105l-276 -389l276 -388h-105zM123 527v19l295 379h105l-276 -389l276 -388h-105z"/>
<glyph glyph-name="uni00AD" horiz-adv-x="586" unicode="­" d="M49 592v101h479v-101h-479z"/>
<glyph glyph-name="registered" horiz-adv-x="1642" unicode="®" d="M650 757h181q81 0 133.5 42t52.5 111q0 85 -43.5 121.5t-149.5 38.5h-174v-313zM552 321v839h258q147 0 226 -61.5t79 -186.5q0 -133 -141 -197q72 -26 100 -80.5t28 -130.5t4 -110t13 -57v-16h-102q-14 36 -14 182q0 89 -37.5 126t-127.5 37h-188v-345h-98zM187 729 q0 -179 83.5 -333t229 -242.5t312.5 -88.5t313 88.5t228.5 243t82.5 332.5q0 176 -81 328t-226.5 242t-316.5 90q-168 0 -313.5 -88.5t-228.5 -241t-83 -330.5zM102 729q0 202 93.5 375t259 272.5t357.5 99.5t357.5 -99.5t259 -272.5t93.5 -375q0 -199 -91 -371 t-256.5 -275.5t-362.5 -103.5t-362.5 103.5t-256.5 275.5t-91 371z"/>
<glyph glyph-name="plusminus" horiz-adv-x="1085" unicode="±" d="M128 0v101h835v-101h-835zM84 727v102h414v438h111v-438h391v-102h-391v-438h-111v438h-414z"/>
<glyph glyph-name="acute" horiz-adv-x="576" unicode="´" d="M124 1245l191 279h145l-231 -279h-105z"/>
<glyph glyph-name="cedilla" horiz-adv-x="498" unicode="¸" d="M98 -357q89 0 145.5 32.5t56.5 87.5q0 58 -43.5 80t-132.5 30l29 127h93l-12 -64q165 -21 165 -171q0 -92 -79 -146t-215 -54z"/>
<glyph glyph-name="guillemotright" horiz-adv-x="928" unicode="»" d="M434 162l276 388l-276 394h106l295 -384v-19l-295 -379h-106zM115 162l276 388l-276 394h106l295 -384v-19l-295 -379h-106z"/>
<glyph glyph-name="multiply" horiz-adv-x="1072" unicode="×" d="M93 179l358 365l-343 350l79 80l342 -350l343 350l79 -80l-343 -350l358 -365l-79 -79l-358 364l-357 -364z"/>
<glyph glyph-name="circumflex" horiz-adv-x="880" unicode="ˆ" d="M160 1258v13l238 255h76l241 -258v-10h-111l-168 183l-167 -183h-109z"/>
<glyph glyph-name="tilde" horiz-adv-x="891" unicode="˜" d="M106 1267q0 92 54.5 152t140.5 60q48 0 82 -17t64 -38t60.5 -38t71.5 -17q46 0 78.5 33t32.5 89l89 -6q0 -96 -56.5 -154.5t-138.5 -58.5q-76 0 -148.5 55t-129.5 55q-47 0 -78.5 -31t-31.5 -87z"/>
<glyph glyph-name="uni0401" horiz-adv-x="1165" unicode="Ё" d="M763 1716q0 34 22 57.5t60 23.5q39 0 61 -23.5t22 -57.5q0 -33 -22 -56t-61 -23q-38 0 -60 23t-22 56zM326 1717q0 34 21.5 57.5t60.5 23.5q38 0 60.5 -23.5t22.5 -57.5q0 -33 -22.5 -56t-60.5 -23q-39 0 -60.5 23t-21.5 56zM184 0v1456h901v-105h-778v-549h681v-104 h-681v-594h783v-104h-906z"/>
<glyph glyph-name="uni0410" horiz-adv-x="1279" unicode="А" d="M347 513h584l-292 793zM30 0l551 1456h117l551 -1456h-128l-151 408h-661l-150 -408h-129z"/>
<glyph glyph-name="uni0411" horiz-adv-x="1285" unicode="Б" d="M301 104h360q169 0 264 83.5t95 228.5q0 138 -92 219.5t-258 83.5h-369v-615zM177 0v1456h878v-105h-754v-527h361q149 0 258 -49.5t166.5 -142t57.5 -218.5q0 -193 -129 -303.5t-357 -110.5h-481z"/>
<glyph glyph-name="uni0412" horiz-adv-x="1255" unicode="В" d="M307 803h336q154 3 238.5 72.5t84.5 202.5q0 140 -87.5 206.5t-264.5 66.5h-307v-548zM307 104h369q158 0 250.5 80.5t92.5 223.5q0 135 -88.5 213.5t-244.5 78.5h-379v-596zM184 0v1456h430q234 0 355 -96.5t121 -284.5q0 -113 -61.5 -196.5t-168.5 -119.5 q127 -28 204.5 -125t77.5 -224q0 -193 -124.5 -301.5t-346.5 -108.5h-487z"/>
<glyph glyph-name="uni0413" horiz-adv-x="1130" unicode="Г" d="M185 0v1456h878v-105h-755v-1351h-123z"/>
<glyph glyph-name="uni0414" horiz-adv-x="1482" unicode="Д" d="M311 104h827v1247h-564l-20 -417q-13 -260 -76.5 -479t-166.5 -351zM71 104h97q111 116 179.5 338.5t82.5 487.5l26 526h805v-1352h155l-1 -457h-123v353h-1098v-353h-123v457z"/>
<glyph glyph-name="uni0415" horiz-adv-x="1165" unicode="Е" d="M184 0v1456h901v-105h-778v-549h681v-104h-681v-594h783v-104h-906z"/>
<glyph glyph-name="uni0416" horiz-adv-x="1802" unicode="Ж" d="M23 0l539 752l-503 704h149l458 -658h176v658h123v-658h172l458 658h148l-503 -703l540 -753h-155l-496 693h-164v-693h-123v693h-169l-494 -693h-156z"/>
<glyph glyph-name="uni0417" horiz-adv-x="1218" unicode="З" d="M90 404h123q0 -140 109 -230.5t276 -90.5q189 0 296 83.5t107 224.5q0 149 -95 222.5t-293 75.5h-186v106h180q182 1 277 71.5t95 209.5q0 137 -99 216t-282 79q-158 0 -261 -84t-103 -213h-123q0 116 63 207.5t176.5 143t247.5 51.5q236 0 370 -105t134 -298 q0 -111 -71 -198t-191 -129q284 -76 284 -351q0 -189 -142.5 -302t-383.5 -113q-146 0 -266 55.5t-181 150t-61 218.5z"/>
<glyph glyph-name="uni0418" horiz-adv-x="1454" unicode="И" d="M188 0v1456h124v-1245l829 1245h123v-1456h-123v1246l-829 -1246h-124z"/>
<glyph glyph-name="uni0419" horiz-adv-x="1454" unicode="Й" d="M445 1814h102q0 -83 49.5 -127t137.5 -44t137.5 46t49.5 125h102q0 -115 -78.5 -186t-210.5 -71q-130 0 -209.5 70.5t-79.5 186.5zM188 0v1456h124v-1245l829 1245h123v-1456h-123v1246l-829 -1246h-124z"/>
<glyph glyph-name="uni041A" horiz-adv-x="1308" unicode="К" d="M189 0v1456h123v-668h194l563 668h155l-598 -716l642 -740h-153l-603 683h-200v-683h-123z"/>
<glyph glyph-name="uni041B" horiz-adv-x="1438" unicode="Л" d="M40 0v104l40 1q103 5 155 65t80.5 194.5t44.5 415.5l36 676h855v-1456h-123v1351h-615l-34 -602q-20 -323 -61.5 -469.5t-118 -212t-207.5 -67.5h-52z"/>
<glyph glyph-name="uni041C" horiz-adv-x="1772" unicode="М" d="M184 0v1456h163l537 -1285l539 1285h164v-1456h-123v634l10 650l-542 -1284h-95l-540 1279l10 -641v-638h-123z"/>
<glyph glyph-name="uni041D" horiz-adv-x="1449" unicode="Н" d="M184 0v1456h123v-654h832v654h124v-1456h-124v698h-832v-698h-123z"/>
<glyph glyph-name="uni041E" horiz-adv-x="1386" unicode="О" d="M248 649q0 -259 120 -410.5t326 -151.5q209 0 326 149.5t117 416.5v154q0 263 -119 412t-326 149q-203 0 -323.5 -149.5t-120.5 -417.5v-152zM125 655v150q0 199 70.5 352.5t199.5 236t297 82.5t296.5 -81t198.5 -229t73 -343v-174q0 -201 -69.5 -353t-198.5 -234 t-298 -82q-255 0 -412 182.5t-157 492.5z"/>
<glyph glyph-name="uni041F" horiz-adv-x="1449" unicode="П" d="M189 0v1456h1070v-1456h-123v1351h-824v-1351h-123z"/>
<glyph glyph-name="uni0420" horiz-adv-x="1261" unicode="Р" d="M307 697h373q179 0 273 85t94 237q0 151 -93.5 240.5t-265.5 91.5h-381v-654zM184 0v1456h496q227 0 358.5 -116t131.5 -319q0 -205 -126.5 -316.5t-366.5 -111.5h-370v-593h-123z"/>
<glyph glyph-name="uni0421" horiz-adv-x="1330" unicode="С" d="M131 630v189q0 194 68 344t195.5 231.5t293.5 81.5q234 0 369.5 -126.5t157.5 -349.5h-124q-46 371 -403 371q-198 0 -315.5 -148t-117.5 -409v-178q0 -252 114.5 -402t309.5 -150q193 0 291 92.5t121 277.5h124q-25 -230 -164.5 -352t-371.5 -122q-162 0 -286.5 81 t-192.5 229.5t-69 339.5z"/>
<glyph glyph-name="uni0422" horiz-adv-x="1223" unicode="Т" d="M52 1351v105h1120v-105h-499v-1351h-123v1351h-498z"/>
<glyph glyph-name="uni0423" horiz-adv-x="1285" unicode="У" d="M55 1456h141l474 -933l414 933h145l-563 -1219l-36 -69q-106 -189 -312 -189q-61 0 -94 11l11 100q21 -7 84 -7q124 0 199 127l25 45l63 130z"/>
<glyph glyph-name="uni0424" horiz-adv-x="1521" unicode="Ф" d="M822 254h29q218 0 348 131t130 347q0 205 -121 334t-324 139l-62 1v-952zM196 730q0 -209 121 -337t325 -138l60 -1v952h-27q-219 0 -349 -130t-130 -346zM76 730q0 163 76.5 296.5t213.5 207.5t308 74h28v208h120v-208h34q169 -1 305 -75t212 -206.5t76 -294.5 q0 -163 -75 -295t-210.5 -207t-304.5 -77h-37v-213h-120v213h-28q-172 0 -308.5 73.5t-213 206.5t-76.5 297z"/>
<glyph glyph-name="uni0425" horiz-adv-x="1253" unicode="Х" d="M55 0l498 738l-483 718h147l410 -616l410 616h147l-482 -718l497 -738h-148l-424 636l-426 -636h-146z"/>
<glyph glyph-name="uni0426" horiz-adv-x="1461" unicode="Ц" d="M179 0v1456h124v-1352h824v1352h123v-1350h143l-9 -457h-114v351h-1091z"/>
<glyph glyph-name="uni0427" horiz-adv-x="1363" unicode="Ч" d="M172 1041v415h124v-408q1 -177 87.5 -257.5t275.5 -80.5q191 0 394 57v689h124v-1456h-124v662q-205 -57 -394 -57q-248 0 -366 107t-121 329z"/>
<glyph glyph-name="uni0428" horiz-adv-x="1896" unicode="Ш" d="M182 0v1456h124v-1352h582v1352h123v-1352h580v1352h123v-1456h-1532z"/>
<glyph glyph-name="uni0429" horiz-adv-x="1930" unicode="Щ" d="M182 0v1456h124v-1352h582v1352h123v-1352h580v1352h123v-1355h138l-9 -452h-109v351h-1552z"/>
<glyph glyph-name="uni042A" horiz-adv-x="1585" unicode="Ъ" d="M601 104h360q169 0 264 83.5t95 228.5q0 138 -92 219.5t-258 83.5h-369v-615zM-10 1354v102h611v-632h361q149 0 258 -49.5t166.5 -142t57.5 -218.5q0 -193 -129 -303.5t-357 -110.5h-480v1354h-488z"/>
<glyph glyph-name="uni042B" horiz-adv-x="1710" unicode="Ы" d="M1392 0v1456h123v-1456h-123zM309 104h360q169 0 264 83.5t95 228.5q0 138 -92 219.5t-258 83.5h-369v-615zM186 0v1456h123v-632h361q149 0 258 -49.5t166.5 -142t57.5 -218.5q0 -193 -129 -303.5t-357 -110.5h-480z"/>
<glyph glyph-name="uni042C" horiz-adv-x="1254" unicode="Ь" d="M301 104h360q169 0 264 83.5t95 228.5q0 138 -92 219.5t-258 83.5h-369v-615zM178 0v1456h123v-632h361q149 0 258 -49.5t166.5 -142t57.5 -218.5q0 -193 -129 -303.5t-357 -110.5h-480z"/>
<glyph glyph-name="uni042D" horiz-adv-x="1352" unicode="Э" d="M141 454h123q25 -191 124 -280.5t288 -89.5q197 0 311 152t114 407v36h-608v105h608v36q0 253 -117 402t-316 149q-358 0 -404 -371h-123q22 226 159 351t368 125q251 0 403.5 -179.5t152.5 -486.5v-174q0 -194 -68.5 -344.5t-193 -231t-286.5 -80.5q-234 0 -373 123 t-162 351z"/>
<glyph glyph-name="uni042E" horiz-adv-x="1864" unicode="Ю" d="M723 649q0 -259 120 -410.5t326 -151.5q209 0 326 149.5t117 416.5v154q0 263 -119 412t-326 149q-203 0 -323.5 -149.5t-120.5 -417.5v-152zM209 0v1456h123v-669h268q0 218 70.5 371t199.5 235.5t297 82.5t296.5 -81t198.5 -229t73 -343v-174q0 -201 -69.5 -353 t-198.5 -234t-298 -82q-255 0 -412 182.5t-157 492.5v31h-268v-686h-123z"/>
<glyph glyph-name="uni042F" horiz-adv-x="1252" unicode="Я" d="M269 1018q0 -144 90.5 -232t249.5 -88h353v653h-322q-178 0 -274.5 -86.5t-96.5 -246.5zM92 0l343 627q-141 49 -215 148t-74 242q0 206 130.5 322.5t367.5 116.5h442v-1456h-124v593h-419l-318 -593h-133z"/>
<glyph glyph-name="uni0430" horiz-adv-x="1097" unicode="а" d="M220 297q0 -91 67.5 -151t175.5 -60q120 0 214.5 58t137.5 155v238h-214q-179 -2 -280 -65.5t-101 -174.5zM100 287q0 158 131.5 250t366.5 92h217v123q0 116 -71.5 182.5t-208.5 66.5q-125 0 -207 -64t-82 -154l-120 1q0 129 120 223.5t295 94.5q181 0 285.5 -90.5 t107.5 -252.5v-512q0 -157 33 -235v-12h-128q-18 51 -23 151q-63 -82 -160.5 -126.5t-206.5 -44.5q-156 0 -252.5 87t-96.5 220z"/>
<glyph glyph-name="uni0431" horiz-adv-x="1127" unicode="б" d="M217 493q0 -183 99 -297.5t260 -114.5q162 0 260 115.5t98 303.5v26q0 169 -99.5 276t-260.5 107t-259 -108.5t-98 -282.5v-25zM97 503v96q0 336 128 537t364 240q149 24 209.5 65t60.5 112h103q0 -84 -35 -139t-105 -88.5t-214 -56.5q-165 -26 -265.5 -140.5 t-130.5 -306.5q64 84 160.5 136t219.5 52q206 0 334 -134.5t128 -356.5v-26q0 -147 -58.5 -264.5t-168 -183t-251.5 -65.5q-214 0 -346.5 142.5t-132.5 380.5z"/>
<glyph glyph-name="uni0432" horiz-adv-x="1145" unicode="в" d="M288 598h303q282 4 282 192q0 99 -77.5 144.5t-229.5 45.5h-278v-382zM288 100h347q135 0 208 52t73 150q0 90 -73 143t-208 53h-347v-398zM169 0v1082h397q206 0 316 -73.5t110 -215.5q0 -81 -49 -144.5t-143 -92.5q106 -20 170.5 -91t64.5 -165q0 -143 -105.5 -221.5 t-298.5 -78.5h-462z"/>
<glyph glyph-name="uni0433" horiz-adv-x="863" unicode="г" d="M163 0v1082h667v-103h-547v-979h-120z"/>
<glyph glyph-name="uni0434" horiz-adv-x="1174" unicode="д" d="M269 101h598v869h-405l-13 -281q-18 -387 -180 -588zM52 -318l1 419h78l53 69q126 171 145 500l19 412h639v-981h112v-419h-119v318h-813v-318h-115z"/>
<glyph glyph-name="uni0435" horiz-adv-x="1058" unicode="е" d="M213 635h649v13q-5 156 -89 254t-220 98q-135 0 -227.5 -99t-112.5 -266zM90 510v43q0 156 60.5 281t168.5 196.5t234 71.5q197 0 312.5 -134.5t115.5 -367.5v-67h-772v-23q0 -184 105.5 -306.5t265.5 -122.5q96 0 169.5 35t133.5 112l75 -57q-132 -191 -383 -191 q-138 0 -249.5 68t-173.5 189.5t-62 272.5z"/>
<glyph glyph-name="uni0436" horiz-adv-x="1571" unicode="ж" d="M24 0l448 555l-398 527h145l355 -475h145v475h120v-475h146l355 475h147l-400 -527l449 -555h-153l-400 500h-144v-500h-120v500h-143l-400 -500h-152z"/>
<glyph glyph-name="uni0437" horiz-adv-x="1037" unicode="з" d="M98 310h120q0 -98 86.5 -163.5t212.5 -65.5q137 0 214.5 57.5t77.5 156.5q0 109 -71 157t-217 48h-165v104h185q249 6 249 192q0 98 -73 151t-201 53q-116 0 -198.5 -59.5t-82.5 -150.5h-119q0 135 115.5 223t284.5 88q186 0 290 -80t104 -227q0 -78 -48 -141t-140 -98 q208 -57 208 -258q0 -146 -113 -231t-300 -85q-181 0 -300 91t-119 238z"/>
<glyph glyph-name="uni0438" horiz-adv-x="1151" unicode="и" d="M164 0v1082h119v-890l584 890h120v-1082h-120v889l-584 -889h-119z"/>
<glyph glyph-name="uni0439" horiz-adv-x="1151" unicode="й" d="M283 1472h102q0 -83 49.5 -127t137.5 -44t137.5 46t49.5 125h102q0 -115 -78.5 -186t-210.5 -71q-130 0 -209.5 70.5t-79.5 186.5zM164 0v1082h119v-890l584 890h120v-1082h-120v889l-584 -889h-119z"/>
<glyph glyph-name="uni043A" horiz-adv-x="1061" unicode="к" d="M163 0v1082h121v-480h164l397 480h151l-444 -525l493 -557h-158l-437 496h-166v-496h-121z"/>
<glyph glyph-name="uni043B" horiz-adv-x="1153" unicode="л" d="M44 0v106l37 2q103 2 148 100t59 350l22 524h678v-1082h-120v979h-443l-19 -405q-12 -225 -45 -343.5t-98 -174.5t-173 -56h-46z"/>
<glyph glyph-name="uni043C" horiz-adv-x="1497" unicode="м" d="M169 0v1082h157l429 -920l430 920h148v-1082h-120v888l-416 -888h-85l-424 908v-908h-119z"/>
<glyph glyph-name="uni043D" horiz-adv-x="1151" unicode="н" d="M164 0v1082h120v-485h583v485h120v-1082h-120v496h-583v-496h-120z"/>
<glyph glyph-name="uni043E" horiz-adv-x="1147" unicode="о" d="M210 524q0 -194 100.5 -318.5t263.5 -124.5q162 0 262.5 124.5t100.5 328.5v23q0 124 -46 227t-129 159.5t-190 56.5q-160 0 -261 -125.5t-101 -328.5v-22zM90 533v24q0 156 60.5 281t171 194.5t250.5 69.5q216 0 350 -151.5t134 -401.5v-25q0 -157 -60.5 -282.5 t-170.5 -193.5t-251 -68q-215 0 -349.5 151.5t-134.5 401.5z"/>
<glyph glyph-name="uni043F" horiz-adv-x="1151" unicode="п" d="M164 0v1082h823v-1082h-120v979h-583v-979h-120z"/>
<glyph glyph-name="uni0440" d="M274 272q43 -93 123 -142t189 -49q151 0 235.5 120.5t84.5 349.5q0 207 -85 327t-237 120q-110 0 -189 -53t-121 -154v-519zM155 -416v1498h111l6 -153q117 173 339 173q194 0 304.5 -147t110.5 -408v-17q0 -253 -112 -401.5t-300 -148.5q-222 0 -340 156v-552h-119z" unicode="р"/>
<glyph glyph-name="uni0441" horiz-adv-x="1055" unicode="с" d="M94 526v36q0 160 56 283t160.5 190t244.5 67q178 0 293.5 -106t123.5 -279h-115q-8 127 -91.5 205t-210.5 78q-162 0 -251.5 -117t-89.5 -328v-35q0 -207 89.5 -323t252.5 -116q125 0 209.5 70.5t91.5 182.5h115q-5 -99 -62 -180.5t-151.5 -127.5t-202.5 -46 q-213 0 -337.5 148t-124.5 398z"/>
<glyph glyph-name="uni0442" horiz-adv-x="973" unicode="т" d="M40 980v102h893v-102h-394v-980h-120v980h-379z"/>
<glyph glyph-name="uni0443" horiz-adv-x="973" unicode="у" d="M32 1082h131l336 -910l316 910h129l-462 -1266l-24 -56q-89 -197 -275 -197q-43 0 -92 14l-1 99l62 -6q88 0 142.5 43.5t92.5 149.5l53 146z"/>
<glyph glyph-name="uni0444" horiz-adv-x="1484" unicode="ф" d="M798 119q63 -39 160 -39q140 0 218 112.5t78 339.5q0 218 -78.5 343t-219.5 125q-102 0 -158 -44v-837zM231 511q0 -204 75 -317.5t216 -113.5q94 0 157 41v838q-58 41 -155 41q-140 0 -216.5 -124.5t-76.5 -364.5zM111 532q0 264 103.5 417t286.5 153q105 0 178 -47v481 h119v-485q74 51 184 51q173 0 277 -139t113 -387l1 -65q0 -247 -104 -389.5t-285 -142.5q-108 0 -186 47v-442h-119v441q-77 -46 -180 -46q-171 0 -274 129.5t-113 358.5z"/>
<glyph glyph-name="uni0445" horiz-adv-x="996" unicode="х" d="M48 0l382 551l-367 531h141l292 -439l292 439h142l-367 -531l383 -551h-141l-308 458l-308 -458h-141z"/>
<glyph glyph-name="uni0446" horiz-adv-x="1166" unicode="ц" d="M164 0v1082h120v-981h583v981h120v-981h110l-9 -422h-110v321h-814z"/>
<glyph glyph-name="uni0447" horiz-adv-x="1090" unicode="ч" d="M110 790v292h119v-286q2 -155 68.5 -223.5t225.5 -68.5q145 4 283 52v526h120v-1082h-120v455q-148 -54 -283 -54q-215 0 -312 94.5t-101 294.5z"/>
<glyph glyph-name="uni0448" horiz-adv-x="1625" unicode="ш" d="M164 0v1082h120v-981h481v981h120v-981h477v981h120v-1082h-1318z"/>
<glyph glyph-name="uni0449" horiz-adv-x="1643" unicode="щ" d="M158 0v1082h120v-981h482v981h120v-981h476v981h120v-981h130l-9 -422h-110v321h-1329z"/>
<glyph glyph-name="uni044A" horiz-adv-x="1290" unicode="ъ" d="M499 101h310q129 0 202.5 65t73.5 178q0 108 -71.5 174.5t-195.5 68.5h-319v-486zM35 980v102h464v-393h312q120 0 210.5 -43.5t137 -120.5t46.5 -179q0 -157 -107.5 -251.5t-290.5 -94.5h-427v980h-345z"/>
<glyph glyph-name="uni044B" horiz-adv-x="1538" unicode="ы" d="M1241 0v1082h120v-1082h-120zM288 101h310q129 0 202.5 65t73.5 178q0 108 -71.5 174.5t-195.5 68.5h-319v-486zM169 0v1082h119v-393h312q120 0 210.5 -43.5t137 -120.5t46.5 -179q0 -157 -107.5 -251.5t-290.5 -94.5h-427z"/>
<glyph glyph-name="uni044C" horiz-adv-x="1096" unicode="ь" d="M288 101h310q129 0 202.5 65t73.5 178q0 108 -71.5 174.5t-195.5 68.5h-319v-486zM169 0v1082h119v-393h312q120 0 210.5 -43.5t137 -120.5t46.5 -179q0 -157 -107.5 -251.5t-290.5 -94.5h-427z"/>
<glyph glyph-name="uni044D" horiz-adv-x="1095" unicode="э" d="M111 366h116q0 -129 82.5 -207t208.5 -78q150 0 241.5 112t98.5 303h-489v101h489q-9 183 -99.5 293t-241.5 110q-124 0 -207 -71.5t-83 -184.5h-116q0 98 54.5 180t149.5 130t202 48q199 0 325 -139.5t136 -365.5l1 -77q0 -156 -58 -280.5t-162 -192t-241 -67.5 q-178 0 -292.5 107.5t-114.5 278.5z"/>
<glyph glyph-name="uni044E" horiz-adv-x="1665" unicode="ю" d="M715 524q0 -194 100.5 -318.5t264.5 -124.5q161 0 261.5 124.5t100.5 328.5v23q0 192 -101 317.5t-263 125.5q-161 0 -262 -125.5t-101 -328.5v-22zM169 0v1082h119v-493h309q5 148 68 266.5t171 182.5t242 64q215 0 349.5 -152t134.5 -402v-24q0 -156 -61 -282 t-171 -194t-250 -68q-207 0 -340 140.5t-143 366.5h-309v-487h-119z"/>
<glyph glyph-name="uni044F" horiz-adv-x="1112" unicode="я" d="M251 757q0 -95 60.5 -156t168.5 -63h345v442h-306q-125 0 -196.5 -60t-71.5 -163zM93 0l272 451q-111 29 -172.5 112t-61.5 196q0 147 105.5 235t285.5 88h423v-1082h-120v436h-336l-264 -436h-132z"/>
<glyph glyph-name="uni0451" horiz-adv-x="1058" unicode="ё" d="M710 1395q0 34 22 57.5t60 23.5q39 0 61 -23.5t22 -57.5q0 -33 -22 -56t-61 -23q-38 0 -60 23t-22 56zM273 1396q0 34 21.5 57.5t60.5 23.5q38 0 60.5 -23.5t22.5 -57.5q0 -33 -22.5 -56t-60.5 -23q-39 0 -60.5 23t-21.5 56zM213 635h649v13q-5 156 -89 254t-220 98 q-135 0 -227.5 -99t-112.5 -266zM90 510v43q0 156 60.5 281t168.5 196.5t234 71.5q197 0 312.5 -134.5t115.5 -367.5v-67h-772v-23q0 -184 105.5 -306.5t265.5 -122.5q96 0 169.5 35t133.5 112l75 -57q-132 -191 -383 -191q-138 0 -249.5 68t-173.5 189.5t-62 272.5z"/>
<glyph glyph-name="uni2002" horiz-adv-x="907" unicode=" "/>
<glyph glyph-name="uni2003" horiz-adv-x="1814" unicode=" "/>
<glyph glyph-name="uni2009" horiz-adv-x="362" unicode=" "/>
<glyph glyph-name="endash" horiz-adv-x="1334" unicode="–" d="M159 686v102h1002v-102h-1002z"/>
<glyph glyph-name="emdash" horiz-adv-x="1580" unicode="—" d="M126 686v102h1336v-102h-1336z"/>
<glyph glyph-name="quoteleft" horiz-adv-x="364" unicode="‘" d="M98 1121v112q0 92 37.5 177t102.5 144l72 -51q-90 -118 -93 -254v-128h-119z"/>
<glyph glyph-name="quotesinglbase" horiz-adv-x="353" unicode="‚" d="M41 -179q83 111 91 230l1 154h119v-101q0 -208 -140 -335z"/>
<glyph glyph-name="quotedblleft" horiz-adv-x="612" unicode="“" d="M350 1121v112q0 92 37.5 177t102.5 144l72 -51q-90 -118 -93 -254v-128h-119zM99 1121v112q0 92 37.5 177t102.5 144l72 -51q-90 -118 -93 -254v-128h-119z"/>
<glyph glyph-name="quotedblright" horiz-adv-x="617" unicode="”" d="M312 1151q90 121 93 254v131h118v-101q0 -209 -140 -336zM68 1151q90 121 93 254v131h118v-101q0 -209 -140 -336z"/>
<glyph glyph-name="ellipsis" horiz-adv-x="1313" unicode="…" d="M968 72q0 35 22.5 59.5t62.5 24.5t63 -24.5t23 -59.5t-23 -57.5t-63 -22.5t-62.5 22.5t-22.5 57.5zM576 72q0 35 22.5 59.5t62.5 24.5t63 -24.5t23 -59.5t-23 -57.5t-63 -22.5t-62.5 22.5t-22.5 57.5zM166 72q0 35 22.5 59.5t62.5 24.5t63 -24.5t23 -59.5t-23 -57.5 t-63 -22.5t-62.5 22.5t-22.5 57.5z"/>
<glyph glyph-name="guilsinglleft" horiz-adv-x="609" unicode="‹" d="M108 546v19l295 379h105l-276 -389l276 -388h-105z"/>
<glyph glyph-name="guilsinglright" horiz-adv-x="609" unicode="›" d="M97 162l276 388l-276 394h106l295 -384v-19l-295 -379h-106z"/>
<glyph glyph-name="Euro" d="M83 563v89h192v164h-192v90h192q0 270 143 420t392 150q99 0 232 -31l-10 -109q-112 35 -221 35q-198 0 -305.5 -118.5t-107.5 -346.5h419v-90h-419v-164h419v-89h-419v-17q0 -221 108.5 -342t306.5 -121q117 0 219 34l10 -107q-116 -30 -230 -30q-249 0 -391.5 147 t-145.5 409v27h-192z" unicode="€"/>
<glyph glyph-name="uni20BD" horiz-adv-x="1314" unicode="₽" d="M361 697h374q174 0 270 84.5t96 239.5q0 150 -93.5 238t-257.5 92h-389v-654zM35 339v105h204v149h-204v104h204v759h496q230 0 359.5 -116.5t129.5 -316.5q0 -204 -126 -316.5t-360 -113.5h-377v-149h368v-105h-368v-339h-122v339h-204z"/>
<glyph glyph-name="trademark" horiz-adv-x="1264" unicode="™" d="M580 919v537h91l160 -430l160 430h90v-537h-72v416l-152 -416h-52l-152 423v-423h-73zM107 1387v69h391v-69h-159v-468h-73v468h-159z"/>
<glyph glyph-name="approxequal" horiz-adv-x="1154" unicode="≈" d="M106 868q48 60 111.5 94t129.5 34h9q77 0 147 -33l160 -82q64 -29 138 -29q131 0 234 139l3 -126q-48 -60 -109 -94t-127 -34q-78 0 -144 31l-163 84q-64 29 -137 29h-10q-66 0 -128 -37.5t-110 -101.5zM101 464q48 60 111 94.5t129 34.5h9q77 0 147 -33l166 -85 q60 -27 132 -27q131 0 234 140l3 -126q-48 -60 -109 -94t-127 -34q-78 0 -144 31l-163 84q-66 30 -138 30h-9q-66 0 -128 -37.5t-110 -102.5z"/>
<glyph glyph-name="notequal" horiz-adv-x="1133" unicode="≠" d="M149 418v106h272l175 305h-447v106h508l157 272l71 -41l-133 -231h231v-106h-292l-176 -305h468v-106h-529l-152 -265l-71 41l129 224h-211z"/>
<hkern k="40" u1=" " u2="Т"/>
<hkern k="40" u1=" " u2="T"/>
<hkern k="-11" u1='&quot;' u2="w"/>
<hkern k="-11" u1="&apos;" u2="w"/>
<hkern k="-22" u1="(" u2="Y"/>
<hkern k="-18" u1="(" u2="W"/>
<hkern k="-20" u1="(" u2="V"/>
<hkern k="224" u1="/" u2="/"/>
<hkern k="54" u1="A" u2="т"/>
<hkern k="59" u1="A" u2="Ь"/>
<hkern k="-19" u1="A" u2="Д"/>
<hkern k="33" u1="A" u2="w"/>
<hkern k="17" u1="A" u2="t"/>
<hkern k="61" u1="A" u2="?"/>
<hkern k="17" u1="C" u2="}"/>
<hkern k="12" u1="C" u2="]"/>
<hkern k="26" u1="C" u2=")"/>
<hkern k="32" u1="D" u2="Ь"/>
<hkern k="33" u1="D" u2="Д"/>
<hkern k="22" u1="E" u2="w"/>
<hkern k="18" u1="E" u2="f"/>
<hkern k="234" u1="F" u2="…"/>
<hkern k="234" u1="F" u2="‚"/>
<hkern k="21" u1="F" u2="ё"/>
<hkern k="21" u1="F" u2="ф"/>
<hkern k="24" u1="F" u2="у"/>
<hkern k="21" u1="F" u2="с"/>
<hkern k="21" u1="F" u2="о"/>
<hkern k="21" u1="F" u2="е"/>
<hkern k="34" u1="F" u2="а"/>
<hkern k="-20" u1="F" u2="Т"/>
<hkern k="170" u1="F" u2="А"/>
<hkern k="24" u1="F" u2="y"/>
<hkern k="24" u1="F" u2="v"/>
<hkern k="22" u1="F" u2="u"/>
<hkern k="26" u1="F" u2="r"/>
<hkern k="21" u1="F" u2="q"/>
<hkern k="21" u1="F" u2="o"/>
<hkern k="21" u1="F" u2="g"/>
<hkern k="21" u1="F" u2="e"/>
<hkern k="21" u1="F" u2="d"/>
<hkern k="21" u1="F" u2="c"/>
<hkern k="34" u1="F" u2="a"/>
<hkern k="-20" u1="F" u2="T"/>
<hkern k="264" u1="F" u2="J"/>
<hkern k="170" u1="F" u2="A"/>
<hkern k="234" u1="F" u2="."/>
<hkern k="234" u1="F" u2=","/>
<hkern k="-21" u1="H" u2="д"/>
<hkern k="-21" u1="H" u2="Д"/>
<hkern k="-21" u1="I" u2="д"/>
<hkern k="-21" u1="I" u2="Д"/>
<hkern k="71" u1="K" u2="т"/>
<hkern k="41" u1="K" u2="б"/>
<hkern k="63" u1="K" u2="w"/>
<hkern k="92" u1="L" u2="w"/>
<hkern k="-21" u1="M" u2="д"/>
<hkern k="-21" u1="M" u2="Д"/>
<hkern k="-21" u1="N" u2="д"/>
<hkern k="-21" u1="N" u2="Д"/>
<hkern k="32" u1="O" u2="Ь"/>
<hkern k="33" u1="O" u2="Д"/>
<hkern k="54" u1="P" u2="д"/>
<hkern k="88" u1="P" u2="Д"/>
<hkern k="-14" u1="P" u2="t"/>
<hkern k="43" u1="Q" u2="Т"/>
<hkern k="35" u1="Q" u2="Y"/>
<hkern k="20" u1="Q" u2="W"/>
<hkern k="28" u1="Q" u2="V"/>
<hkern k="43" u1="Q" u2="T"/>
<hkern k="80" u1="R" u2="Т"/>
<hkern k="48" u1="R" u2="Y"/>
<hkern k="19" u1="R" u2="V"/>
<hkern k="80" u1="R" u2="T"/>
<hkern k="135" u1="T" u2="я"/>
<hkern k="128" u1="T" u2="э"/>
<hkern k="131" u1="T" u2="ы"/>
<hkern k="78" u1="T" u2="т"/>
<hkern k="128" u1="T" u2="з"/>
<hkern k="140" u1="T" u2="д"/>
<hkern k="96" u1="T" u2="в"/>
<hkern k="28" u1="T" u2="б"/>
<hkern k="-15" u1="T" u2="Ь"/>
<hkern k="91" u1="T" u2="Д"/>
<hkern k="216" u1="T" u2="»"/>
<hkern k="328" u1="T" u2="«"/>
<hkern k="57" u1="T" u2="w"/>
<hkern k="75" u1="T" u2="r"/>
<hkern k="40" u1="T" u2=" "/>
<hkern k="-19" u1="V" u2="}"/>
<hkern k="30" u1="V" u2="r"/>
<hkern k="-17" u1="V" u2="]"/>
<hkern k="-20" u1="V" u2=")"/>
<hkern k="-14" u1="W" u2="}"/>
<hkern k="21" u1="W" u2="r"/>
<hkern k="-12" u1="W" u2="]"/>
<hkern k="-15" u1="W" u2=")"/>
<hkern k="41" u1="X" u2="т"/>
<hkern k="23" u1="X" u2="б"/>
<hkern k="-18" u1="X" u2="Д"/>
<hkern k="51" u1="Y" u2="»"/>
<hkern k="82" u1="Y" u2="«"/>
<hkern k="-19" u1="Y" u2="}"/>
<hkern k="22" u1="Y" u2="t"/>
<hkern k="40" u1="Y" u2="r"/>
<hkern k="22" u1="Y" u2="f"/>
<hkern k="-18" u1="Y" u2="]"/>
<hkern k="49" u1="Y" u2="*"/>
<hkern k="-20" u1="Y" u2=")"/>
<hkern k="30" u1="Y" u2="&amp;"/>
<hkern k="27" u1="Z" u2="w"/>
<hkern k="18" u1="[" u2="U"/>
<hkern k="18" u1="[" u2="J"/>
<hkern k="16" u1="a" u2="т"/>
<hkern k="80" u1="b" u2="т"/>
<hkern k="18" u1="b" u2="д"/>
<hkern k="11" u1="e" u2="т"/>
<hkern k="-16" u1="f" u2="”"/>
<hkern k="-16" u1="f" u2="“"/>
<hkern k="-16" u1="f" u2="‘"/>
<hkern k="24" u1="f" u2="ё"/>
<hkern k="24" u1="f" u2="ф"/>
<hkern k="24" u1="f" u2="с"/>
<hkern k="24" u1="f" u2="е"/>
<hkern k="-19" u1="f" u2="}"/>
<hkern k="24" u1="f" u2="q"/>
<hkern k="24" u1="f" u2="g"/>
<hkern k="24" u1="f" u2="e"/>
<hkern k="24" u1="f" u2="d"/>
<hkern k="24" u1="f" u2="c"/>
<hkern k="-18" u1="f" u2="]"/>
<hkern k="-20" u1="f" u2=")"/>
<hkern k="-16" u1="f" u2="&apos;"/>
<hkern k="-16" u1="f" u2='&quot;'/>
<hkern k="64" u1="h" u2="т"/>
<hkern k="20" u1="k" u2="ё"/>
<hkern k="20" u1="k" u2="ф"/>
<hkern k="20" u1="k" u2="с"/>
<hkern k="20" u1="k" u2="е"/>
<hkern k="20" u1="k" u2="q"/>
<hkern k="20" u1="k" u2="g"/>
<hkern k="20" u1="k" u2="e"/>
<hkern k="20" u1="k" u2="d"/>
<hkern k="20" u1="k" u2="c"/>
<hkern k="64" u1="m" u2="т"/>
<hkern k="64" u1="n" u2="т"/>
<hkern k="22" u1="o" u2="т"/>
<hkern k="72" u1="o" u2="д"/>
<hkern k="80" u1="p" u2="т"/>
<hkern k="18" u1="p" u2="д"/>
<hkern k="-17" u1="r" u2="w"/>
<hkern k="-50" u1="r" u2="t"/>
<hkern k="-15" u1="r" u2="f"/>
<hkern k="20" u1="t" u2="о"/>
<hkern k="20" u1="t" u2="o"/>
<hkern k="56" u1="v" u2="д"/>
<hkern k="-13" u1="v" u2="f"/>
<hkern k="124" u1="w" u2="…"/>
<hkern k="124" u1="w" u2="‚"/>
<hkern k="124" u1="w" u2="."/>
<hkern k="124" u1="w" u2=","/>
<hkern k="56" u1="y" u2="д"/>
<hkern k="-13" u1="y" u2="f"/>
<hkern k="20" u1="{" u2="U"/>
<hkern k="20" u1="{" u2="J"/>
<hkern k="22" u1="Ё" u2="w"/>
<hkern k="18" u1="Ё" u2="f"/>
<hkern k="54" u1="А" u2="т"/>
<hkern k="59" u1="А" u2="Ь"/>
<hkern k="-19" u1="А" u2="Д"/>
<hkern k="33" u1="А" u2="w"/>
<hkern k="17" u1="А" u2="t"/>
<hkern k="61" u1="А" u2="?"/>
<hkern k="15" u1="Б" u2="х"/>
<hkern k="48" u1="Б" u2="т"/>
<hkern k="15" u1="Б" u2="ж"/>
<hkern k="26" u1="Б" u2="Ь"/>
<hkern k="24" u1="Б" u2="Ч"/>
<hkern k="14" u1="Б" u2="Х"/>
<hkern k="18" u1="Б" u2="У"/>
<hkern k="26" u1="Б" u2="Т"/>
<hkern k="14" u1="Б" u2="Ж"/>
<hkern k="15" u1="Б" u2="x"/>
<hkern k="25" u1="Б" u2="Y"/>
<hkern k="14" u1="Б" u2="X"/>
<hkern k="25" u1="Б" u2="V"/>
<hkern k="26" u1="Б" u2="T"/>
<hkern k="249" u1="Г" u2="я"/>
<hkern k="237" u1="Г" u2="э"/>
<hkern k="242" u1="Г" u2="ы"/>
<hkern k="152" u1="Г" u2="т"/>
<hkern k="237" u1="Г" u2="з"/>
<hkern k="258" u1="Г" u2="д"/>
<hkern k="183" u1="Г" u2="в"/>
<hkern k="67" u1="Г" u2="б"/>
<hkern k="-5" u1="Г" u2="Ь"/>
<hkern k="174" u1="Г" u2="Д"/>
<hkern k="387" u1="Г" u2="»"/>
<hkern k="577" u1="Г" u2="«"/>
<hkern k="116" u1="Г" u2="w"/>
<hkern k="147" u1="Г" u2="r"/>
<hkern k="32" u1="Д" u2="ч"/>
<hkern k="-16" u1="Д" u2="л"/>
<hkern k="-19" u1="Д" u2="д"/>
<hkern k="32" u1="Д" u2="Ь"/>
<hkern k="31" u1="Д" u2="Ч"/>
<hkern k="32" u1="Д" u2="Т"/>
<hkern k="24" u1="Д" u2="С"/>
<hkern k="24" u1="Д" u2="О"/>
<hkern k="-16" u1="Д" u2="Л"/>
<hkern k="-20" u1="Д" u2="Д"/>
<hkern k="-16" u1="Д" u2="А"/>
<hkern k="33" u1="Д" u2="Y"/>
<hkern k="32" u1="Д" u2="V"/>
<hkern k="32" u1="Д" u2="T"/>
<hkern k="24" u1="Д" u2="Q"/>
<hkern k="24" u1="Д" u2="O"/>
<hkern k="24" u1="Д" u2="G"/>
<hkern k="24" u1="Д" u2="C"/>
<hkern k="-16" u1="Д" u2="A"/>
<hkern k="22" u1="Е" u2="w"/>
<hkern k="18" u1="Е" u2="f"/>
<hkern k="41" u1="Ж" u2="т"/>
<hkern k="23" u1="Ж" u2="б"/>
<hkern k="-18" u1="Ж" u2="Д"/>
<hkern k="15" u1="З" u2="Ь"/>
<hkern k="12" u1="З" u2="Х"/>
<hkern k="13" u1="З" u2="У"/>
<hkern k="15" u1="З" u2="Т"/>
<hkern k="11" u1="З" u2="Л"/>
<hkern k="12" u1="З" u2="Ж"/>
<hkern k="16" u1="З" u2="Y"/>
<hkern k="12" u1="З" u2="X"/>
<hkern k="12" u1="З" u2="V"/>
<hkern k="15" u1="З" u2="T"/>
<hkern k="14" u1="З" u2="7"/>
<hkern k="-21" u1="И" u2="д"/>
<hkern k="-21" u1="И" u2="Д"/>
<hkern k="71" u1="К" u2="т"/>
<hkern k="41" u1="К" u2="б"/>
<hkern k="63" u1="К" u2="w"/>
<hkern k="-21" u1="Л" u2="д"/>
<hkern k="-21" u1="Л" u2="Д"/>
<hkern k="-21" u1="М" u2="д"/>
<hkern k="-21" u1="М" u2="Д"/>
<hkern k="-21" u1="Н" u2="д"/>
<hkern k="-21" u1="Н" u2="Д"/>
<hkern k="32" u1="О" u2="Ь"/>
<hkern k="33" u1="О" u2="Д"/>
<hkern k="54" u1="Р" u2="д"/>
<hkern k="88" u1="Р" u2="Д"/>
<hkern k="-14" u1="Р" u2="t"/>
<hkern k="17" u1="С" u2="}"/>
<hkern k="12" u1="С" u2="]"/>
<hkern k="26" u1="С" u2=")"/>
<hkern k="135" u1="Т" u2="я"/>
<hkern k="128" u1="Т" u2="э"/>
<hkern k="131" u1="Т" u2="ы"/>
<hkern k="78" u1="Т" u2="т"/>
<hkern k="128" u1="Т" u2="з"/>
<hkern k="140" u1="Т" u2="д"/>
<hkern k="96" u1="Т" u2="в"/>
<hkern k="28" u1="Т" u2="б"/>
<hkern k="-15" u1="Т" u2="Ь"/>
<hkern k="91" u1="Т" u2="Д"/>
<hkern k="216" u1="Т" u2="»"/>
<hkern k="328" u1="Т" u2="«"/>
<hkern k="57" u1="Т" u2="w"/>
<hkern k="75" u1="Т" u2="r"/>
<hkern k="40" u1="Т" u2=" "/>
<hkern k="46" u1="У" u2="я"/>
<hkern k="33" u1="У" u2="ы"/>
<hkern k="42" u1="У" u2="з"/>
<hkern k="83" u1="У" u2="д"/>
<hkern k="32" u1="У" u2="в"/>
<hkern k="-18" u1="У" u2="Ь"/>
<hkern k="82" u1="У" u2="Д"/>
<hkern k="41" u1="Х" u2="т"/>
<hkern k="23" u1="Х" u2="б"/>
<hkern k="-18" u1="Х" u2="Д"/>
<hkern k="-21" u1="Ц" u2="д"/>
<hkern k="-21" u1="Ц" u2="Д"/>
<hkern k="-21" u1="Ш" u2="д"/>
<hkern k="-21" u1="Ш" u2="Д"/>
<hkern k="24" u1="Щ" u2="ч"/>
<hkern k="25" u1="Щ" u2="т"/>
<hkern k="-15" u1="Щ" u2="л"/>
<hkern k="-18" u1="Щ" u2="д"/>
<hkern k="12" u1="Щ" u2="Э"/>
<hkern k="26" u1="Щ" u2="Ь"/>
<hkern k="27" u1="Щ" u2="Ч"/>
<hkern k="-14" u1="Щ" u2="Х"/>
<hkern k="-11" u1="Щ" u2="У"/>
<hkern k="26" u1="Щ" u2="Т"/>
<hkern k="-14" u1="Щ" u2="Л"/>
<hkern k="-14" u1="Щ" u2="Ж"/>
<hkern k="-19" u1="Щ" u2="Д"/>
<hkern k="-15" u1="Щ" u2="А"/>
<hkern k="26" u1="Щ" u2="Y"/>
<hkern k="-14" u1="Щ" u2="X"/>
<hkern k="26" u1="Щ" u2="V"/>
<hkern k="26" u1="Щ" u2="T"/>
<hkern k="-15" u1="Щ" u2="A"/>
<hkern k="49" u1="Ъ" u2="т"/>
<hkern k="61" u1="Ъ" u2="Ь"/>
<hkern k="49" u1="Ь" u2="т"/>
<hkern k="61" u1="Ь" u2="Ь"/>
<hkern k="22" u1="Э" u2="л"/>
<hkern k="27" u1="Э" u2="Х"/>
<hkern k="23" u1="Э" u2="У"/>
<hkern k="29" u1="Э" u2="Т"/>
<hkern k="27" u1="Э" u2="Л"/>
<hkern k="27" u1="Э" u2="Ж"/>
<hkern k="30" u1="Э" u2="Д"/>
<hkern k="28" u1="Э" u2="Y"/>
<hkern k="27" u1="Э" u2="X"/>
<hkern k="29" u1="Э" u2="T"/>
<hkern k="21" u1="Ю" u2="л"/>
<hkern k="28" u1="Ю" u2="д"/>
<hkern k="28" u1="Ю" u2="Х"/>
<hkern k="23" u1="Ю" u2="У"/>
<hkern k="30" u1="Ю" u2="Т"/>
<hkern k="28" u1="Ю" u2="Л"/>
<hkern k="28" u1="Ю" u2="Ж"/>
<hkern k="31" u1="Ю" u2="Д"/>
<hkern k="28" u1="Ю" u2="X"/>
<hkern k="30" u1="Ю" u2="T"/>
<hkern k="21" u1="Я" u2="Т"/>
<hkern k="13" u1="Я" u2="Y"/>
<hkern k="21" u1="Я" u2="T"/>
<hkern k="16" u1="а" u2="т"/>
<hkern k="17" u1="б" u2="ю"/>
<hkern k="17" u1="б" u2="ь"/>
<hkern k="17" u1="б" u2="щ"/>
<hkern k="17" u1="б" u2="ш"/>
<hkern k="17" u1="б" u2="ц"/>
<hkern k="16" u1="б" u2="х"/>
<hkern k="18" u1="б" u2="т"/>
<hkern k="17" u1="б" u2="р"/>
<hkern k="17" u1="б" u2="п"/>
<hkern k="17" u1="б" u2="н"/>
<hkern k="17" u1="б" u2="м"/>
<hkern k="17" u1="б" u2="к"/>
<hkern k="17" u1="б" u2="й"/>
<hkern k="17" u1="б" u2="и"/>
<hkern k="16" u1="б" u2="ж"/>
<hkern k="18" u1="б" u2="д"/>
<hkern k="17" u1="б" u2="г"/>
<hkern k="16" u1="б" u2="x"/>
<hkern k="17" u1="б" u2="p"/>
<hkern k="17" u1="б" u2="n"/>
<hkern k="17" u1="б" u2="m"/>
<hkern k="14" u1="в" u2="”"/>
<hkern k="14" u1="в" u2="“"/>
<hkern k="14" u1="в" u2="‘"/>
<hkern k="11" u1="в" u2="у"/>
<hkern k="12" u1="в" u2="т"/>
<hkern k="11" u1="в" u2="y"/>
<hkern k="11" u1="в" u2="v"/>
<hkern k="14" u1="в" u2="&apos;"/>
<hkern k="14" u1="в" u2='&quot;'/>
<hkern k="55" u1="г" u2="д"/>
<hkern k="30" u1="д" u2="ъ"/>
<hkern k="19" u1="д" u2="ч"/>
<hkern k="19" u1="д" u2="т"/>
<hkern k="-20" u1="д" u2="д"/>
<hkern k="11" u1="е" u2="т"/>
<hkern k="11" u1="з" u2="”"/>
<hkern k="11" u1="з" u2="“"/>
<hkern k="11" u1="з" u2="‘"/>
<hkern k="11" u1="з" u2="&apos;"/>
<hkern k="11" u1="з" u2='&quot;'/>
<hkern k="16" u1="к" u2="ё"/>
<hkern k="16" u1="к" u2="ф"/>
<hkern k="16" u1="к" u2="с"/>
<hkern k="21" u1="к" u2="о"/>
<hkern k="16" u1="к" u2="е"/>
<hkern k="16" u1="к" u2="q"/>
<hkern k="21" u1="к" u2="o"/>
<hkern k="16" u1="к" u2="g"/>
<hkern k="16" u1="к" u2="e"/>
<hkern k="16" u1="к" u2="d"/>
<hkern k="16" u1="к" u2="c"/>
<hkern k="22" u1="о" u2="т"/>
<hkern k="72" u1="о" u2="д"/>
<hkern k="80" u1="р" u2="т"/>
<hkern k="18" u1="р" u2="д"/>
<hkern k="-13" u1="т" u2="”"/>
<hkern k="-13" u1="т" u2="“"/>
<hkern k="-13" u1="т" u2="‘"/>
<hkern k="80" u1="т" u2="ё"/>
<hkern k="80" u1="т" u2="ф"/>
<hkern k="-11" u1="т" u2="у"/>
<hkern k="80" u1="т" u2="с"/>
<hkern k="42" u1="т" u2="о"/>
<hkern k="81" u1="т" u2="л"/>
<hkern k="80" u1="т" u2="е"/>
<hkern k="86" u1="т" u2="д"/>
<hkern k="16" u1="т" u2="а"/>
<hkern k="-11" u1="т" u2="y"/>
<hkern k="-11" u1="т" u2="v"/>
<hkern k="80" u1="т" u2="q"/>
<hkern k="42" u1="т" u2="o"/>
<hkern k="80" u1="т" u2="g"/>
<hkern k="-13" u1="т" u2="f"/>
<hkern k="80" u1="т" u2="e"/>
<hkern k="80" u1="т" u2="d"/>
<hkern k="80" u1="т" u2="c"/>
<hkern k="16" u1="т" u2="a"/>
<hkern k="-13" u1="т" u2="&apos;"/>
<hkern k="-13" u1="т" u2='&quot;'/>
<hkern k="56" u1="у" u2="д"/>
<hkern k="-13" u1="у" u2="f"/>
<hkern k="80" u1="ф" u2="т"/>
<hkern k="18" u1="ф" u2="д"/>
<hkern k="-12" u1="ц" u2="я"/>
<hkern k="16" u1="ц" u2="ч"/>
<hkern k="16" u1="ц" u2="т"/>
<hkern k="-16" u1="ц" u2="л"/>
<hkern k="-20" u1="ц" u2="д"/>
<hkern k="-12" u1="щ" u2="ё"/>
<hkern k="9" u1="щ" u2="ч"/>
<hkern k="-12" u1="щ" u2="ф"/>
<hkern k="29" u1="щ" u2="т"/>
<hkern k="-12" u1="щ" u2="с"/>
<hkern k="-24" u1="щ" u2="л"/>
<hkern k="-12" u1="щ" u2="е"/>
<hkern k="-58" u1="щ" u2="д"/>
<hkern k="-12" u1="щ" u2="q"/>
<hkern k="-12" u1="щ" u2="g"/>
<hkern k="-12" u1="щ" u2="e"/>
<hkern k="-12" u1="щ" u2="d"/>
<hkern k="-12" u1="щ" u2="c"/>
<hkern k="70" u1="ъ" u2="т"/>
<hkern k="70" u1="ь" u2="т"/>
<hkern k="80" u1="э" u2="т"/>
<hkern k="18" u1="э" u2="д"/>
<hkern k="16" u1="ю" u2="х"/>
<hkern k="12" u1="ю" u2="у"/>
<hkern k="13" u1="ю" u2="л"/>
<hkern k="16" u1="ю" u2="ж"/>
<hkern k="17" u1="ю" u2="д"/>
<hkern k="12" u1="ю" u2="y"/>
<hkern k="16" u1="ю" u2="x"/>
<hkern k="12" u1="ю" u2="v"/>
<hkern k="11" u1="ё" u2="т"/>
<hkern k="-11" u1="‘" u2="w"/>
<hkern k="-11" u1="“" u2="w"/>
<hkern k="-11" u1="”" u2="w"/>
<hkern k="170" g2="quotedbl,quotesingle,quoteleft,quotedblleft,quotedblright" g1="comma,period,quotesinglbase,ellipsis"/>
<hkern k="120" g2="quotedbl,quotesingle,quoteleft,quotedblleft,quotedblright" g1="A,uni0410"/>
<hkern k="12" g2="o,uni043E" g1="A,uni0410"/>
<hkern k="11" g2="C,G,O,Q,uni041E,uni0421" g1="A,uni0410"/>
<hkern k="129" g2="T,uni0422" g1="A,uni0410"/>
<hkern k="17" g2="U" g1="A,uni0410"/>
<hkern k="87" g2="V" g1="A,uni0410"/>
<hkern k="69" g2="W" g1="A,uni0410"/>
<hkern k="94" g2="Y" g1="A,uni0410"/>
<hkern k="11" g2="u" g1="A,uni0410"/>
<hkern k="50" g2="v,y,uni0443" g1="A,uni0410"/>
<hkern k="-12" g2="z" g1="A,uni0410"/>
<hkern k="-17" g2="uni041B" g1="A,uni0410"/>
<hkern k="55" g2="uni0427" g1="A,uni0410"/>
<hkern k="-18" g2="uni043B" g1="A,uni0410"/>
<hkern k="113" g2="uni0447" g1="A,uni0410"/>
<hkern k="27" g2="T,uni0422" g1="B,uni0412"/>
<hkern k="24" g2="V" g1="B,uni0412"/>
<hkern k="55" g2="Y" g1="B,uni0412"/>
<hkern k="13" g2="uni0423" g1="B,uni0412"/>
<hkern k="29" g2="T,uni0422" g1="C,uni0421"/>
<hkern k="21" g2="A,uni0410" g1="D,O,uni041E"/>
<hkern k="27" g2="T,uni0422" g1="D,O,uni041E"/>
<hkern k="22" g2="V" g1="D,O,uni041E"/>
<hkern k="43" g2="Y" g1="D,O,uni041E"/>
<hkern k="31" g2="uni041B" g1="D,O,uni041E"/>
<hkern k="102" g2="comma,period,quotesinglbase,ellipsis" g1="D,O,uni041E"/>
<hkern k="22" g2="X,uni0416,uni0425" g1="D,O,uni041E"/>
<hkern k="23" g2="Z" g1="D,O,uni041E"/>
<hkern k="19" g2="c,d,e,g,q,uni0435,uni0441,uni0444,uni0451" g1="E,uni0401,uni0415"/>
<hkern k="19" g2="o,uni043E" g1="E,uni0401,uni0415"/>
<hkern k="-20" g2="T,uni0422" g1="E,uni0401,uni0415"/>
<hkern k="17" g2="u" g1="E,uni0401,uni0415"/>
<hkern k="26" g2="v,y,uni0443" g1="E,uni0401,uni0415"/>
<hkern k="-18" g2="A,uni0410" g1="H,I,M,N,uni0418,uni041B,uni041C,uni041D,uni0426,uni0428"/>
<hkern k="29" g2="T,uni0422" g1="H,I,M,N,uni0418,uni041B,uni041C,uni041D,uni0426,uni0428"/>
<hkern k="28" g2="Y" g1="H,I,M,N,uni0418,uni041B,uni041C,uni041D,uni0426,uni0428"/>
<hkern k="-17" g2="uni041B" g1="H,I,M,N,uni0418,uni041B,uni041C,uni041D,uni0426,uni0428"/>
<hkern k="28" g2="uni0427" g1="H,I,M,N,uni0418,uni041B,uni041C,uni041D,uni0426,uni0428"/>
<hkern k="-17" g2="uni043B" g1="H,I,M,N,uni0418,uni041B,uni041C,uni041D,uni0426,uni0428"/>
<hkern k="27" g2="uni0447" g1="H,I,M,N,uni0418,uni041B,uni041C,uni041D,uni0426,uni0428"/>
<hkern k="-17" g2="X,uni0416,uni0425" g1="H,I,M,N,uni0418,uni041B,uni041C,uni041D,uni0426,uni0428"/>
<hkern k="22" g2="A,uni0410" g1="J,U"/>
<hkern k="26" g2="c,d,e,g,q,uni0435,uni0441,uni0444,uni0451" g1="K,uni041A"/>
<hkern k="23" g2="m,n,p,uni0433,uni0438,uni0439,uni043A,uni043C,uni043D,uni043F,uni0440,uni0446,uni0448,uni0449,uni044C,uni044E" g1="K,uni041A"/>
<hkern k="27" g2="o,uni043E" g1="K,uni041A"/>
<hkern k="31" g2="C,G,O,Q,uni041E,uni0421" g1="K,uni041A"/>
<hkern k="23" g2="u" g1="K,uni041A"/>
<hkern k="40" g2="v,y,uni0443" g1="K,uni041A"/>
<hkern k="93" g2="uni0447" g1="K,uni041A"/>
<hkern k="64" g2="hyphen,endash,emdash" g1="K,uni041A"/>
<hkern k="336" g2="quotedbl,quotesingle,quoteleft,quotedblleft,quotedblright" g1="L"/>
<hkern k="-19" g2="A,uni0410" g1="L"/>
<hkern k="65" g2="C,G,O,Q,uni041E,uni0421" g1="L"/>
<hkern k="275" g2="T,uni0422" g1="L"/>
<hkern k="54" g2="U" g1="L"/>
<hkern k="175" g2="V" g1="L"/>
<hkern k="143" g2="W" g1="L"/>
<hkern k="239" g2="Y" g1="L"/>
<hkern k="44" g2="u" g1="L"/>
<hkern k="133" g2="v,y,uni0443" g1="L"/>
<hkern k="138" g2="A,uni0410" g1="P,uni0420"/>
<hkern k="11" g2="a,uni0430" g1="P,uni0420"/>
<hkern k="13" g2="c,d,e,g,q,uni0435,uni0441,uni0444,uni0451" g1="P,uni0420"/>
<hkern k="13" g2="o,uni043E" g1="P,uni0420"/>
<hkern k="-15" g2="v,y,uni0443" g1="P,uni0420"/>
<hkern k="55" g2="uni041B" g1="P,uni0420"/>
<hkern k="39" g2="uni043B" g1="P,uni0420"/>
<hkern k="324" g2="comma,period,quotesinglbase,ellipsis" g1="P,uni0420"/>
<hkern k="31" g2="X,uni0416,uni0425" g1="P,uni0420"/>
<hkern k="26" g2="Z" g1="P,uni0420"/>
<hkern k="200" g2="J" g1="P,uni0420"/>
<hkern k="79" g2="A,uni0410" g1="T,uni0422"/>
<hkern k="113" g2="a,uni0430" g1="T,uni0422"/>
<hkern k="99" g2="c,d,e,g,q,uni0435,uni0441,uni0444,uni0451" g1="T,uni0422"/>
<hkern k="109" g2="m,n,p,uni0433,uni0438,uni0439,uni043A,uni043C,uni043D,uni043F,uni0440,uni0446,uni0448,uni0449,uni044C,uni044E" g1="T,uni0422"/>
<hkern k="99" g2="o,uni043E" g1="T,uni0422"/>
<hkern k="116" g2="s" g1="T,uni0422"/>
<hkern k="28" g2="C,G,O,Q,uni041E,uni0421" g1="T,uni0422"/>
<hkern k="-16" g2="T,uni0422" g1="T,uni0422"/>
<hkern k="-16" g2="V" g1="T,uni0422"/>
<hkern k="-15" g2="W" g1="T,uni0422"/>
<hkern k="-16" g2="Y" g1="T,uni0422"/>
<hkern k="95" g2="u" g1="T,uni0422"/>
<hkern k="72" g2="v,y,uni0443" g1="T,uni0422"/>
<hkern k="60" g2="z" g1="T,uni0422"/>
<hkern k="53" g2="uni041B" g1="T,uni0422"/>
<hkern k="130" g2="uni043B" g1="T,uni0422"/>
<hkern k="132" g2="uni0447" g1="T,uni0422"/>
<hkern k="218" g2="comma,period,quotesinglbase,ellipsis" g1="T,uni0422"/>
<hkern k="232" g2="hyphen,endash,emdash" g1="T,uni0422"/>
<hkern k="240" g2="J" g1="T,uni0422"/>
<hkern k="16" g2="S" g1="T,uni0422"/>
<hkern k="77" g2="x,uni0436,uni0445" g1="T,uni0422"/>
<hkern k="75" g2="A,uni0410" g1="V"/>
<hkern k="46" g2="a,uni0430" g1="V"/>
<hkern k="44" g2="c,d,e,g,q,uni0435,uni0441,uni0444,uni0451" g1="V"/>
<hkern k="46" g2="o,uni043E" g1="V"/>
<hkern k="13" g2="C,G,O,Q,uni041E,uni0421" g1="V"/>
<hkern k="28" g2="u" g1="V"/>
<hkern k="11" g2="v,y,uni0443" g1="V"/>
<hkern k="225" g2="comma,period,quotesinglbase,ellipsis" g1="V"/>
<hkern k="37" g2="hyphen,endash,emdash" g1="V"/>
<hkern k="43" g2="A,uni0410" g1="W"/>
<hkern k="33" g2="a,uni0430" g1="W"/>
<hkern k="31" g2="c,d,e,g,q,uni0435,uni0441,uni0444,uni0451" g1="W"/>
<hkern k="31" g2="o,uni043E" g1="W"/>
<hkern k="-14" g2="T,uni0422" g1="W"/>
<hkern k="19" g2="u" g1="W"/>
<hkern k="123" g2="comma,period,quotesinglbase,ellipsis" g1="W"/>
<hkern k="60" g2="hyphen,endash,emdash" g1="W"/>
<hkern k="26" g2="c,d,e,g,q,uni0435,uni0441,uni0444,uni0451" g1="X,uni0416,uni0425"/>
<hkern k="21" g2="o,uni043E" g1="X,uni0416,uni0425"/>
<hkern k="25" g2="C,G,O,Q,uni041E,uni0421" g1="X,uni0416,uni0425"/>
<hkern k="-14" g2="V" g1="X,uni0416,uni0425"/>
<hkern k="21" g2="u" g1="X,uni0416,uni0425"/>
<hkern k="31" g2="v,y,uni0443" g1="X,uni0416,uni0425"/>
<hkern k="-17" g2="uni041B" g1="X,uni0416,uni0425"/>
<hkern k="-17" g2="uni043B" g1="X,uni0416,uni0425"/>
<hkern k="47" g2="uni0447" g1="X,uni0416,uni0425"/>
<hkern k="46" g2="hyphen,endash,emdash" g1="X,uni0416,uni0425"/>
<hkern k="94" g2="A,uni0410" g1="Y"/>
<hkern k="73" g2="a,uni0430" g1="Y"/>
<hkern k="65" g2="c,d,e,g,q,uni0435,uni0441,uni0444,uni0451" g1="Y"/>
<hkern k="40" g2="m,n,p,uni0433,uni0438,uni0439,uni043A,uni043C,uni043D,uni043F,uni0440,uni0446,uni0448,uni0449,uni044C,uni044E" g1="Y"/>
<hkern k="65" g2="o,uni043E" g1="Y"/>
<hkern k="58" g2="s" g1="Y"/>
<hkern k="29" g2="C,G,O,Q,uni041E,uni0421" g1="Y"/>
<hkern k="-17" g2="T,uni0422" g1="Y"/>
<hkern k="96" g2="U" g1="Y"/>
<hkern k="-18" g2="V" g1="Y"/>
<hkern k="-17" g2="W" g1="Y"/>
<hkern k="-18" g2="Y" g1="Y"/>
<hkern k="39" g2="u" g1="Y"/>
<hkern k="20" g2="v,y,uni0443" g1="Y"/>
<hkern k="30" g2="z" g1="Y"/>
<hkern k="211" g2="comma,period,quotesinglbase,ellipsis" g1="Y"/>
<hkern k="-13" g2="X,uni0416,uni0425" g1="Y"/>
<hkern k="52" g2="hyphen,endash,emdash" g1="Y"/>
<hkern k="96" g2="J" g1="Y"/>
<hkern k="16" g2="S" g1="Y"/>
<hkern k="23" g2="x,uni0436,uni0445" g1="Y"/>
<hkern k="-13" g2="A,uni0410" g1="Z"/>
<hkern k="21" g2="c,d,e,g,q,uni0435,uni0441,uni0444,uni0451" g1="Z"/>
<hkern k="21" g2="o,uni043E" g1="Z"/>
<hkern k="26" g2="C,G,O,Q,uni041E,uni0421" g1="Z"/>
<hkern k="19" g2="u" g1="Z"/>
<hkern k="27" g2="v,y,uni0443" g1="Z"/>
<hkern k="67" g2="quotedbl,quotesingle,quoteleft,quotedblleft,quotedblright" g1="a,uni0430"/>
<hkern k="15" g2="v,y,uni0443" g1="a,uni0430"/>
<hkern k="29" g2="quotedbl,quotesingle,quoteleft,quotedblleft,quotedblright" g1="b,p,uni0440,uni0444,uni044D"/>
<hkern k="11" g2="v,y,uni0443" g1="b,p,uni0440,uni0444,uni044D"/>
<hkern k="15" g2="z" g1="b,p,uni0440,uni0444,uni044D"/>
<hkern k="14" g2="uni043B" g1="b,p,uni0440,uni0444,uni044D"/>
<hkern k="15" g2="x,uni0436,uni0445" g1="b,p,uni0440,uni0444,uni044D"/>
<hkern k="11" g2="quotedbl,quotesingle,quoteleft,quotedblleft,quotedblright" g1="c,uni0441"/>
<hkern k="14" g2="quotedbl,quotesingle,quoteleft,quotedblleft,quotedblright" g1="e,uni0435,uni0451"/>
<hkern k="13" g2="v,y,uni0443" g1="e,uni0435,uni0451"/>
<hkern k="104" g2="quotedbl,quotesingle,quoteleft,quotedblleft,quotedblright" g1="h,m,n"/>
<hkern k="136" g2="quotedbl,quotesingle,quoteleft,quotedblleft,quotedblright" g1="o,uni043E"/>
<hkern k="15" g2="v,y,uni0443" g1="o,uni043E"/>
<hkern k="16" g2="z" g1="o,uni043E"/>
<hkern k="16" g2="uni043B" g1="o,uni043E"/>
<hkern k="21" g2="x,uni0436,uni0445" g1="o,uni043E"/>
<hkern k="-16" g2="quotedbl,quotesingle,quoteleft,quotedblleft,quotedblright" g1="r"/>
<hkern k="40" g2="a,uni0430" g1="r"/>
<hkern k="19" g2="c,d,e,g,q,uni0435,uni0441,uni0444,uni0451" g1="r"/>
<hkern k="20" g2="o,uni043E" g1="r"/>
<hkern k="-18" g2="v,y,uni0443" g1="r"/>
<hkern k="123" g2="comma,period,quotesinglbase,ellipsis" g1="r"/>
<hkern k="-15" g2="quotedbl,quotesingle,quoteleft,quotedblleft,quotedblright" g1="v,y,uni0443"/>
<hkern k="15" g2="a,uni0430" g1="v,y,uni0443"/>
<hkern k="13" g2="c,d,e,g,q,uni0435,uni0441,uni0444,uni0451" g1="v,y,uni0443"/>
<hkern k="15" g2="o,uni043E" g1="v,y,uni0443"/>
<hkern k="41" g2="uni043B" g1="v,y,uni0443"/>
<hkern k="107" g2="comma,period,quotesinglbase,ellipsis" g1="v,y,uni0443"/>
<hkern k="20" g2="c,d,e,g,q,uni0435,uni0441,uni0444,uni0451" g1="x,uni0436,uni0445"/>
<hkern k="20" g2="o,uni043E" g1="x,uni0436,uni0445"/>
<hkern k="16" g2="c,d,e,g,q,uni0435,uni0441,uni0444,uni0451" g1="z"/>
<hkern k="16" g2="o,uni043E" g1="z"/>
<hkern k="194" g2="A,uni0410" g1="uni0413"/>
<hkern k="212" g2="a,uni0430" g1="uni0413"/>
<hkern k="188" g2="c,d,e,g,q,uni0435,uni0441,uni0444,uni0451" g1="uni0413"/>
<hkern k="205" g2="m,n,p,uni0433,uni0438,uni0439,uni043A,uni043C,uni043D,uni043F,uni0440,uni0446,uni0448,uni0449,uni044C,uni044E" g1="uni0413"/>
<hkern k="188" g2="o,uni043E" g1="uni0413"/>
<hkern k="217" g2="s" g1="uni0413"/>
<hkern k="67" g2="C,G,O,Q,uni041E,uni0421" g1="uni0413"/>
<hkern k="-7" g2="T,uni0422" g1="uni0413"/>
<hkern k="-7" g2="V" g1="uni0413"/>
<hkern k="-5" g2="W" g1="uni0413"/>
<hkern k="-7" g2="Y" g1="uni0413"/>
<hkern k="181" g2="u" g1="uni0413"/>
<hkern k="142" g2="v,y,uni0443" g1="uni0413"/>
<hkern k="122" g2="z" g1="uni0413"/>
<hkern k="110" g2="uni041B" g1="uni0413"/>
<hkern k="241" g2="uni043B" g1="uni0413"/>
<hkern k="244" g2="uni0447" g1="uni0413"/>
<hkern k="390" g2="comma,period,quotesinglbase,ellipsis" g1="uni0413"/>
<hkern k="414" g2="hyphen,endash,emdash" g1="uni0413"/>
<hkern k="47" g2="S" g1="uni0413"/>
<hkern k="150" g2="x,uni0436,uni0445" g1="uni0413"/>
<hkern k="64" g2="quotedbl,quotesingle,quoteleft,quotedblleft,quotedblright" g1="uni042A,uni042C"/>
<hkern k="267" g2="T,uni0422" g1="uni042A,uni042C"/>
<hkern k="56" g2="V" g1="uni042A,uni042C"/>
<hkern k="83" g2="Y" g1="uni042A,uni042C"/>
<hkern k="11" g2="uni041B" g1="uni042A,uni042C"/>
<hkern k="25" g2="uni0427" g1="uni042A,uni042C"/>
<hkern k="21" g2="uni0423" g1="uni042A,uni042C"/>
<hkern k="16" g2="X,uni0416,uni0425" g1="uni042A,uni042C"/>
<hkern k="55" g2="x,uni0436,uni0445" g1="uni042A,uni042C"/>
<hkern k="91" g2="A,uni0410" g1="uni0423"/>
<hkern k="111" g2="a,uni0430" g1="uni0423"/>
<hkern k="67" g2="c,d,e,g,q,uni0435,uni0441,uni0444,uni0451" g1="uni0423"/>
<hkern k="102" g2="m,n,p,uni0433,uni0438,uni0439,uni043A,uni043C,uni043D,uni043F,uni0440,uni0446,uni0448,uni0449,uni044C,uni044E" g1="uni0423"/>
<hkern k="67" g2="o,uni043E" g1="uni0423"/>
<hkern k="46" g2="s" g1="uni0423"/>
<hkern k="23" g2="C,G,O,Q,uni041E,uni0421" g1="uni0423"/>
<hkern k="-18" g2="T,uni0422" g1="uni0423"/>
<hkern k="-18" g2="Y" g1="uni0423"/>
<hkern k="54" g2="uni041B" g1="uni0423"/>
<hkern k="69" g2="uni043B" g1="uni0423"/>
<hkern k="23" g2="uni0447" g1="uni0423"/>
<hkern k="403" g2="comma,period,quotesinglbase,ellipsis" g1="uni0423"/>
<hkern k="119" g2="hyphen,endash,emdash" g1="uni0423"/>
<hkern k="20" g2="c,d,e,g,q,uni0435,uni0441,uni0444,uni0451" g1="uni0433"/>
<hkern k="20" g2="o,uni043E" g1="uni0433"/>
<hkern k="40" g2="uni043B" g1="uni0433"/>
<hkern k="135" g2="quotedbl,quotesingle,quoteleft,quotedblleft,quotedblright" g1="uni044A,uni044C"/>
<hkern k="35" g2="v,y,uni0443" g1="uni044A,uni044C"/>
<hkern k="39" g2="uni0447" g1="uni044A,uni044C"/>
<hkern k="11" g2="x,uni0436,uni0445" g1="uni044A,uni044C"/>
</font>
</defs>
</svg>
