<?xml version="1.0" encoding="UTF-8" standalone="no"?>
<!DOCTYPE svg  PUBLIC '-//W3C//DTD SVG 1.1//EN'  'http://www.w3.org/Graphics/SVG/1.1/DTD/svg11.dtd'>
<svg xmlns="http://www.w3.org/2000/svg">
<defs>
<font id="Roboto-Thin" horiz-adv-x="1121">
<font-face underline-position="-100" font-weight="250" descent="-410" panose-1="2 0 0 0 0 0 0 0 0 0" units-per-em="2048" unicode-range="U+000D-2260" bbox="-143 -470 1807 1810" x-height="1082" underline-thickness="100" font-family="Roboto" ascent="1638" cap-height="1456"/>
<missing-glyph horiz-adv-x="2048"/>
<glyph glyph-name=".notdef" horiz-adv-x="2048"/>
<glyph glyph-name="glyph1" horiz-adv-x="0"/>
<glyph glyph-name="glyph1" horiz-adv-x="0"/>
<glyph glyph-name="uni000D" horiz-adv-x="2048" unicode=""/>
<glyph glyph-name="space" horiz-adv-x="490" unicode=" "/>
<glyph glyph-name="exclam" horiz-adv-x="397" unicode="!" d="M167 401v1055h54v-1055h-54zM147 49q0 23 16 39.5t39 16.5t39.5 -16.5t16.5 -39.5t-16.5 -39t-39.5 -16t-39 16t-16 39z"/>
<glyph glyph-name="quotedbl" horiz-adv-x="521" unicode='&quot;' d="M351 1122l6 268v146h54v-143l-10 -271h-50zM150 1122q5 268 5 414h55v-143l-10 -271h-50z"/>
<glyph glyph-name="numbersign" d="M388 462h363l96 524h-365zM51 410v52h281l95 524h-300v54h310l75 416h56l-76 -416h365l76 416h56l-76 -416h254v-54h-264l-96 -524h285v-52h-294l-75 -410h-56l75 410h-364l-74 -410h-56l74 410h-271z" unicode="#"/>
<glyph glyph-name="dollar" d="M121 409h54q0 -177 110.5 -277t300.5 -100q157 0 259 90t102 222q0 91 -34.5 150.5t-116.5 109.5t-242.5 105.5t-236.5 108t-112.5 122.5t-36.5 170q0 163 107 261.5t279 104.5v187h55v-187q184 -10 284 -122.5t100 -306.5h-54q0 170 -96.5 273.5t-263.5 103.5 q-162 0 -259.5 -87t-97.5 -225q0 -98 32.5 -155t108 -103.5t212.5 -93.5t210 -83.5t121 -84.5t71.5 -107t23.5 -139q0 -159 -103.5 -257.5t-277.5 -108.5v-188h-55v187q-212 8 -328 120.5t-116 309.5z" unicode="$"/>
<glyph glyph-name="percent" horiz-adv-x="1527" unicode="%" d="M925 279q0 -107 59.5 -176t158.5 -69q98 0 156.5 69.5t58.5 180.5v73q0 113 -58.5 179t-158.5 66q-99 0 -157.5 -67.5t-58.5 -181.5v-74zM870 284v73q0 129 77.5 214.5t193.5 85.5q117 0 194.5 -85.5t77.5 -221.5v-71q0 -129 -77.5 -214.5t-192.5 -85.5q-116 0 -194.5 85 t-78.5 220zM377 162l711 1138l45 -31l-711 -1138zM169 1099q0 -104 59.5 -174t159.5 -70q96 0 155 69t59 180v72q0 108 -59.5 177t-156.5 69q-95 0 -156 -69t-61 -184v-70zM114 1105v71q0 129 78 215t194 86q117 0 194 -86.5t77 -219.5v-72q0 -127 -76.5 -213t-192.5 -86 q-117 0 -195.5 85t-78.5 220z"/>
<glyph glyph-name="ampersand" horiz-adv-x="1247" unicode="&amp;" d="M312 1169q0 -158 150 -335l175 139q145 121 145 240q0 92 -61.5 151t-158.5 59q-113 0 -181.5 -70.5t-68.5 -183.5zM169 352q0 -142 103.5 -230t276.5 -88q111 0 211.5 47.5t176.5 135.5l-483 547l-52 -41q-118 -102 -175.5 -191t-57.5 -180zM115 352q0 98 56.5 193.5 t199.5 216.5l51 40q-88 108 -126.5 194t-38.5 171q0 141 84.5 225.5t220.5 84.5q125 0 200.5 -73.5t75.5 -190.5q0 -136 -188 -292l-156 -124l475 -539q115 160 115 374h55q0 -237 -133 -416l190 -216h-67l-157 176q-196 -196 -423 -196q-201 0 -317.5 100.5t-116.5 271.5z "/>
<glyph glyph-name="quotesingle" horiz-adv-x="340" unicode="&apos;" d="M136 1122l9 243v171h55v-169l-14 -245h-50z"/>
<glyph glyph-name="parenleft" horiz-adv-x="607" unicode="(" d="M148 586q0 216 53 425t150.5 375t210.5 237l19 -43q-98 -65 -185 -217t-139 -352t-55 -395v-52q0 -198 50 -401.5t139 -363t190 -226.5l-19 -43q-116 73 -211.5 231.5t-149 369t-53.5 455.5z"/>
<glyph glyph-name="parenright" horiz-adv-x="623" unicode=")" d="M28 -427q104 70 193 232t137.5 362t48.5 423q0 202 -51 405.5t-139.5 361t-188.5 223.5l19 43q113 -71 210.5 -237t150.5 -375t53 -445q0 -225 -53.5 -435.5t-149 -369t-211.5 -231.5z"/>
<glyph glyph-name="asterisk" horiz-adv-x="856" unicode="*" d="M30 1141l18 54l362 -133l1 394h56l-7 -395l352 143l20 -53l-360 -137l249 -317l-47 -33l-242 322l-228 -325l-45 32l234 324z"/>
<glyph glyph-name="plus" horiz-adv-x="1151" unicode="+" d="M73 649v53h462v504h55v-504h481v-53h-481v-503h-55v503h-462z"/>
<glyph glyph-name="comma" horiz-adv-x="383" unicode="," d="M92 -223q81 104 88 215l1 167h54v-146q-4 -159 -106 -268z"/>
<glyph glyph-name="hyphen" horiz-adv-x="607" unicode="-" d="M61 639v54h470v-54h-470z"/>
<glyph glyph-name="period" horiz-adv-x="439" unicode="." d="M147 49q0 23 16 39.5t39 16.5t39.5 -16.5t16.5 -39.5t-16.5 -39t-39.5 -16t-39 16t-16 39z"/>
<glyph glyph-name="slash" horiz-adv-x="782" unicode="/" d="M42 -125l608 1581h59l-608 -1581h-59z"/>
<glyph glyph-name="zero" d="M179 596q0 -264 101 -413t282 -149q182 0 281 149t99 418v261q0 265 -99.5 413t-282.5 148q-184 0 -282.5 -148.5t-98.5 -417.5v-261zM125 598v264q0 290 114.5 452.5t320.5 162.5q207 0 321.5 -162.5t114.5 -456.5v-264q0 -293 -114 -453.5t-320 -160.5q-205 0 -321 162 t-116 456z" unicode="0"/>
<glyph glyph-name="one" d="M187 1231v59l461 170h11v-1460h-54v1388z" unicode="1"/>
<glyph glyph-name="two" d="M117 1045q0 117 54 217t150 157t215 57q194 0 302 -103t108 -288q0 -170 -191 -407l-91 -111l-440 -513h800v-54h-871v54l497 573q122 143 181.5 254t59.5 204q0 160 -93 248.5t-262 88.5q-102 0 -186 -49t-131.5 -135.5t-47.5 -192.5h-54z" unicode="2"/>
<glyph glyph-name="three" d="M103 405h54q0 -160 118 -265.5t298 -105.5q179 0 279.5 92.5t100.5 255.5q0 161 -107.5 246t-314.5 86h-114v56h122q171 3 276.5 91t105.5 224q0 155 -94.5 246t-262.5 91q-164 0 -270 -96t-106 -252h-54q0 116 56 208t155 143t219 51q189 0 300 -106.5t111 -288.5 q0 -116 -73.5 -207t-198.5 -129q143 -33 223.5 -124t80.5 -235q0 -186 -119 -296t-315 -110q-132 0 -244 57t-169 151t-57 217z" unicode="3"/>
<glyph glyph-name="four" d="M166 451h622v940l-84 -138zM82 397v30l695 1029h65v-1005h252v-54h-252v-397h-54v397h-706z" unicode="4"/>
<glyph glyph-name="five" d="M182 383h55q16 -171 112 -260t265 -89q180 0 267.5 108.5t87.5 319.5q0 182 -101.5 291t-272.5 109q-105 0 -183 -28t-140 -88l-41 16l68 694h710v-53h-661l-59 -584q52 43 137.5 70t167.5 27q196 0 313 -124t117 -328q0 -237 -106 -360.5t-304 -123.5q-187 0 -302 107 t-130 296z" unicode="5"/>
<glyph glyph-name="six" d="M182 493q0 -206 117 -333t303 -127q155 0 256 129.5t101 317.5q0 194 -100 308.5t-274 114.5q-140 0 -256.5 -80.5t-146.5 -201.5v-128zM128 481v179q0 388 183 602t529 214v-54q-306 0 -475 -181t-182 -508q58 103 168 163.5t241 60.5q192 0 306.5 -131t114.5 -346 q0 -139 -52 -254t-147 -180.5t-212 -65.5q-134 0 -242 62t-169 177t-63 262z" unicode="6"/>
<glyph glyph-name="seven" d="M77 1402v54h930v-34l-641 -1422h-55l634 1402h-868z" unicode="7"/>
<glyph glyph-name="eight" d="M195 1091q0 -142 102 -230.5t266 -88.5q162 0 265.5 89.5t103.5 229.5q0 142 -107 236.5t-264 94.5q-161 0 -263.5 -91t-102.5 -240zM154 374q0 -154 111.5 -247t299.5 -93q184 0 296 93.5t112 246.5q0 150 -115 247t-295 97q-181 0 -295 -96.5t-114 -247.5zM100 379 q0 129 82.5 228.5t225.5 137.5q-120 36 -193.5 127.5t-73.5 213.5q0 180 115.5 285t304.5 105q190 0 307.5 -107t117.5 -283q0 -122 -75.5 -213.5t-195.5 -127.5q143 -38 228 -138t85 -228q0 -185 -126.5 -292t-336.5 -107q-214 0 -339.5 107t-125.5 292z" unicode="8"/>
<glyph glyph-name="nine" d="M157 958q0 -119 47 -220.5t130 -158.5t189 -57q148 0 262 87t154 231v62q0 253 -104.5 386.5t-299.5 133.5q-107 0 -194 -63t-135.5 -171.5t-48.5 -229.5zM103 958q0 143 55 262.5t154 187.5t219 68q225 0 343 -146.5t119 -422.5v-167q0 -369 -164 -562.5t-483 -197.5 h-48l2 54h43q292 3 444 178t152 512q-53 -115 -164.5 -185.5t-251.5 -70.5q-120 0 -216 64.5t-150 177.5t-54 248z" unicode="9"/>
<glyph glyph-name="colon" horiz-adv-x="364" unicode=":" d="M125 1011q0 23 16 39.5t39 16.5t39.5 -16.5t16.5 -39.5t-16.5 -39t-39.5 -16t-39 16t-16 39zM120 49q0 23 16 39.5t39 16.5t39.5 -16.5t16.5 -39.5t-16.5 -39t-39.5 -16t-39 16t-16 39z"/>
<glyph glyph-name="semicolon" horiz-adv-x="364" unicode=";" d="M126 1011q0 23 16 39.5t39 16.5t39.5 -16.5t16.5 -39.5t-16.5 -39t-39.5 -16t-39 16t-16 39zM81 -223q81 104 88 215l1 167h54v-146q-4 -159 -106 -268z"/>
<glyph glyph-name="less" horiz-adv-x="1053" unicode="&lt;" d="M82 644v50l837 378v-58l-764 -345l764 -345v-59z"/>
<glyph glyph-name="equal" horiz-adv-x="1142" unicode="=" d="M147 843v54h834v-54h-834zM147 436v54h834v-54h-834z"/>
<glyph glyph-name="greater" horiz-adv-x="1053" unicode="&gt;" d="M114 265v59l758 344l-758 345v59l836 -378v-50z"/>
<glyph glyph-name="question" horiz-adv-x="893" unicode="?" d="M371 49q0 23 16 39.5t39 16.5t39.5 -16.5t16.5 -39.5t-16.5 -39t-39.5 -16t-39 16t-16 39zM93 1116q2 162 105 261t260 99t250 -99t93 -267q0 -115 -45 -204.5t-175 -207.5q-132 -103 -132 -298h-54q2 112 34.5 183.5t122.5 155.5t126 135t52.5 106t16.5 132 q0 145 -77 228t-212 83q-144 0 -226.5 -86t-84.5 -221h-54z"/>
<glyph glyph-name="at" horiz-adv-x="1902" unicode="@" d="M634 279q11 -116 62.5 -180.5t133.5 -64.5q125 0 206 77.5t132 232.5l43 507q-69 82 -196 82t-223.5 -100t-136.5 -276q-25 -110 -25 -206q0 -37 4 -72zM132 478q12 280 123 492t305.5 326.5t443.5 114.5q392 0 580 -219.5t188 -594.5q0 -36 -2 -74q-5 -154 -55 -283 t-131 -194.5t-184 -65.5q-100 0 -162 61t-73 169q-110 -230 -333 -230q-136 0 -195.5 111t-59.5 261q0 40 4 84q24 251 145 401.5t292 150.5q115 0 198 -66l52 -44l-49 -585q-2 -23 -2 -44q0 -92 44 -153t142 -61q134 0 216.5 129t93.5 359q2 44 2 86q0 347 -172 546 t-543 199q-224 0 -407 -112t-288 -312t-118 -452q-1 -32 -1 -63q0 -217 78.5 -404t248.5 -298t400 -111q90 0 178 21.5t152 58.5l24 -46q-64 -42 -165.5 -65.5t-192.5 -23.5q-250 0 -430 112.5t-264 311.5t-84 441q0 33 1 66z"/>
<glyph glyph-name="A" horiz-adv-x="1223" unicode="A" d="M274 489h673l-336 902zM33 0l545 1456h66l545 -1456h-59l-163 435h-713l-162 -435h-59z"/>
<glyph glyph-name="B" horiz-adv-x="1235" unicode="B" d="M254 773h349q199 0 300 76.5t101 237.5q0 310 -409 315h-341v-629zM254 54h421q185 0 290.5 91.5t105.5 253.5q0 138 -102 227.5t-273 92.5h-442v-665zM200 0v1456h383q235 0 355.5 -95.5t120.5 -277.5q0 -132 -67 -219t-189 -111q138 -18 230 -119.5t92 -232.5 q0 -186 -120.5 -293.5t-335.5 -107.5h-469z"/>
<glyph glyph-name="C" horiz-adv-x="1327" unicode="C" d="M144 612v225q0 186 65 332.5t185.5 226.5t276.5 80q228 0 363 -120t156 -344h-54q-23 201 -140 305.5t-325 104.5q-212 0 -342.5 -160t-130.5 -429v-214q0 -172 58 -304.5t166.5 -206.5t248.5 -74q209 0 326.5 103t138.5 309h54q-21 -225 -155 -345.5t-364 -120.5 q-155 0 -274.5 78.5t-185.5 223t-67 330.5z"/>
<glyph glyph-name="D" horiz-adv-x="1340" unicode="D" d="M254 54h349q153 0 278.5 74.5t196.5 208t72 296.5v187q0 163 -69.5 296t-194 208.5t-275.5 77.5h-357v-1348zM200 0v1456h403q169 0 306 -80t215 -224.5t80 -323.5v-189q0 -182 -76.5 -328t-213.5 -228t-306 -83h-408z"/>
<glyph glyph-name="E" horiz-adv-x="1166" unicode="E" d="M200 0v1456h886v-54h-832v-626h730v-54h-730v-668h832v-54h-886z"/>
<glyph glyph-name="F" horiz-adv-x="1172" unicode="F" d="M200 0v1456h902v-54h-848v-630h746v-56h-746v-716h-54z"/>
<glyph glyph-name="G" horiz-adv-x="1406" unicode="G" d="M168 608v250q0 179 69 321t194 219.5t281 77.5q217 0 353.5 -111t158.5 -303h-54q-27 174 -145 267t-313 93q-220 0 -355 -157t-135 -413v-232q0 -171 63.5 -305t179 -207.5t264.5 -73.5q146 0 271 43t172 104v424h-445v55h499v-504q-55 -76 -193 -126t-304 -50 q-162 0 -289 79t-198.5 223t-73.5 326z"/>
<glyph glyph-name="H" horiz-adv-x="1438" unicode="H" d="M200 0v1456h54v-680h930v680h54v-1456h-54v722h-930v-722h-54z"/>
<glyph glyph-name="I" horiz-adv-x="534" unicode="I" d="M240 0v1456h54v-1456h-54z"/>
<glyph glyph-name="J" horiz-adv-x="1125" unicode="J" d="M90 401h54q0 -178 91.5 -272.5t274.5 -94.5q160 0 261.5 107t104.5 291v1024h54v-1014q0 -211 -115 -336.5t-305 -125.5q-204 0 -312 109t-108 312z"/>
<glyph glyph-name="K" horiz-adv-x="1300" unicode="K" d="M200 0v1456h54v-842l240 235l604 607h78l-649 -653l699 -803h-70l-669 766l-233 -215v-551h-54z"/>
<glyph glyph-name="L" horiz-adv-x="1057" unicode="L" d="M200 0v1456h55v-1402h747v-54h-802z"/>
<glyph glyph-name="M" horiz-adv-x="1756" unicode="M" d="M200 0v1456h77l599 -1377l601 1377h79v-1456h-54v1376l-604 -1376h-43l-601 1369v-1369h-54z"/>
<glyph glyph-name="N" horiz-adv-x="1449" unicode="N" d="M200 0v1456h55l940 -1361v1361h54v-1456h-54l-940 1364v-1364h-55z"/>
<glyph glyph-name="O" horiz-adv-x="1364" unicode="O" d="M188 619q0 -174 60.5 -307.5t172.5 -205.5t262 -72q228 0 361 159t133 434v212q0 264 -134 423.5t-362 159.5q-225 0 -359 -158.5t-134 -431.5v-213zM133 627v210q0 188 67.5 334t193 225.5t287.5 79.5q163 0 288.5 -79.5t193.5 -226t68 -333.5v-218q0 -189 -67.5 -334.5 t-192.5 -225t-288 -79.5q-246 0 -398 175t-152 472z"/>
<glyph glyph-name="P" horiz-adv-x="1230" unicode="P" d="M254 669h401q197 0 306.5 95t109.5 265q0 176 -109.5 274.5t-306.5 98.5h-401v-733zM200 0v1456h455q223 0 346.5 -112.5t123.5 -312.5q0 -198 -120.5 -306t-342.5 -110h-408v-615h-54z"/>
<glyph glyph-name="Q" horiz-adv-x="1364" unicode="Q" d="M188 619q0 -174 60.5 -307.5t172.5 -205.5t262 -72q228 0 361 159t133 434v212q0 264 -134 423.5t-362 159.5q-225 0 -359 -158.5t-134 -431.5v-213zM133 627v210q0 188 67.5 334t193 225.5t287.5 79.5q163 0 288.5 -79.5t193.5 -226t68 -333.5v-218q0 -204 -79.5 -358 t-227.5 -228l267 -261l-39 -35l-284 273q-90 -30 -185 -30q-246 0 -398 175t-152 472z"/>
<glyph glyph-name="R" horiz-adv-x="1340" unicode="R" d="M249 677h459q168 0 271.5 102t103.5 257q0 170 -114.5 268t-313.5 98h-406v-725zM195 0v1456h464q219 0 348.5 -113t129.5 -307q0 -149 -92.5 -260.5t-235.5 -138.5l389 -623v-14h-57l-387 623h-505v-623h-54z"/>
<glyph glyph-name="S" horiz-adv-x="1211" unicode="S" d="M96 411h54q0 -179 134 -278t349 -99q191 0 315 87.5t124 227.5q0 93 -43.5 157.5t-137 114t-282.5 101.5t-283.5 105t-138.5 123t-44 170q0 159 134 257.5t349 98.5q140 0 251.5 -54.5t172.5 -153t61 -222.5h-54q0 163 -120 269.5t-311 106.5q-192 0 -310.5 -85.5 t-118.5 -214.5q0 -131 103 -211t340 -141.5t347 -142.5q140 -103 140 -276q0 -110 -62 -194.5t-176 -130.5t-256 -46q-158 0 -284 52.5t-189.5 149.5t-63.5 229z"/>
<glyph glyph-name="T" horiz-adv-x="1224" unicode="T" d="M55 1402v54h1114v-54h-530v-1402h-54v1402h-530z"/>
<glyph glyph-name="U" horiz-adv-x="1365" unicode="U" d="M185 466v990h54v-984q0 -202 121.5 -320t322.5 -118t322 118t121 321v983h54v-986q0 -231 -134 -360.5t-363 -129.5t-363 129.5t-135 356.5z"/>
<glyph glyph-name="V" horiz-adv-x="1223" unicode="V" d="M35 1456h59l489 -1314l29 -88l29 88l489 1314h59l-544 -1456h-66z"/>
<glyph glyph-name="W" horiz-adv-x="1855" unicode="W" d="M61 1456h60l302 -1126l66 -240l66 240l344 1126h60l342 -1126l65 -240l68 240l300 1126h59l-392 -1456h-61l-361 1214l-51 154l-49 -154l-364 -1214h-61z"/>
<glyph glyph-name="X" horiz-adv-x="1223" unicode="X" d="M54 0l523 743l-504 713h68l470 -671l470 671h68l-504 -713l523 -743h-67l-490 701l-492 -701h-65z"/>
<glyph glyph-name="Y" horiz-adv-x="1223" unicode="Y" d="M33 1456h72l504 -854l510 854h66l-549 -903v-553h-54v553z"/>
<glyph glyph-name="Z" horiz-adv-x="1224" unicode="Z" d="M94 0v44l929 1359h-889v53h964v-38l-930 -1364h962v-54h-1036z"/>
<glyph glyph-name="bracketleft" horiz-adv-x="439" unicode="[" d="M181 -312v1976h283v-54h-229v-1868h229v-54h-283z"/>
<glyph glyph-name="backslash" horiz-adv-x="774" unicode="\" d="M57 1456h58l608 -1581h-58z"/>
<glyph glyph-name="bracketright" horiz-adv-x="439" unicode="]" d="M-8 -258h228v1868h-228v54h283v-1976h-283v54z"/>
<glyph glyph-name="asciicircum" horiz-adv-x="849" unicode="^" d="M91 729l299 727h52l299 -727h-61l-264 653l-266 -653h-59z"/>
<glyph glyph-name="underscore" horiz-adv-x="845" unicode="_" d="M-1 0h846v-54h-846v54z"/>
<glyph glyph-name="grave" horiz-adv-x="537" unicode="`" d="M149 1516h66l188 -266h-59z"/>
<glyph glyph-name="a" horiz-adv-x="1081" unicode="a" d="M146 270q0 -99 79 -168t200 -69q152 0 261.5 68t164.5 191v257h-250q-232 0 -355 -92q-100 -75 -100 -187zM92 274q0 149 134.5 238.5t357.5 91.5h267v158q0 136 -85.5 211t-244.5 75q-148 0 -247 -76t-99 -188l-54 2q0 132 116 224t284 92q175 0 278 -87.5t106 -246.5 v-517q0 -178 28 -242v-9h-62q-20 69 -20 198q-64 -104 -175 -161t-251 -57q-150 0 -241.5 81.5t-91.5 212.5z"/>
<glyph glyph-name="b" d="M224 274q43 -115 137.5 -177.5t232.5 -62.5q167 0 258 133t91 385q0 233 -92.5 364.5t-258.5 131.5q-136 0 -230.5 -70t-137.5 -208v-496zM170 0v1536h54v-651q57 107 150.5 162t216.5 55q190 0 299 -145.5t109 -408.5v-17q0 -253 -109 -402t-297 -149q-122 0 -218 50.5 t-151 140.5v-171h-54z" unicode="b"/>
<glyph glyph-name="c" horiz-adv-x="1039" unicode="c" d="M97 526v36q0 246 119.5 393t320.5 147q172 0 284 -103t119 -274h-54q-7 146 -102.5 234.5t-246.5 88.5q-181 0 -283.5 -130.5t-102.5 -362.5v-35q0 -227 103.5 -356.5t284.5 -129.5q147 0 242.5 78t104.5 216h54q-8 -157 -121 -252.5t-280 -95.5q-203 0 -322.5 147 t-119.5 399z"/>
<glyph glyph-name="d" d="M178 531q0 -230 91 -363.5t258 -133.5q134 0 229 59.5t141 174.5v507q-93 273 -368 273q-166 0 -258.5 -131t-92.5 -386zM122 538v14q0 259 109 404.5t299 145.5q122 0 215.5 -55t151.5 -164v653h54v-1536h-54v173q-55 -92 -151 -142.5t-218 -50.5q-188 0 -297 149 t-109 409z" unicode="d"/>
<glyph glyph-name="e" horiz-adv-x="1032" unicode="e" d="M144 631h754v13q0 110 -46.5 204.5t-128 147t-182.5 52.5q-158 0 -268 -117.5t-129 -299.5zM87 517v45q0 150 60 275t165 195t229 70q181 0 296 -129t115 -339v-57h-811v-59q0 -132 55.5 -244.5t153 -176.5t211.5 -64q109 0 185.5 36.5t135.5 112.5l38 -27 q-121 -175 -359 -175q-131 0 -240.5 70.5t-171.5 193.5t-62 273z"/>
<glyph glyph-name="f" horiz-adv-x="645" unicode="f" d="M66 1027v55h188v158q1 150 75.5 233.5t207.5 83.5q74 0 128 -17l-8 -52q-52 15 -119 15q-107 0 -168.5 -69.5t-61.5 -197.5v-154h286v-55h-286v-1027h-54v1027h-188z"/>
<glyph glyph-name="g" horiz-adv-x="1123" unicode="g" d="M176 531q0 -232 92 -364.5t258 -132.5q137 0 233 63.5t136 178.5v491q-88 281 -367 281q-167 0 -259.5 -131t-92.5 -386zM121 538v14q0 259 109 404.5t299 145.5q121 0 215 -55.5t151 -162.5v198h55v-1063q0 -214 -110 -334.5t-299 -120.5q-109 0 -199.5 47t-154.5 135 l38 36q63 -80 138 -122.5t176 -42.5q167 0 260 101.5t96 286.5v166q-56 -92 -151.5 -141.5t-216.5 -49.5q-188 0 -297 149t-109 409z"/>
<glyph glyph-name="h" d="M172 0v1536h54v-706q53 126 156 199t228 73q174 0 258.5 -98.5t85.5 -297.5v-706h-54v708q-1 174 -71 257.5t-222 83.5q-140 0 -242.5 -99.5t-138.5 -256.5v-693h-54z" unicode="h"/>
<glyph glyph-name="i" horiz-adv-x="422" unicode="i" d="M185 0v1082h54v-1082h-54zM157 1420q0 23 16 39.5t39 16.5t39.5 -16.5t16.5 -39.5t-16.5 -39t-39.5 -16t-39 16t-16 39z"/>
<glyph glyph-name="j" horiz-adv-x="445" unicode="j" d="M163 1420q0 23 16 39.5t39 16.5t39.5 -16.5t16.5 -39.5t-16.5 -39t-39.5 -16t-39 16t-16 39zM-143 -417l3 52q48 -18 95 -18q112 0 171.5 66.5t59.5 187.5v1211h54v-1211q0 -150 -75 -229t-210 -79q-49 0 -98 20z"/>
<glyph glyph-name="k" horiz-adv-x="969" unicode="k" d="M172 0v1536h54v-1029l127 120l492 455h77l-497 -461l528 -621h-70l-498 585l-2 -2l-157 -135v-448h-54z"/>
<glyph glyph-name="l" horiz-adv-x="422" unicode="l" d="M185 0v1536h54v-1536h-54z"/>
<glyph glyph-name="m" horiz-adv-x="1836" unicode="m" d="M161 0v1082h55v-256q55 132 157 204t226 72q136 0 222.5 -60t113.5 -196q48 117 156 186.5t242 69.5q175 0 260.5 -99t86.5 -297v-706h-54v702q0 178 -72 264q-69 83 -214 83h-3h-7q-197 -3 -312 -157q-66 -89 -72 -172v-720h-54v727q-1 163 -71.5 242.5t-224.5 79.5 q-178 0 -291 -157q-67 -94 -89 -208v-684h-55z"/>
<glyph glyph-name="n" d="M172 0v1082h54v-252q53 126 156 199t228 73q174 0 258.5 -98.5t85.5 -297.5v-706h-54v708q-1 174 -71 257.5t-222 83.5q-140 0 -242.5 -99.5t-138.5 -256.5v-693h-54z" unicode="n"/>
<glyph glyph-name="o" horiz-adv-x="1127" unicode="o" d="M144 520q0 -135 53.5 -247.5t149 -175.5t218.5 -63q185 0 301.5 139t116.5 358v31q0 133 -54 246t-149.5 176.5t-216.5 63.5q-185 0 -302 -141t-117 -355v-32zM90 514v48q0 155 59.5 278.5t168 192.5t245.5 69q136 0 244 -67t168.5 -190t61.5 -277v-48q0 -156 -59 -279 t-167.5 -192t-245.5 -69t-245.5 68t-168.5 190.5t-61 275.5z"/>
<glyph glyph-name="p" d="M224 269q42 -112 137.5 -173.5t232.5 -61.5q166 0 258 132t92 386q0 233 -92.5 364.5t-259.5 131.5q-136 0 -231 -70.5t-137 -202.5v-506zM170 -416v1498h54v-193q56 103 151 158t216 55q190 0 299 -145.5t109 -408.5v-17q0 -253 -109 -402t-297 -149q-123 0 -219 50 t-150 138v-584h-54z" unicode="p"/>
<glyph glyph-name="q" d="M178 531q0 -230 91 -363.5t258 -133.5q134 0 229 59.5t141 174.5v507q-47 135 -142 204t-226 69q-166 0 -258.5 -131t-92.5 -386zM122 538v14q0 259 109 404.5t299 145.5q121 0 216 -55t151 -158v193h54v-1498h-54v584q-58 -91 -153.5 -139.5t-215.5 -48.5 q-188 0 -297 149t-109 409z" unicode="q"/>
<glyph glyph-name="r" horiz-adv-x="685" unicode="r" d="M172 0v1082h54v-225q44 113 132 179t221 66q47 0 76 -11l-6 -48l-70 6q-138 0 -231 -89.5t-122 -250.5v-709h-54z"/>
<glyph glyph-name="s" horiz-adv-x="1019" unicode="s" d="M108 275h54q8 -114 100.5 -177.5t250.5 -63.5q145 0 235.5 67.5t90.5 163.5q0 197 -336 268q-202 43 -281 110.5t-79 185.5q0 119 100.5 196t261.5 77q175 0 281 -83.5t106 -225.5h-55q0 109 -92 182t-240 73q-142 0 -225 -62t-83 -155q0 -73 31 -114.5t101 -75 t204 -64.5t212 -73t113 -99.5t35 -140.5q0 -128 -105 -206t-275 -78q-182 0 -293.5 82.5t-111.5 212.5z"/>
<glyph glyph-name="t" horiz-adv-x="648" unicode="t" d="M38 1027v55h200v292h55v-292h246v-55h-246v-768q0 -115 37.5 -170t125.5 -55q44 0 107 9l9 -51q-33 -12 -113 -12q-118 0 -169 65.5t-52 206.5v775h-200z"/>
<glyph glyph-name="u" d="M168 385v697h54v-699q2 -172 78 -260.5t222 -88.5q155 0 252 73t123 214v761h55v-1082h-55v175q-48 -90 -140 -142.5t-233 -52.5q-177 0 -265.5 103.5t-90.5 301.5z" unicode="u"/>
<glyph glyph-name="v" horiz-adv-x="978" unicode="v" d="M43 1082h58l389 -996l389 996h58l-421 -1082h-53z"/>
<glyph glyph-name="w" horiz-adv-x="1550" unicode="w" d="M83 1082h62l221 -769l59 -233l317 1002h55l315 -1002l61 233l220 769h63l-315 -1082h-54l-267 813l-51 194l-55 -194l-263 -813h-54z"/>
<glyph glyph-name="x" horiz-adv-x="978" unicode="x" d="M55 0l400 555l-380 527h68l346 -480l345 480h68l-380 -527l400 -555h-67l-367 508l-366 -508h-67z"/>
<glyph glyph-name="y" horiz-adv-x="978" unicode="y" d="M43 1082h59l401 -998l7 20l374 978h60l-484 -1270l-24 -60q-78 -189 -258 -189q-58 0 -80 11l-1 51q32 -9 73 -9q85 0 141 49.5t97 161.5l66 179z"/>
<glyph glyph-name="z" horiz-adv-x="978" unicode="z" d="M87 0v44l711 983h-680v55h753v-48l-711 -980h770v-54h-843z"/>
<glyph glyph-name="braceleft" horiz-adv-x="660" unicode="{" d="M73 543v66q250 0 250 280v247q1 185 80.5 298t238.5 163l15 -45q-280 -91 -280 -427v-228q0 -272 -211 -321q211 -53 211 -321v-229q0 -325 285 -421l-20 -46q-160 50 -239.5 163t-79.5 298v241q0 282 -250 282z"/>
<glyph glyph-name="bar" horiz-adv-x="406" unicode="|" d="M181 -270v1726h54v-1726h-54z"/>
<glyph glyph-name="braceright" horiz-adv-x="660" unicode="}" d="M0 -395q284 97 284 417v233q0 268 211 321q-211 49 -211 321v227q0 338 -279 428l14 45q160 -50 238.5 -162.5t80.5 -293.5v-249q0 -283 250 -283v-66q-250 0 -250 -285v-237q0 -186 -78.5 -298.5t-240.5 -163.5z"/>
<glyph glyph-name="asciitilde" horiz-adv-x="1412" unicode="~" d="M160 462q0 143 71.5 227.5t196.5 84.5q72 0 135 -29.5t160 -116t147 -109.5t107 -23q101 0 157 67.5t56 189.5l56 -1q0 -138 -73.5 -223.5t-195.5 -85.5q-71 0 -132 28t-158.5 115t-147.5 110.5t-111 23.5q-100 0 -156.5 -65t-56.5 -193h-55z"/>
<glyph glyph-name="uni00A0" horiz-adv-x="490" unicode=" "/>
<glyph glyph-name="cent" horiz-adv-x="1110" unicode="¢" d="M134 526v36q0 240 112 384.5t303 154.5v217h55v-217q163 -11 264.5 -112t108.5 -264h-54q-7 146 -102.5 234.5t-246.5 88.5q-181 0 -283.5 -130.5t-102.5 -362.5v-35q0 -227 103.5 -356.5t284.5 -129.5q147 0 242.5 78t104.5 216h54q-8 -150 -113 -244.5t-260 -102.5 v-226h-55v226q-191 10 -303 155t-112 390z"/>
<glyph glyph-name="sterling" horiz-adv-x="1150" unicode="£" d="M95 667v54h209l-9 318q0 204 99 320.5t267 116.5q173 0 273.5 -104t100.5 -283h-54q0 159 -85.5 246t-234.5 87q-147 0 -229.5 -100t-82.5 -283l9 -318h370v-54h-368l10 -331v-20q0 -178 -67 -262h757l1 -54h-962v54h120q48 14 72.5 91.5t24.5 175.5v15l-10 331h-211z "/>
<glyph glyph-name="yen" horiz-adv-x="1207" unicode="¥" d="M58 1456h65l452 -718l24 -51h5l24 51l451 718h66l-489 -780h424v-55h-452v-240h452v-55h-452v-326h-54v326h-450v55h450v240h-450v55h421z"/>
<glyph glyph-name="dieresis" horiz-adv-x="906" unicode="¨" d="M629 1421q0 23 16 39.5t39 16.5t39.5 -16.5t16.5 -39.5t-16.5 -39t-39.5 -16t-39 16t-16 39zM184 1421q0 23 16 39.5t39 16.5t39.5 -16.5t16.5 -39.5t-16.5 -39t-39.5 -16t-39 16t-16 39z"/>
<glyph glyph-name="copyright" horiz-adv-x="1666" unicode="©" d="M506 693v75q0 173 89 280t231 107q143 0 221 -82.5t78 -230.5h-52q0 131 -64 195.5t-183 64.5t-192 -92t-73 -247v-74q0 -149 72.5 -240.5t192.5 -91.5q246 0 246 259h52q0 -152 -78.5 -233t-219.5 -81q-144 0 -232 107.5t-88 283.5zM179 729q0 -188 88.5 -349.5 t240 -253.5t325.5 -92q176 0 328 94t239 254.5t87 346.5q0 187 -87 346.5t-239.5 252.5t-327.5 93q-173 0 -325 -91t-240.5 -251.5t-88.5 -349.5zM123 729q0 202 93.5 375t259 272.5t357.5 99.5t357.5 -99.5t259 -272.5t93.5 -375q0 -199 -91 -371t-256.5 -275.5 t-362.5 -103.5t-362.5 103.5t-256.5 275.5t-91 371z"/>
<glyph glyph-name="guillemotleft" horiz-adv-x="905" unicode="«" d="M432 516v19l295 370h70l-294 -380l294 -379h-70zM145 516v19l295 370h70l-294 -380l294 -379h-70z"/>
<glyph glyph-name="uni00AD" horiz-adv-x="607" unicode="­" d="M61 639v54h470v-54h-470z"/>
<glyph glyph-name="registered" horiz-adv-x="1674" unicode="®" d="M648 734h205q96 0 154.5 50.5t58.5 132.5q0 98 -51.5 140t-168.5 44h-198v-367zM593 326v830h239q289 0 289 -240q0 -144 -153 -206q132 -39 132 -208q0 -111 17 -160v-16h-59q-14 36 -14 176q0 92 -38.5 133t-132.5 43h-225v-352h-55zM170 729q0 -186 87 -346.5 t239 -254.5t329 -94q176 0 328 94t239 254.5t87 346.5q0 187 -87 346.5t-239.5 252.5t-327.5 93q-176 0 -328.5 -93t-239.5 -252.5t-87 -346.5zM115 729q0 202 93.5 375t259 272.5t357.5 99.5t357.5 -99.5t259 -272.5t93.5 -375q0 -199 -91 -371t-256.5 -275.5 t-362.5 -103.5t-362.5 103.5t-256.5 275.5t-91 371z"/>
<glyph glyph-name="plusminus" horiz-adv-x="1077" unicode="±" d="M122 -1v54h835v-54h-835zM72 751v54h443v462h54v-462h419v-54h-419v-462h-54v462h-443z"/>
<glyph glyph-name="acute" horiz-adv-x="511" unicode="´" d="M126 1250l189 266h66l-195 -266h-60z"/>
<glyph glyph-name="cedilla" horiz-adv-x="490" unicode="¸" d="M81 -386q101 0 169 39.5t68 101.5q0 56 -38.5 84t-150.5 40l25 121h53l-11 -76q177 -16 177 -169q0 -85 -76 -137.5t-209 -52.5z"/>
<glyph glyph-name="guillemotright" horiz-adv-x="897" unicode="»" d="M418 171l293 379l-293 390h70l294 -380v-19l-294 -370h-70zM128 171l293 379l-293 390h70l294 -380v-19l-294 -370h-70z"/>
<glyph glyph-name="multiply" horiz-adv-x="1052" unicode="×" d="M98 36l384 393l-357 364l39 39l356 -364l357 364l39 -39l-357 -364l385 -393l-39 -37l-384 391l-384 -391z"/>
<glyph glyph-name="circumflex" horiz-adv-x="796" unicode="ˆ" d="M152 1264v14l230 239h40l234 -243v-10h-68l-187 196l-185 -196h-64z"/>
<glyph glyph-name="tilde" horiz-adv-x="817" unicode="˜" d="M90 1286q0 80 50 129.5t126 49.5q78 0 153.5 -62t133.5 -62q54 0 87.5 36t33.5 95h55q0 -82 -50.5 -134t-125.5 -52q-81 0 -153 62.5t-134 62.5q-56 0 -88.5 -34t-32.5 -91h-55z"/>
<glyph glyph-name="afii10023" horiz-adv-x="1166" unicode="Ё" d="M798 1740q0 23 16 39.5t39 16.5t39.5 -16.5t16.5 -39.5t-16.5 -39t-39.5 -16t-39 16t-16 39zM353 1740q0 23 16 39.5t39 16.5t39.5 -16.5t16.5 -39.5t-16.5 -39t-39.5 -16t-39 16t-16 39zM200 0v1456h886v-54h-832v-626h730v-54h-730v-668h832v-54h-886z"/>
<glyph glyph-name="afii10017" horiz-adv-x="1223" unicode="А" d="M274 489h673l-336 902zM33 0l545 1456h66l545 -1456h-59l-163 435h-713l-162 -435h-59z"/>
<glyph glyph-name="afii10018" horiz-adv-x="1280" unicode="Б" d="M247 54h369q198 0 307 91.5t109 250.5q0 152 -107.5 244t-299.5 94h-378v-680zM193 0v1456h862v-54h-808v-614h381q213 -3 336 -106.5t123 -287.5q0 -182 -123.5 -287.5t-343.5 -106.5h-427z"/>
<glyph glyph-name="afii10019" horiz-adv-x="1235" unicode="В" d="M254 773h349q199 0 300 76.5t101 237.5q0 310 -409 315h-341v-629zM254 54h421q185 0 290.5 91.5t105.5 253.5q0 138 -102 227.5t-273 92.5h-442v-665zM200 0v1456h383q235 0 355.5 -95.5t120.5 -277.5q0 -132 -67 -219t-189 -111q138 -18 230 -119.5t92 -232.5 q0 -186 -120.5 -293.5t-335.5 -107.5h-469z"/>
<glyph glyph-name="afii10020" horiz-adv-x="1122" unicode="Г" d="M193 0v1456h862v-54h-808v-1402h-54z"/>
<glyph glyph-name="afii10021" horiz-adv-x="1425" unicode="Д" d="M237 54h941v1348h-635l-18 -410q-15 -274 -88 -525t-182 -391zM92 54h76q74 69 143.5 217.5t110 340t49.5 382.5l21 462h740v-1402h120v-403h-55v349h-1151v-349h-54v403z"/>
<glyph glyph-name="afii10022" horiz-adv-x="1166" unicode="Е" d="M200 0v1456h886v-54h-832v-626h730v-54h-730v-668h832v-54h-886z"/>
<glyph glyph-name="afii10024" horiz-adv-x="1745" unicode="Ж" d="M19 0l592 737l-557 719h71l529 -682h187v682h54v-682h186l529 682h70l-557 -719l593 -737h-72l-578 720h-171v-720h-54v720h-173l-577 -720h-72z"/>
<glyph glyph-name="afii10025" horiz-adv-x="1221" unicode="З" d="M100 404h55q0 -161 124.5 -266t323.5 -105q219 0 340.5 92t121.5 257q0 167 -110 249t-344 84h-197v56h191q215 1 326 80t111 236q0 161 -115 248t-324 87q-183 0 -305.5 -96t-122.5 -251h-54q0 116 62.5 207t175 142.5t244.5 51.5q235 0 364 -103.5t129 -289.5 q0 -121 -78.5 -211t-212.5 -127q314 -66 314 -359q0 -186 -141 -296.5t-375 -110.5q-143 0 -260 55t-180 150t-63 220z"/>
<glyph glyph-name="afii10026" horiz-adv-x="1449" unicode="И" d="M200 0v1456h54v-1361l941 1361h54v-1456h-54v1364l-941 -1364h-54z"/>
<glyph glyph-name="afii10027" horiz-adv-x="1449" unicode="Й" d="M456 1810h54q0 -91 57 -141.5t168 -50.5q107 0 165.5 51.5t58.5 140.5h54q0 -112 -75.5 -180t-202.5 -68q-128 0 -203.5 68t-75.5 180zM200 0v1456h54v-1361l941 1361h54v-1456h-54v1364l-941 -1364h-54z"/>
<glyph glyph-name="afii10028" horiz-adv-x="1300" unicode="К" d="M200 0v1456h54v-692h238l618 692h71l-644 -726l690 -730h-71l-679 711h-223v-711h-54z"/>
<glyph glyph-name="afii10029" horiz-adv-x="1428" unicode="Л" d="M34 0v54h48q100 3 153.5 63.5t85.5 204t52 425.5l47 709h813v-1456h-54v1402h-709l-44 -668q-24 -327 -62 -468t-104.5 -202t-181.5 -64h-44z"/>
<glyph glyph-name="afii10030" horiz-adv-x="1756" unicode="М" d="M200 0v1456h77l599 -1377l601 1377h79v-1456h-54v1376l-604 -1376h-43l-601 1369v-1369h-54z"/>
<glyph glyph-name="afii10031" horiz-adv-x="1438" unicode="Н" d="M200 0v1456h54v-680h930v680h54v-1456h-54v722h-930v-722h-54z"/>
<glyph glyph-name="afii10032" horiz-adv-x="1364" unicode="О" d="M188 619q0 -174 60.5 -307.5t172.5 -205.5t262 -72q228 0 361 159t133 434v212q0 264 -134 423.5t-362 159.5q-225 0 -359 -158.5t-134 -431.5v-213zM133 627v210q0 188 67.5 334t193 225.5t287.5 79.5q163 0 288.5 -79.5t193.5 -226t68 -333.5v-218q0 -189 -67.5 -334.5 t-192.5 -225t-288 -79.5q-246 0 -398 175t-152 472z"/>
<glyph glyph-name="afii10033" horiz-adv-x="1438" unicode="П" d="M200 0v1456h1038v-1456h-54v1402h-930v-1402h-54z"/>
<glyph glyph-name="afii10034" horiz-adv-x="1230" unicode="Р" d="M254 669h401q197 0 306.5 95t109.5 265q0 176 -109.5 274.5t-306.5 98.5h-401v-733zM200 0v1456h455q223 0 346.5 -112.5t123.5 -312.5q0 -198 -120.5 -306t-342.5 -110h-408v-615h-54z"/>
<glyph glyph-name="afii10035" horiz-adv-x="1327" unicode="С" d="M144 612v225q0 186 65 332.5t185.5 226.5t276.5 80q228 0 363 -120t156 -344h-54q-23 201 -140 305.5t-325 104.5q-212 0 -342.5 -160t-130.5 -429v-214q0 -172 58 -304.5t166.5 -206.5t248.5 -74q209 0 326.5 103t138.5 309h54q-21 -225 -155 -345.5t-364 -120.5 q-155 0 -274.5 78.5t-185.5 223t-67 330.5z"/>
<glyph glyph-name="afii10036" horiz-adv-x="1224" unicode="Т" d="M55 1402v54h1114v-54h-530v-1402h-54v1402h-530z"/>
<glyph glyph-name="afii10037" horiz-adv-x="1283" unicode="У" d="M33 1456h67l568 -1005l497 1005h66l-598 -1197l-36 -68q-117 -212 -318 -212q-57 0 -87 13l15 51q28 -10 77 -10q87 0 155.5 52.5t130.5 174.5l68 133z"/>
<glyph glyph-name="afii10038" horiz-adv-x="1462" unicode="Ф" d="M757 223h30q161 0 286 64.5t194.5 183.5t69.5 268q0 145 -67.5 262.5t-192 183.5t-283.5 67h-37v-1029zM125 737q0 -147 67.5 -264.5t190.5 -182.5t283 -67h36v1029h-25q-163 0 -289 -66t-194.5 -184.5t-68.5 -264.5zM70 737q0 158 73.5 287.5t209.5 204t307 77.5h42v211 h55v-211h35q174 -1 311 -74t213 -203.5t76 -289.5q0 -160 -76.5 -291.5t-215 -205t-314.5 -73.5h-29v-229h-55v229h-32q-175 1 -312 74t-212.5 203t-75.5 291z"/>
<glyph glyph-name="afii10039" horiz-adv-x="1223" unicode="Х" d="M54 0l523 743l-504 713h68l470 -671l470 671h68l-504 -713l523 -743h-67l-490 701l-492 -701h-65z"/>
<glyph glyph-name="afii10040" horiz-adv-x="1426" unicode="Ц" d="M184 0v1456h54v-1402h930v1402h54v-1402h133v-405h-54v351h-1117z"/>
<glyph glyph-name="afii10041" horiz-adv-x="1325" unicode="Ч" d="M195 1100v356h54v-364q3 -193 106.5 -286.5t318.5 -93.5q193 0 402 60v684h54v-1456h-54v719q-221 -61 -402 -61q-247 0 -362.5 107.5t-116.5 334.5z"/>
<glyph glyph-name="afii10042" horiz-adv-x="1866" unicode="Ш" d="M188 0v1456h55v-1402h663v1402h55v-1402h663v1402h54v-1456h-1490z"/>
<glyph glyph-name="afii10043" horiz-adv-x="1877" unicode="Щ" d="M188 0v1456h55v-1402h663v1402h55v-1402h663v1402h54v-1402h129v-405h-54v351h-1565z"/>
<glyph glyph-name="afii10044" horiz-adv-x="1617" unicode="Ъ" d="M584 54h369q198 0 307 91.5t109 250.5q0 152 -107.5 244t-299.5 94h-378v-680zM-37 1402v54h621v-668h381q213 -3 336 -106.5t123 -287.5q0 -182 -123.5 -287.5t-343.5 -106.5h-427v1402h-567z"/>
<glyph glyph-name="afii10045" horiz-adv-x="1648" unicode="Ы" d="M1393 0v1456h54v-1456h-54zM247 54h369q198 0 307 91.5t109 250.5q0 152 -107.5 244t-299.5 94h-378v-680zM193 0v1456h54v-668h381q213 -3 336 -106.5t123 -287.5q0 -182 -123.5 -287.5t-343.5 -106.5h-427z"/>
<glyph glyph-name="afii10046" horiz-adv-x="1223" unicode="Ь" d="M247 54h369q198 0 307 91.5t109 250.5q0 152 -107.5 244t-299.5 94h-378v-680zM193 0v1456h54v-668h381q213 -3 336 -106.5t123 -287.5q0 -182 -123.5 -287.5t-343.5 -106.5h-427z"/>
<glyph glyph-name="afii10047" horiz-adv-x="1325" unicode="Э" d="M135 446h54q21 -206 138.5 -309t326.5 -103q210 0 341.5 159.5t131.5 433.5v83h-642v54h642v75q0 263 -130.5 423t-342.5 160q-208 0 -325 -104.5t-140 -305.5h-54q21 224 156 344t363 120q155 0 274.5 -78.5t185 -222t67.5 -327.5v-229q0 -188 -65.5 -334t-186 -225.5 t-275.5 -79.5q-231 0 -364.5 121t-154.5 345z"/>
<glyph glyph-name="afii10048" horiz-adv-x="1896" unicode="Ю" d="M672 619q0 -174 60.5 -307.5t172.5 -205.5t262 -72q228 0 361 159t133 434v212q0 264 -134 423.5t-362 159.5q-225 0 -359 -158.5t-134 -431.5v-213zM236 0v1456h54v-669h327v41q0 299 151 473.5t397 174.5q163 0 288.5 -79.5t193.5 -226t68 -333.5v-218 q0 -189 -67.5 -334.5t-192.5 -225t-288 -79.5q-246 0 -398 175t-152 472v106h-327v-733h-54z"/>
<glyph glyph-name="afii10049" horiz-adv-x="1200" unicode="Я" d="M202 1020q0 -158 98.5 -252t261.5 -94h431v728h-371q-201 0 -310.5 -98t-109.5 -284zM95 0l347 632l-5 5q-137 41 -213 141t-76 240q0 207 125.5 322.5t352.5 115.5h422v-1456h-55v619h-502l-334 -619h-62z"/>
<glyph glyph-name="afii10065" horiz-adv-x="1081" unicode="а" d="M146 270q0 -99 79 -168t200 -69q152 0 261.5 68t164.5 191v257h-250q-232 0 -355 -92q-100 -75 -100 -187zM92 274q0 149 134.5 238.5t357.5 91.5h267v158q0 136 -85.5 211t-244.5 75q-148 0 -247 -76t-99 -188l-54 2q0 132 116 224t284 92q175 0 278 -87.5t106 -246.5 v-517q0 -178 28 -242v-9h-62q-20 69 -20 198q-64 -104 -175 -161t-251 -57q-150 0 -241.5 81.5t-91.5 212.5z"/>
<glyph glyph-name="afii10066" horiz-adv-x="1122" unicode="б" d="M151 480q0 -124 53.5 -227t149 -161t218.5 -58q184 0 301 127.5t117 328.5v32q0 117 -53 215.5t-149 154.5t-218 56q-185 0 -302 -122.5t-117 -312.5v-33zM97 480v112q0 326 128.5 531t356.5 237q158 22 229.5 67t71.5 126h54q0 -105 -87.5 -167t-255.5 -79.5 t-280 -153.5t-149 -367q60 101 164 158.5t241 57.5q210 0 342.5 -133.5t132.5 -355.5v-33q0 -144 -60 -259t-168.5 -178t-244.5 -63q-137 0 -246.5 64t-169 178t-59.5 258z"/>
<glyph glyph-name="afii10067" d="M235 575h338q164 0 248 58t84 172q0 116 -90 169t-262 53h-318v-452zM235 54h387q155 0 243 62t88 176q0 102 -89.5 165.5t-244.5 63.5h-384v-467zM181 0v1082h372q197 0 301.5 -71.5t104.5 -208.5q1 -90 -55 -157q-55 -67 -158 -90q110 -12 185 -86t75 -176 q0 -139 -102.5 -216t-286.5 -77h-436z" unicode="в"/>
<glyph glyph-name="afii10068" horiz-adv-x="867" unicode="г" d="M172 0v1082h650v-55h-596v-1027h-54z"/>
<glyph glyph-name="afii10069" horiz-adv-x="1112" unicode="д" d="M197 54h691v974h-476l-19 -358q-28 -407 -196 -616zM59 54h72l38 51q147 201 171 583l21 394h581v-1028h86v-372h-54v318h-871v-318h-44v372z"/>
<glyph glyph-name="afii10070" horiz-adv-x="1032" unicode="е" d="M144 631h754v13q0 110 -46.5 204.5t-128 147t-182.5 52.5q-158 0 -268 -117.5t-129 -299.5zM87 517v45q0 150 60 275t165 195t229 70q181 0 296 -129t115 -339v-57h-811v-59q0 -132 55.5 -244.5t153 -176.5t211.5 -64q109 0 185.5 36.5t135.5 112.5l38 -27 q-121 -175 -359 -175q-131 0 -240.5 70.5t-171.5 193.5t-62 273z"/>
<glyph glyph-name="afii10072" horiz-adv-x="1574" unicode="ж" d="M27 0l511 552l-448 530h67l430 -500h164v500h54v-500h167l429 500h69l-451 -530l513 -552h-71l-500 528h-156v-528h-54v528h-155l-498 -528h-71z"/>
<glyph glyph-name="afii10073" horiz-adv-x="1035" unicode="з" d="M109 301h55q0 -112 100 -188.5t252 -76.5q172 0 260.5 67.5t88.5 183.5q0 125 -86.5 181t-259.5 57h-151v55h162q316 5 316 225q0 115 -84.5 179t-246.5 64q-140 0 -236.5 -71t-96.5 -178h-55q0 131 113.5 217t274.5 86q184 0 285 -79.5t101 -220.5q0 -85 -55 -151 t-155 -97q229 -52 229 -264q0 -142 -109.5 -225.5t-294.5 -83.5q-108 0 -203 40t-149.5 112t-54.5 168z"/>
<glyph glyph-name="afii10074" d="M172 0v1082h54v-986l669 986h55v-1082h-55v986l-669 -986h-54z" unicode="и"/>
<glyph glyph-name="afii10075" d="M275 1468h54q0 -91 57 -141.5t168 -50.5q107 0 165.5 51.5t58.5 140.5h54q0 -112 -75.5 -180t-202.5 -68q-128 0 -203.5 68t-75.5 180zM172 0v1082h54v-986l669 986h55v-1082h-55v986l-669 -986h-54z" unicode="й"/>
<glyph glyph-name="afii10076" horiz-adv-x="1016" unicode="к" d="M171 0v1082h55v-500h208l429 500h78l-460 -530l523 -552h-81l-499 529h-198v-529h-55z"/>
<glyph glyph-name="afii10077" horiz-adv-x="1122" unicode="л" d="M44 0v53h45q102 4 149.5 107t62.5 344l24 578h625v-1082h-55v1027h-518l-21 -506q-16 -289 -77.5 -404t-196.5 -117h-38z"/>
<glyph glyph-name="afii10078" horiz-adv-x="1476" unicode="м" d="M181 0v1082h74l492 -1000l492 1000h65v-1082h-55v978l-481 -978h-42l-491 1002v-1002h-54z"/>
<glyph glyph-name="afii10079" d="M172 0v1082h54v-499h669v499h55v-1082h-55v529h-669v-529h-54z" unicode="н"/>
<glyph glyph-name="afii10080" horiz-adv-x="1127" unicode="о" d="M144 520q0 -135 53.5 -247.5t149 -175.5t218.5 -63q185 0 301.5 139t116.5 358v31q0 133 -54 246t-149.5 176.5t-216.5 63.5q-185 0 -302 -141t-117 -355v-32zM90 514v48q0 155 59.5 278.5t168 192.5t245.5 69q136 0 244 -67t168.5 -190t61.5 -277v-48q0 -156 -59 -279 t-167.5 -192t-245.5 -69t-245.5 68t-168.5 190.5t-61 275.5z"/>
<glyph glyph-name="afii10081" d="M172 0v1082h778v-1082h-55v1027h-669v-1027h-54z" unicode="п"/>
<glyph glyph-name="afii10082" d="M224 269q42 -112 137.5 -173.5t232.5 -61.5q166 0 258 132t92 386q0 233 -92.5 364.5t-259.5 131.5q-136 0 -231 -70.5t-137 -202.5v-506zM170 -416v1498h54v-193q56 103 151 158t216 55q190 0 299 -145.5t109 -408.5v-17q0 -253 -109 -402t-297 -149q-123 0 -219 50 t-150 138v-584h-54z" unicode="р"/>
<glyph glyph-name="afii10083" horiz-adv-x="1039" unicode="с" d="M97 526v36q0 246 119.5 393t320.5 147q172 0 284 -103t119 -274h-54q-7 146 -102.5 234.5t-246.5 88.5q-181 0 -283.5 -130.5t-102.5 -362.5v-35q0 -227 103.5 -356.5t284.5 -129.5q147 0 242.5 78t104.5 216h54q-8 -157 -121 -252.5t-280 -95.5q-203 0 -322.5 147 t-119.5 399z"/>
<glyph glyph-name="afii10084" horiz-adv-x="962" unicode="т" d="M40 1027v55h882v-55h-425v-1027h-54v1027h-403z"/>
<glyph glyph-name="afii10085" horiz-adv-x="978" unicode="у" d="M43 1082h59l401 -998l7 20l374 978h60l-484 -1270l-24 -60q-78 -189 -258 -189q-58 0 -80 11l-1 51q32 -9 73 -9q85 0 141 49.5t97 161.5l66 179z"/>
<glyph glyph-name="afii10086" horiz-adv-x="1484" unicode="ф" d="M770 101q85 -68 207 -68q159 0 245 129t86 380q0 233 -87.5 369.5t-245.5 136.5q-150 0 -205 -83v-864zM178 521q0 -233 86.5 -360.5t242.5 -127.5q110 0 188 54l21 15v861q-57 85 -207 85q-154 0 -242.5 -134t-88.5 -393zM122 542q0 257 103 408.5t285 151.5 q124 0 206 -67v501h54v-500q79 66 204 66q179 0 282 -147.5t106 -399.5v-34q0 -252 -103.5 -397t-282.5 -145q-122 0 -206 62v-457h-54v457q-86 -62 -208 -62q-170 0 -273 132.5t-112 367.5z"/>
<glyph glyph-name="afii10087" horiz-adv-x="978" unicode="х" d="M55 0l400 555l-380 527h68l346 -480l345 480h68l-380 -527l400 -555h-67l-367 508l-366 -508h-67z"/>
<glyph glyph-name="afii10088" horiz-adv-x="1120" unicode="ц" d="M172 0v1082h54v-1028h669v1028h55v-1028h91v-375h-54v321h-815z"/>
<glyph glyph-name="afii10089" horiz-adv-x="1067" unicode="ч" d="M117 846v236h54v-236q0 -133 34 -208.5t107.5 -108.5t213.5 -33q80 4 171.5 26.5t143.5 50.5v509h54v-1082h-54v522q-72 -35 -162.5 -57.5t-152.5 -22.5q-162 0 -246 38.5t-123.5 126t-39.5 239.5z"/>
<glyph glyph-name="afii10090" horiz-adv-x="1594" unicode="ш" d="M172 0v1082h54v-1028h567v1028h55v-1028h558v1028h54v-1082h-1288z"/>
<glyph glyph-name="afii10091" horiz-adv-x="1592" unicode="щ" d="M172 0v1082h54v-1028h567v1028h55v-1028h558v1028h54v-1028h108v-375h-54v321h-1342z"/>
<glyph glyph-name="afii10092" horiz-adv-x="1309" unicode="ъ" d="M463 54h345q156 0 244.5 76.5t88.5 206.5q0 124 -86.5 200.5t-238.5 78.5h-353v-562zM40 1028v54h423v-412h355q173 -3 275 -93.5t102 -241.5q0 -150 -101 -241t-276 -94h-409v1028h-369z"/>
<glyph glyph-name="afii10093" horiz-adv-x="1486" unicode="ы" d="M1261 0v1082h54v-1082h-54zM235 54h345q156 0 244.5 76.5t88.5 206.5q0 124 -86.5 200.5t-238.5 78.5h-353v-562zM181 0v1082h54v-412h355q173 -3 275 -93.5t102 -241.5q0 -150 -101 -241t-276 -94h-409z"/>
<glyph glyph-name="afii10094" horiz-adv-x="1080" unicode="ь" d="M235 54h345q156 0 244.5 76.5t88.5 206.5q0 124 -86.5 200.5t-238.5 78.5h-353v-562zM181 0v1082h54v-412h355q173 -3 275 -93.5t102 -241.5q0 -150 -101 -241t-276 -94h-409z"/>
<glyph glyph-name="afii10095" horiz-adv-x="1089" unicode="э" d="M122 362h56q0 -150 92.5 -239t245.5 -89q180 0 287 130.5t109 351.5h-572v54h572q-2 217 -108 347.5t-290 130.5q-151 0 -243.5 -81t-92.5 -218h-56q0 156 113 254.5t279 98.5q204 0 328 -147.5t124 -399.5v-35q0 -245 -124 -392.5t-326 -147.5q-177 0 -285.5 104.5 t-108.5 277.5z"/>
<glyph glyph-name="afii10096" horiz-adv-x="1659" unicode="ю" d="M647 520q0 -135 53.5 -247.5t149 -175.5t218.5 -63q185 0 301.5 139t116.5 358v31q0 133 -54 246t-149.5 176.5t-216.5 63.5q-185 0 -302 -141t-117 -355v-32zM181 0v1082h54v-525h358q0 244 132.5 394.5t340.5 150.5q136 0 244 -67t168.5 -190t61.5 -277v-48 q0 -156 -59 -279t-167.5 -192t-245.5 -69q-134 0 -241.5 65.5t-168.5 185t-65 272.5h-358v-503h-54z"/>
<glyph glyph-name="afii10097" horiz-adv-x="1101" unicode="я" d="M213 764q0 -117 70.5 -187t190.5 -72h396v522h-346q-146 0 -228.5 -70t-82.5 -193zM139 0l273 455q-117 19 -185 102t-68 209q0 141 95.5 227t259.5 89h410v-1082h-54v450h-396l-271 -450h-64z"/>
<glyph glyph-name="afii10071" horiz-adv-x="1032" unicode="ё" d="M746 1420q0 23 16 39.5t39 16.5t39.5 -16.5t16.5 -39.5t-16.5 -39t-39.5 -16t-39 16t-16 39zM301 1420q0 23 16 39.5t39 16.5t39.5 -16.5t16.5 -39.5t-16.5 -39t-39.5 -16t-39 16t-16 39zM144 631h754v13q0 110 -46.5 204.5t-128 147t-182.5 52.5q-158 0 -268 -117.5 t-129 -299.5zM87 517v45q0 150 60 275t165 195t229 70q181 0 296 -129t115 -339v-57h-811v-59q0 -132 55.5 -244.5t153 -176.5t211.5 -64q109 0 185.5 36.5t135.5 112.5l38 -27q-121 -175 -359 -175q-131 0 -240.5 70.5t-171.5 193.5t-62 273z"/>
<glyph glyph-name="uni2002" horiz-adv-x="905" unicode=" "/>
<glyph glyph-name="uni2003" horiz-adv-x="1810" unicode=" "/>
<glyph glyph-name="uni2009" horiz-adv-x="362" unicode=" "/>
<glyph glyph-name="endash" horiz-adv-x="1324" unicode="–" d="M157 721v54h1002v-54h-1002z"/>
<glyph glyph-name="emdash" horiz-adv-x="1561" unicode="—" d="M110 721v54h1336v-54h-1336z"/>
<glyph glyph-name="quoteleft" horiz-adv-x="320" unicode="‘" d="M101 1168v118q4 159 106 268l37 -32q-86 -108 -89 -234v-120h-54z"/>
<glyph glyph-name="quotesinglbase" horiz-adv-x="300" unicode="‚" d="M47 -150q81 104 88 215l1 163h54v-142q-4 -159 -106 -268z"/>
<glyph glyph-name="quotedblleft" horiz-adv-x="500" unicode="“" d="M281 1168v118q4 159 106 268l37 -32q-86 -108 -89 -234v-120h-54zM96 1168v118q4 159 106 268l37 -32q-86 -108 -89 -234v-120h-54z"/>
<glyph glyph-name="quotedblright" horiz-adv-x="502" unicode="”" d="M259 1183q81 104 88 215l1 138h54v-117q-4 -159 -106 -268zM77 1183q81 104 88 215l1 138h54v-117q-4 -159 -106 -268z"/>
<glyph glyph-name="ellipsis" horiz-adv-x="1255" unicode="…" d="M938 49q0 23 16 39.5t39 16.5t39.5 -16.5t16.5 -39.5t-16.5 -39t-39.5 -16t-39 16t-16 39zM569 49q0 23 16 39.5t39 16.5t39.5 -16.5t16.5 -39.5t-16.5 -39t-39.5 -16t-39 16t-16 39zM185 49q0 23 16 39.5t39 16.5t39.5 -16.5t16.5 -39.5t-16.5 -39t-39.5 -16t-39 16 t-16 39z"/>
<glyph glyph-name="guilsinglleft" horiz-adv-x="604" unicode="‹" d="M108 551v19l295 370h70l-294 -380l294 -379h-70z"/>
<glyph glyph-name="guilsinglright" horiz-adv-x="604" unicode="›" d="M106 171l293 379l-293 390h70l294 -380v-19l-294 -370h-70z"/>
<glyph glyph-name="Euro" d="M72 584v55h205v191h-205v56h205v42q2 257 143 402.5t390 145.5q96 0 222 -31v-58q-112 35 -222 35q-229 0 -353.5 -129t-125.5 -366v-41h455v-56h-455v-191h455v-55h-455v-50q0 -239 128.5 -370t352.5 -131q118 0 220 34v-57q-105 -31 -220 -31q-249 0 -392 147.5 t-143 410.5v47h-205z" unicode="€"/>
<glyph glyph-name="uni20BD" horiz-adv-x="1270" unicode="₽" d="M294 669h401q197 0 306.5 95t109.5 265q0 176 -109.5 274.5t-306.5 98.5h-401v-733zM40 401v54h200v160h-200v54h200v787h455q223 0 346.5 -112.5t123.5 -312.5q0 -198 -120.5 -306t-342.5 -110h-408v-160h400v-54h-400v-401h-54v401h-200z"/>
<glyph glyph-name="trademark" horiz-adv-x="1247" unicode="™" d="M593 919v537h69l176 -459l176 459h69v-537h-55v437l-164 -437h-52l-164 451v-451h-55zM111 1399v57h396v-57h-170v-480h-56v480h-170z"/>
<glyph glyph-name="approxequal" horiz-adv-x="1154" unicode="≈" d="M111 837q102 146 236 146h9q77 0 147 -33l153 -79q70 -34 147 -34q128 0 232 150l7 -66q-102 -146 -236 -146q-78 0 -144 31l-160 83q-69 32 -143 32h-9q-128 0 -232 -150zM101 447q102 146 236 146h9q77 0 147 -33l153 -79q70 -34 147 -34q128 0 232 150l6 -64 q-102 -146 -236 -146q-78 0 -144 31l-160 83q-69 32 -143 32h-9q-128 0 -232 -150z"/>
<glyph glyph-name="notequal" horiz-adv-x="1142" unicode="≠" d="M147 436v54h276l200 353h-476v54h506l161 283l47 -24l-147 -259h267v-54h-298l-200 -353h498v-54h-528l-161 -284l-47 24l147 260h-245z"/>
<hkern k="40" u1=" " u2="Т"/>
<hkern k="40" u1=" " u2="T"/>
<hkern k="-11" u1='&quot;' u2="w"/>
<hkern k="-11" u1="&apos;" u2="w"/>
<hkern k="-22" u1="(" u2="Y"/>
<hkern k="-18" u1="(" u2="W"/>
<hkern k="-20" u1="(" u2="V"/>
<hkern k="224" u1="/" u2="/"/>
<hkern k="54" u1="A" u2="т"/>
<hkern k="59" u1="A" u2="Ь"/>
<hkern k="-19" u1="A" u2="Д"/>
<hkern k="33" u1="A" u2="w"/>
<hkern k="17" u1="A" u2="t"/>
<hkern k="61" u1="A" u2="?"/>
<hkern k="17" u1="C" u2="}"/>
<hkern k="12" u1="C" u2="]"/>
<hkern k="26" u1="C" u2=")"/>
<hkern k="32" u1="D" u2="Ь"/>
<hkern k="33" u1="D" u2="Д"/>
<hkern k="22" u1="E" u2="w"/>
<hkern k="18" u1="E" u2="f"/>
<hkern k="234" u1="F" u2="…"/>
<hkern k="234" u1="F" u2="‚"/>
<hkern k="21" u1="F" u2="ё"/>
<hkern k="21" u1="F" u2="ф"/>
<hkern k="24" u1="F" u2="у"/>
<hkern k="21" u1="F" u2="с"/>
<hkern k="21" u1="F" u2="о"/>
<hkern k="21" u1="F" u2="е"/>
<hkern k="34" u1="F" u2="а"/>
<hkern k="-20" u1="F" u2="Т"/>
<hkern k="170" u1="F" u2="А"/>
<hkern k="24" u1="F" u2="y"/>
<hkern k="24" u1="F" u2="v"/>
<hkern k="22" u1="F" u2="u"/>
<hkern k="26" u1="F" u2="r"/>
<hkern k="21" u1="F" u2="q"/>
<hkern k="21" u1="F" u2="o"/>
<hkern k="21" u1="F" u2="g"/>
<hkern k="21" u1="F" u2="e"/>
<hkern k="21" u1="F" u2="d"/>
<hkern k="21" u1="F" u2="c"/>
<hkern k="34" u1="F" u2="a"/>
<hkern k="-20" u1="F" u2="T"/>
<hkern k="264" u1="F" u2="J"/>
<hkern k="170" u1="F" u2="A"/>
<hkern k="234" u1="F" u2="."/>
<hkern k="234" u1="F" u2=","/>
<hkern k="-21" u1="H" u2="д"/>
<hkern k="-21" u1="H" u2="Д"/>
<hkern k="-21" u1="I" u2="д"/>
<hkern k="-21" u1="I" u2="Д"/>
<hkern k="71" u1="K" u2="т"/>
<hkern k="41" u1="K" u2="б"/>
<hkern k="63" u1="K" u2="w"/>
<hkern k="92" u1="L" u2="w"/>
<hkern k="-21" u1="M" u2="д"/>
<hkern k="-21" u1="M" u2="Д"/>
<hkern k="-21" u1="N" u2="д"/>
<hkern k="-21" u1="N" u2="Д"/>
<hkern k="32" u1="O" u2="Ь"/>
<hkern k="33" u1="O" u2="Д"/>
<hkern k="54" u1="P" u2="д"/>
<hkern k="88" u1="P" u2="Д"/>
<hkern k="-14" u1="P" u2="t"/>
<hkern k="43" u1="Q" u2="Т"/>
<hkern k="35" u1="Q" u2="Y"/>
<hkern k="20" u1="Q" u2="W"/>
<hkern k="28" u1="Q" u2="V"/>
<hkern k="43" u1="Q" u2="T"/>
<hkern k="80" u1="R" u2="Т"/>
<hkern k="48" u1="R" u2="Y"/>
<hkern k="19" u1="R" u2="V"/>
<hkern k="80" u1="R" u2="T"/>
<hkern k="135" u1="T" u2="я"/>
<hkern k="128" u1="T" u2="э"/>
<hkern k="131" u1="T" u2="ы"/>
<hkern k="78" u1="T" u2="т"/>
<hkern k="128" u1="T" u2="з"/>
<hkern k="140" u1="T" u2="д"/>
<hkern k="96" u1="T" u2="в"/>
<hkern k="28" u1="T" u2="б"/>
<hkern k="-15" u1="T" u2="Ь"/>
<hkern k="91" u1="T" u2="Д"/>
<hkern k="216" u1="T" u2="»"/>
<hkern k="328" u1="T" u2="«"/>
<hkern k="57" u1="T" u2="w"/>
<hkern k="75" u1="T" u2="r"/>
<hkern k="40" u1="T" u2=" "/>
<hkern k="-19" u1="V" u2="}"/>
<hkern k="30" u1="V" u2="r"/>
<hkern k="-17" u1="V" u2="]"/>
<hkern k="-20" u1="V" u2=")"/>
<hkern k="-14" u1="W" u2="}"/>
<hkern k="21" u1="W" u2="r"/>
<hkern k="-12" u1="W" u2="]"/>
<hkern k="-15" u1="W" u2=")"/>
<hkern k="41" u1="X" u2="т"/>
<hkern k="23" u1="X" u2="б"/>
<hkern k="-18" u1="X" u2="Д"/>
<hkern k="51" u1="Y" u2="»"/>
<hkern k="82" u1="Y" u2="«"/>
<hkern k="-19" u1="Y" u2="}"/>
<hkern k="22" u1="Y" u2="t"/>
<hkern k="40" u1="Y" u2="r"/>
<hkern k="22" u1="Y" u2="f"/>
<hkern k="-18" u1="Y" u2="]"/>
<hkern k="49" u1="Y" u2="*"/>
<hkern k="-20" u1="Y" u2=")"/>
<hkern k="30" u1="Y" u2="&amp;"/>
<hkern k="27" u1="Z" u2="w"/>
<hkern k="18" u1="[" u2="U"/>
<hkern k="18" u1="[" u2="J"/>
<hkern k="16" u1="a" u2="т"/>
<hkern k="80" u1="b" u2="т"/>
<hkern k="18" u1="b" u2="д"/>
<hkern k="11" u1="e" u2="т"/>
<hkern k="-16" u1="f" u2="”"/>
<hkern k="-16" u1="f" u2="“"/>
<hkern k="-16" u1="f" u2="‘"/>
<hkern k="24" u1="f" u2="ё"/>
<hkern k="24" u1="f" u2="ф"/>
<hkern k="24" u1="f" u2="с"/>
<hkern k="24" u1="f" u2="е"/>
<hkern k="-19" u1="f" u2="}"/>
<hkern k="24" u1="f" u2="q"/>
<hkern k="24" u1="f" u2="g"/>
<hkern k="24" u1="f" u2="e"/>
<hkern k="24" u1="f" u2="d"/>
<hkern k="24" u1="f" u2="c"/>
<hkern k="-18" u1="f" u2="]"/>
<hkern k="-20" u1="f" u2=")"/>
<hkern k="-16" u1="f" u2="&apos;"/>
<hkern k="-16" u1="f" u2='&quot;'/>
<hkern k="64" u1="h" u2="т"/>
<hkern k="20" u1="k" u2="ё"/>
<hkern k="20" u1="k" u2="ф"/>
<hkern k="20" u1="k" u2="с"/>
<hkern k="20" u1="k" u2="е"/>
<hkern k="20" u1="k" u2="q"/>
<hkern k="20" u1="k" u2="g"/>
<hkern k="20" u1="k" u2="e"/>
<hkern k="20" u1="k" u2="d"/>
<hkern k="20" u1="k" u2="c"/>
<hkern k="64" u1="m" u2="т"/>
<hkern k="64" u1="n" u2="т"/>
<hkern k="22" u1="o" u2="т"/>
<hkern k="72" u1="o" u2="д"/>
<hkern k="80" u1="p" u2="т"/>
<hkern k="18" u1="p" u2="д"/>
<hkern k="-17" u1="r" u2="w"/>
<hkern k="-50" u1="r" u2="t"/>
<hkern k="-15" u1="r" u2="f"/>
<hkern k="20" u1="t" u2="о"/>
<hkern k="20" u1="t" u2="o"/>
<hkern k="56" u1="v" u2="д"/>
<hkern k="-13" u1="v" u2="f"/>
<hkern k="124" u1="w" u2="…"/>
<hkern k="124" u1="w" u2="‚"/>
<hkern k="124" u1="w" u2="."/>
<hkern k="124" u1="w" u2=","/>
<hkern k="56" u1="y" u2="д"/>
<hkern k="-13" u1="y" u2="f"/>
<hkern k="20" u1="{" u2="U"/>
<hkern k="20" u1="{" u2="J"/>
<hkern k="22" u1="Ё" u2="w"/>
<hkern k="18" u1="Ё" u2="f"/>
<hkern k="54" u1="А" u2="т"/>
<hkern k="59" u1="А" u2="Ь"/>
<hkern k="-19" u1="А" u2="Д"/>
<hkern k="33" u1="А" u2="w"/>
<hkern k="17" u1="А" u2="t"/>
<hkern k="61" u1="А" u2="?"/>
<hkern k="15" u1="Б" u2="х"/>
<hkern k="48" u1="Б" u2="т"/>
<hkern k="15" u1="Б" u2="ж"/>
<hkern k="26" u1="Б" u2="Ь"/>
<hkern k="24" u1="Б" u2="Ч"/>
<hkern k="14" u1="Б" u2="Х"/>
<hkern k="18" u1="Б" u2="У"/>
<hkern k="26" u1="Б" u2="Т"/>
<hkern k="14" u1="Б" u2="Ж"/>
<hkern k="15" u1="Б" u2="x"/>
<hkern k="25" u1="Б" u2="Y"/>
<hkern k="14" u1="Б" u2="X"/>
<hkern k="25" u1="Б" u2="V"/>
<hkern k="26" u1="Б" u2="T"/>
<hkern k="249" u1="Г" u2="я"/>
<hkern k="237" u1="Г" u2="э"/>
<hkern k="242" u1="Г" u2="ы"/>
<hkern k="152" u1="Г" u2="т"/>
<hkern k="237" u1="Г" u2="з"/>
<hkern k="258" u1="Г" u2="д"/>
<hkern k="183" u1="Г" u2="в"/>
<hkern k="67" u1="Г" u2="б"/>
<hkern k="-5" u1="Г" u2="Ь"/>
<hkern k="174" u1="Г" u2="Д"/>
<hkern k="387" u1="Г" u2="»"/>
<hkern k="577" u1="Г" u2="«"/>
<hkern k="116" u1="Г" u2="w"/>
<hkern k="147" u1="Г" u2="r"/>
<hkern k="32" u1="Д" u2="ч"/>
<hkern k="-16" u1="Д" u2="л"/>
<hkern k="-19" u1="Д" u2="д"/>
<hkern k="32" u1="Д" u2="Ь"/>
<hkern k="31" u1="Д" u2="Ч"/>
<hkern k="32" u1="Д" u2="Т"/>
<hkern k="24" u1="Д" u2="С"/>
<hkern k="24" u1="Д" u2="О"/>
<hkern k="-16" u1="Д" u2="Л"/>
<hkern k="-20" u1="Д" u2="Д"/>
<hkern k="-16" u1="Д" u2="А"/>
<hkern k="33" u1="Д" u2="Y"/>
<hkern k="32" u1="Д" u2="V"/>
<hkern k="32" u1="Д" u2="T"/>
<hkern k="24" u1="Д" u2="Q"/>
<hkern k="24" u1="Д" u2="O"/>
<hkern k="24" u1="Д" u2="G"/>
<hkern k="24" u1="Д" u2="C"/>
<hkern k="-16" u1="Д" u2="A"/>
<hkern k="22" u1="Е" u2="w"/>
<hkern k="18" u1="Е" u2="f"/>
<hkern k="41" u1="Ж" u2="т"/>
<hkern k="23" u1="Ж" u2="б"/>
<hkern k="-18" u1="Ж" u2="Д"/>
<hkern k="15" u1="З" u2="Ь"/>
<hkern k="12" u1="З" u2="Х"/>
<hkern k="13" u1="З" u2="У"/>
<hkern k="15" u1="З" u2="Т"/>
<hkern k="11" u1="З" u2="Л"/>
<hkern k="12" u1="З" u2="Ж"/>
<hkern k="16" u1="З" u2="Y"/>
<hkern k="12" u1="З" u2="X"/>
<hkern k="12" u1="З" u2="V"/>
<hkern k="15" u1="З" u2="T"/>
<hkern k="14" u1="З" u2="7"/>
<hkern k="-21" u1="И" u2="д"/>
<hkern k="-21" u1="И" u2="Д"/>
<hkern k="71" u1="К" u2="т"/>
<hkern k="41" u1="К" u2="б"/>
<hkern k="63" u1="К" u2="w"/>
<hkern k="-21" u1="Л" u2="д"/>
<hkern k="-21" u1="Л" u2="Д"/>
<hkern k="-21" u1="М" u2="д"/>
<hkern k="-21" u1="М" u2="Д"/>
<hkern k="-21" u1="Н" u2="д"/>
<hkern k="-21" u1="Н" u2="Д"/>
<hkern k="32" u1="О" u2="Ь"/>
<hkern k="33" u1="О" u2="Д"/>
<hkern k="54" u1="Р" u2="д"/>
<hkern k="88" u1="Р" u2="Д"/>
<hkern k="-14" u1="Р" u2="t"/>
<hkern k="17" u1="С" u2="}"/>
<hkern k="12" u1="С" u2="]"/>
<hkern k="26" u1="С" u2=")"/>
<hkern k="135" u1="Т" u2="я"/>
<hkern k="128" u1="Т" u2="э"/>
<hkern k="131" u1="Т" u2="ы"/>
<hkern k="78" u1="Т" u2="т"/>
<hkern k="128" u1="Т" u2="з"/>
<hkern k="140" u1="Т" u2="д"/>
<hkern k="96" u1="Т" u2="в"/>
<hkern k="28" u1="Т" u2="б"/>
<hkern k="-15" u1="Т" u2="Ь"/>
<hkern k="91" u1="Т" u2="Д"/>
<hkern k="216" u1="Т" u2="»"/>
<hkern k="328" u1="Т" u2="«"/>
<hkern k="57" u1="Т" u2="w"/>
<hkern k="75" u1="Т" u2="r"/>
<hkern k="40" u1="Т" u2=" "/>
<hkern k="46" u1="У" u2="я"/>
<hkern k="33" u1="У" u2="ы"/>
<hkern k="42" u1="У" u2="з"/>
<hkern k="83" u1="У" u2="д"/>
<hkern k="32" u1="У" u2="в"/>
<hkern k="-18" u1="У" u2="Ь"/>
<hkern k="82" u1="У" u2="Д"/>
<hkern k="41" u1="Х" u2="т"/>
<hkern k="23" u1="Х" u2="б"/>
<hkern k="-18" u1="Х" u2="Д"/>
<hkern k="-21" u1="Ц" u2="д"/>
<hkern k="-21" u1="Ц" u2="Д"/>
<hkern k="-21" u1="Ш" u2="д"/>
<hkern k="-21" u1="Ш" u2="Д"/>
<hkern k="24" u1="Щ" u2="ч"/>
<hkern k="25" u1="Щ" u2="т"/>
<hkern k="-15" u1="Щ" u2="л"/>
<hkern k="-18" u1="Щ" u2="д"/>
<hkern k="12" u1="Щ" u2="Э"/>
<hkern k="26" u1="Щ" u2="Ь"/>
<hkern k="27" u1="Щ" u2="Ч"/>
<hkern k="-14" u1="Щ" u2="Х"/>
<hkern k="-11" u1="Щ" u2="У"/>
<hkern k="26" u1="Щ" u2="Т"/>
<hkern k="-14" u1="Щ" u2="Л"/>
<hkern k="-14" u1="Щ" u2="Ж"/>
<hkern k="-19" u1="Щ" u2="Д"/>
<hkern k="-15" u1="Щ" u2="А"/>
<hkern k="26" u1="Щ" u2="Y"/>
<hkern k="-14" u1="Щ" u2="X"/>
<hkern k="26" u1="Щ" u2="V"/>
<hkern k="26" u1="Щ" u2="T"/>
<hkern k="-15" u1="Щ" u2="A"/>
<hkern k="49" u1="Ъ" u2="т"/>
<hkern k="61" u1="Ъ" u2="Ь"/>
<hkern k="49" u1="Ь" u2="т"/>
<hkern k="61" u1="Ь" u2="Ь"/>
<hkern k="22" u1="Э" u2="л"/>
<hkern k="27" u1="Э" u2="Х"/>
<hkern k="23" u1="Э" u2="У"/>
<hkern k="29" u1="Э" u2="Т"/>
<hkern k="27" u1="Э" u2="Л"/>
<hkern k="27" u1="Э" u2="Ж"/>
<hkern k="30" u1="Э" u2="Д"/>
<hkern k="28" u1="Э" u2="Y"/>
<hkern k="27" u1="Э" u2="X"/>
<hkern k="29" u1="Э" u2="T"/>
<hkern k="21" u1="Ю" u2="л"/>
<hkern k="28" u1="Ю" u2="д"/>
<hkern k="28" u1="Ю" u2="Х"/>
<hkern k="23" u1="Ю" u2="У"/>
<hkern k="30" u1="Ю" u2="Т"/>
<hkern k="28" u1="Ю" u2="Л"/>
<hkern k="28" u1="Ю" u2="Ж"/>
<hkern k="31" u1="Ю" u2="Д"/>
<hkern k="28" u1="Ю" u2="X"/>
<hkern k="30" u1="Ю" u2="T"/>
<hkern k="21" u1="Я" u2="Т"/>
<hkern k="13" u1="Я" u2="Y"/>
<hkern k="21" u1="Я" u2="T"/>
<hkern k="16" u1="а" u2="т"/>
<hkern k="17" u1="б" u2="ю"/>
<hkern k="17" u1="б" u2="ь"/>
<hkern k="17" u1="б" u2="щ"/>
<hkern k="17" u1="б" u2="ш"/>
<hkern k="17" u1="б" u2="ц"/>
<hkern k="16" u1="б" u2="х"/>
<hkern k="18" u1="б" u2="т"/>
<hkern k="17" u1="б" u2="р"/>
<hkern k="17" u1="б" u2="п"/>
<hkern k="17" u1="б" u2="н"/>
<hkern k="17" u1="б" u2="м"/>
<hkern k="17" u1="б" u2="к"/>
<hkern k="17" u1="б" u2="й"/>
<hkern k="17" u1="б" u2="и"/>
<hkern k="16" u1="б" u2="ж"/>
<hkern k="18" u1="б" u2="д"/>
<hkern k="17" u1="б" u2="г"/>
<hkern k="16" u1="б" u2="x"/>
<hkern k="17" u1="б" u2="p"/>
<hkern k="17" u1="б" u2="n"/>
<hkern k="17" u1="б" u2="m"/>
<hkern k="14" u1="в" u2="”"/>
<hkern k="14" u1="в" u2="“"/>
<hkern k="14" u1="в" u2="‘"/>
<hkern k="11" u1="в" u2="у"/>
<hkern k="12" u1="в" u2="т"/>
<hkern k="11" u1="в" u2="y"/>
<hkern k="11" u1="в" u2="v"/>
<hkern k="14" u1="в" u2="&apos;"/>
<hkern k="14" u1="в" u2='&quot;'/>
<hkern k="55" u1="г" u2="д"/>
<hkern k="30" u1="д" u2="ъ"/>
<hkern k="19" u1="д" u2="ч"/>
<hkern k="19" u1="д" u2="т"/>
<hkern k="-20" u1="д" u2="д"/>
<hkern k="11" u1="е" u2="т"/>
<hkern k="11" u1="з" u2="”"/>
<hkern k="11" u1="з" u2="“"/>
<hkern k="11" u1="з" u2="‘"/>
<hkern k="11" u1="з" u2="&apos;"/>
<hkern k="11" u1="з" u2='&quot;'/>
<hkern k="16" u1="к" u2="ё"/>
<hkern k="16" u1="к" u2="ф"/>
<hkern k="16" u1="к" u2="с"/>
<hkern k="21" u1="к" u2="о"/>
<hkern k="16" u1="к" u2="е"/>
<hkern k="16" u1="к" u2="q"/>
<hkern k="21" u1="к" u2="o"/>
<hkern k="16" u1="к" u2="g"/>
<hkern k="16" u1="к" u2="e"/>
<hkern k="16" u1="к" u2="d"/>
<hkern k="16" u1="к" u2="c"/>
<hkern k="22" u1="о" u2="т"/>
<hkern k="72" u1="о" u2="д"/>
<hkern k="80" u1="р" u2="т"/>
<hkern k="18" u1="р" u2="д"/>
<hkern k="-13" u1="т" u2="”"/>
<hkern k="-13" u1="т" u2="“"/>
<hkern k="-13" u1="т" u2="‘"/>
<hkern k="80" u1="т" u2="ё"/>
<hkern k="80" u1="т" u2="ф"/>
<hkern k="-11" u1="т" u2="у"/>
<hkern k="80" u1="т" u2="с"/>
<hkern k="42" u1="т" u2="о"/>
<hkern k="81" u1="т" u2="л"/>
<hkern k="80" u1="т" u2="е"/>
<hkern k="86" u1="т" u2="д"/>
<hkern k="16" u1="т" u2="а"/>
<hkern k="-11" u1="т" u2="y"/>
<hkern k="-11" u1="т" u2="v"/>
<hkern k="80" u1="т" u2="q"/>
<hkern k="42" u1="т" u2="o"/>
<hkern k="80" u1="т" u2="g"/>
<hkern k="-13" u1="т" u2="f"/>
<hkern k="80" u1="т" u2="e"/>
<hkern k="80" u1="т" u2="d"/>
<hkern k="80" u1="т" u2="c"/>
<hkern k="16" u1="т" u2="a"/>
<hkern k="-13" u1="т" u2="&apos;"/>
<hkern k="-13" u1="т" u2='&quot;'/>
<hkern k="56" u1="у" u2="д"/>
<hkern k="-13" u1="у" u2="f"/>
<hkern k="80" u1="ф" u2="т"/>
<hkern k="18" u1="ф" u2="д"/>
<hkern k="-12" u1="ц" u2="я"/>
<hkern k="16" u1="ц" u2="ч"/>
<hkern k="16" u1="ц" u2="т"/>
<hkern k="-16" u1="ц" u2="л"/>
<hkern k="-20" u1="ц" u2="д"/>
<hkern k="-12" u1="щ" u2="ё"/>
<hkern k="9" u1="щ" u2="ч"/>
<hkern k="-12" u1="щ" u2="ф"/>
<hkern k="29" u1="щ" u2="т"/>
<hkern k="-12" u1="щ" u2="с"/>
<hkern k="-24" u1="щ" u2="л"/>
<hkern k="-12" u1="щ" u2="е"/>
<hkern k="-58" u1="щ" u2="д"/>
<hkern k="-12" u1="щ" u2="q"/>
<hkern k="-12" u1="щ" u2="g"/>
<hkern k="-12" u1="щ" u2="e"/>
<hkern k="-12" u1="щ" u2="d"/>
<hkern k="-12" u1="щ" u2="c"/>
<hkern k="70" u1="ъ" u2="т"/>
<hkern k="70" u1="ь" u2="т"/>
<hkern k="80" u1="э" u2="т"/>
<hkern k="18" u1="э" u2="д"/>
<hkern k="16" u1="ю" u2="х"/>
<hkern k="12" u1="ю" u2="у"/>
<hkern k="13" u1="ю" u2="л"/>
<hkern k="16" u1="ю" u2="ж"/>
<hkern k="17" u1="ю" u2="д"/>
<hkern k="12" u1="ю" u2="y"/>
<hkern k="16" u1="ю" u2="x"/>
<hkern k="12" u1="ю" u2="v"/>
<hkern k="11" u1="ё" u2="т"/>
<hkern k="-11" u1="‘" u2="w"/>
<hkern k="-11" u1="“" u2="w"/>
<hkern k="-11" u1="”" u2="w"/>
<hkern k="170" g2="quotedbl,quotesingle,quoteleft,quotedblleft,quotedblright" g1="comma,period,quotesinglbase,ellipsis"/>
<hkern k="120" g2="quotedbl,quotesingle,quoteleft,quotedblleft,quotedblright" g1="A,afii10017"/>
<hkern k="12" g2="o,afii10080" g1="A,afii10017"/>
<hkern k="11" g2="C,G,O,Q,afii10032,afii10035" g1="A,afii10017"/>
<hkern k="129" g2="T,afii10036" g1="A,afii10017"/>
<hkern k="17" g2="U" g1="A,afii10017"/>
<hkern k="87" g2="V" g1="A,afii10017"/>
<hkern k="69" g2="W" g1="A,afii10017"/>
<hkern k="94" g2="Y" g1="A,afii10017"/>
<hkern k="11" g2="u" g1="A,afii10017"/>
<hkern k="50" g2="v,y,afii10085" g1="A,afii10017"/>
<hkern k="-12" g2="z" g1="A,afii10017"/>
<hkern k="-17" g2="afii10029" g1="A,afii10017"/>
<hkern k="55" g2="afii10041" g1="A,afii10017"/>
<hkern k="-18" g2="afii10077" g1="A,afii10017"/>
<hkern k="113" g2="afii10089" g1="A,afii10017"/>
<hkern k="27" g2="T,afii10036" g1="B,afii10019"/>
<hkern k="24" g2="V" g1="B,afii10019"/>
<hkern k="55" g2="Y" g1="B,afii10019"/>
<hkern k="13" g2="afii10037" g1="B,afii10019"/>
<hkern k="29" g2="T,afii10036" g1="C,afii10035"/>
<hkern k="21" g2="A,afii10017" g1="D,O,afii10032"/>
<hkern k="27" g2="T,afii10036" g1="D,O,afii10032"/>
<hkern k="22" g2="V" g1="D,O,afii10032"/>
<hkern k="43" g2="Y" g1="D,O,afii10032"/>
<hkern k="31" g2="afii10029" g1="D,O,afii10032"/>
<hkern k="102" g2="comma,period,quotesinglbase,ellipsis" g1="D,O,afii10032"/>
<hkern k="22" g2="X,afii10024,afii10039" g1="D,O,afii10032"/>
<hkern k="23" g2="Z" g1="D,O,afii10032"/>
<hkern k="19" g2="c,d,e,g,q,afii10070,afii10083,afii10086,afii10071" g1="E,afii10023,afii10022"/>
<hkern k="19" g2="o,afii10080" g1="E,afii10023,afii10022"/>
<hkern k="-20" g2="T,afii10036" g1="E,afii10023,afii10022"/>
<hkern k="17" g2="u" g1="E,afii10023,afii10022"/>
<hkern k="26" g2="v,y,afii10085" g1="E,afii10023,afii10022"/>
<hkern k="-18" g2="A,afii10017" g1="H,I,M,N,afii10026,afii10029,afii10030,afii10031,afii10040,afii10042"/>
<hkern k="29" g2="T,afii10036" g1="H,I,M,N,afii10026,afii10029,afii10030,afii10031,afii10040,afii10042"/>
<hkern k="28" g2="Y" g1="H,I,M,N,afii10026,afii10029,afii10030,afii10031,afii10040,afii10042"/>
<hkern k="-17" g2="afii10029" g1="H,I,M,N,afii10026,afii10029,afii10030,afii10031,afii10040,afii10042"/>
<hkern k="28" g2="afii10041" g1="H,I,M,N,afii10026,afii10029,afii10030,afii10031,afii10040,afii10042"/>
<hkern k="-17" g2="afii10077" g1="H,I,M,N,afii10026,afii10029,afii10030,afii10031,afii10040,afii10042"/>
<hkern k="27" g2="afii10089" g1="H,I,M,N,afii10026,afii10029,afii10030,afii10031,afii10040,afii10042"/>
<hkern k="-17" g2="X,afii10024,afii10039" g1="H,I,M,N,afii10026,afii10029,afii10030,afii10031,afii10040,afii10042"/>
<hkern k="22" g2="A,afii10017" g1="J,U"/>
<hkern k="26" g2="c,d,e,g,q,afii10070,afii10083,afii10086,afii10071" g1="K,afii10028"/>
<hkern k="23" g2="m,n,p,afii10068,afii10074,afii10075,afii10076,afii10078,afii10079,afii10081,afii10082,afii10088,afii10090,afii10091,afii10094,afii10096" g1="K,afii10028"/>
<hkern k="27" g2="o,afii10080" g1="K,afii10028"/>
<hkern k="31" g2="C,G,O,Q,afii10032,afii10035" g1="K,afii10028"/>
<hkern k="23" g2="u" g1="K,afii10028"/>
<hkern k="40" g2="v,y,afii10085" g1="K,afii10028"/>
<hkern k="93" g2="afii10089" g1="K,afii10028"/>
<hkern k="64" g2="hyphen,endash,emdash" g1="K,afii10028"/>
<hkern k="336" g2="quotedbl,quotesingle,quoteleft,quotedblleft,quotedblright" g1="L"/>
<hkern k="-19" g2="A,afii10017" g1="L"/>
<hkern k="65" g2="C,G,O,Q,afii10032,afii10035" g1="L"/>
<hkern k="275" g2="T,afii10036" g1="L"/>
<hkern k="54" g2="U" g1="L"/>
<hkern k="175" g2="V" g1="L"/>
<hkern k="143" g2="W" g1="L"/>
<hkern k="239" g2="Y" g1="L"/>
<hkern k="44" g2="u" g1="L"/>
<hkern k="133" g2="v,y,afii10085" g1="L"/>
<hkern k="138" g2="A,afii10017" g1="P,afii10034"/>
<hkern k="11" g2="a,afii10065" g1="P,afii10034"/>
<hkern k="13" g2="c,d,e,g,q,afii10070,afii10083,afii10086,afii10071" g1="P,afii10034"/>
<hkern k="13" g2="o,afii10080" g1="P,afii10034"/>
<hkern k="-15" g2="v,y,afii10085" g1="P,afii10034"/>
<hkern k="55" g2="afii10029" g1="P,afii10034"/>
<hkern k="39" g2="afii10077" g1="P,afii10034"/>
<hkern k="324" g2="comma,period,quotesinglbase,ellipsis" g1="P,afii10034"/>
<hkern k="31" g2="X,afii10024,afii10039" g1="P,afii10034"/>
<hkern k="26" g2="Z" g1="P,afii10034"/>
<hkern k="200" g2="J" g1="P,afii10034"/>
<hkern k="79" g2="A,afii10017" g1="T,afii10036"/>
<hkern k="113" g2="a,afii10065" g1="T,afii10036"/>
<hkern k="99" g2="c,d,e,g,q,afii10070,afii10083,afii10086,afii10071" g1="T,afii10036"/>
<hkern k="109" g2="m,n,p,afii10068,afii10074,afii10075,afii10076,afii10078,afii10079,afii10081,afii10082,afii10088,afii10090,afii10091,afii10094,afii10096" g1="T,afii10036"/>
<hkern k="99" g2="o,afii10080" g1="T,afii10036"/>
<hkern k="116" g2="s" g1="T,afii10036"/>
<hkern k="28" g2="C,G,O,Q,afii10032,afii10035" g1="T,afii10036"/>
<hkern k="-16" g2="T,afii10036" g1="T,afii10036"/>
<hkern k="-16" g2="V" g1="T,afii10036"/>
<hkern k="-15" g2="W" g1="T,afii10036"/>
<hkern k="-16" g2="Y" g1="T,afii10036"/>
<hkern k="95" g2="u" g1="T,afii10036"/>
<hkern k="72" g2="v,y,afii10085" g1="T,afii10036"/>
<hkern k="60" g2="z" g1="T,afii10036"/>
<hkern k="53" g2="afii10029" g1="T,afii10036"/>
<hkern k="130" g2="afii10077" g1="T,afii10036"/>
<hkern k="132" g2="afii10089" g1="T,afii10036"/>
<hkern k="218" g2="comma,period,quotesinglbase,ellipsis" g1="T,afii10036"/>
<hkern k="232" g2="hyphen,endash,emdash" g1="T,afii10036"/>
<hkern k="240" g2="J" g1="T,afii10036"/>
<hkern k="16" g2="S" g1="T,afii10036"/>
<hkern k="77" g2="x,afii10072,afii10087" g1="T,afii10036"/>
<hkern k="75" g2="A,afii10017" g1="V"/>
<hkern k="46" g2="a,afii10065" g1="V"/>
<hkern k="44" g2="c,d,e,g,q,afii10070,afii10083,afii10086,afii10071" g1="V"/>
<hkern k="46" g2="o,afii10080" g1="V"/>
<hkern k="13" g2="C,G,O,Q,afii10032,afii10035" g1="V"/>
<hkern k="28" g2="u" g1="V"/>
<hkern k="11" g2="v,y,afii10085" g1="V"/>
<hkern k="225" g2="comma,period,quotesinglbase,ellipsis" g1="V"/>
<hkern k="37" g2="hyphen,endash,emdash" g1="V"/>
<hkern k="43" g2="A,afii10017" g1="W"/>
<hkern k="33" g2="a,afii10065" g1="W"/>
<hkern k="31" g2="c,d,e,g,q,afii10070,afii10083,afii10086,afii10071" g1="W"/>
<hkern k="31" g2="o,afii10080" g1="W"/>
<hkern k="-14" g2="T,afii10036" g1="W"/>
<hkern k="19" g2="u" g1="W"/>
<hkern k="123" g2="comma,period,quotesinglbase,ellipsis" g1="W"/>
<hkern k="60" g2="hyphen,endash,emdash" g1="W"/>
<hkern k="26" g2="c,d,e,g,q,afii10070,afii10083,afii10086,afii10071" g1="X,afii10024,afii10039"/>
<hkern k="21" g2="o,afii10080" g1="X,afii10024,afii10039"/>
<hkern k="25" g2="C,G,O,Q,afii10032,afii10035" g1="X,afii10024,afii10039"/>
<hkern k="-14" g2="V" g1="X,afii10024,afii10039"/>
<hkern k="21" g2="u" g1="X,afii10024,afii10039"/>
<hkern k="31" g2="v,y,afii10085" g1="X,afii10024,afii10039"/>
<hkern k="-17" g2="afii10029" g1="X,afii10024,afii10039"/>
<hkern k="-17" g2="afii10077" g1="X,afii10024,afii10039"/>
<hkern k="47" g2="afii10089" g1="X,afii10024,afii10039"/>
<hkern k="46" g2="hyphen,endash,emdash" g1="X,afii10024,afii10039"/>
<hkern k="94" g2="A,afii10017" g1="Y"/>
<hkern k="73" g2="a,afii10065" g1="Y"/>
<hkern k="65" g2="c,d,e,g,q,afii10070,afii10083,afii10086,afii10071" g1="Y"/>
<hkern k="40" g2="m,n,p,afii10068,afii10074,afii10075,afii10076,afii10078,afii10079,afii10081,afii10082,afii10088,afii10090,afii10091,afii10094,afii10096" g1="Y"/>
<hkern k="65" g2="o,afii10080" g1="Y"/>
<hkern k="58" g2="s" g1="Y"/>
<hkern k="29" g2="C,G,O,Q,afii10032,afii10035" g1="Y"/>
<hkern k="-17" g2="T,afii10036" g1="Y"/>
<hkern k="96" g2="U" g1="Y"/>
<hkern k="-18" g2="V" g1="Y"/>
<hkern k="-17" g2="W" g1="Y"/>
<hkern k="-18" g2="Y" g1="Y"/>
<hkern k="39" g2="u" g1="Y"/>
<hkern k="20" g2="v,y,afii10085" g1="Y"/>
<hkern k="30" g2="z" g1="Y"/>
<hkern k="211" g2="comma,period,quotesinglbase,ellipsis" g1="Y"/>
<hkern k="-13" g2="X,afii10024,afii10039" g1="Y"/>
<hkern k="52" g2="hyphen,endash,emdash" g1="Y"/>
<hkern k="96" g2="J" g1="Y"/>
<hkern k="16" g2="S" g1="Y"/>
<hkern k="23" g2="x,afii10072,afii10087" g1="Y"/>
<hkern k="-13" g2="A,afii10017" g1="Z"/>
<hkern k="21" g2="c,d,e,g,q,afii10070,afii10083,afii10086,afii10071" g1="Z"/>
<hkern k="21" g2="o,afii10080" g1="Z"/>
<hkern k="26" g2="C,G,O,Q,afii10032,afii10035" g1="Z"/>
<hkern k="19" g2="u" g1="Z"/>
<hkern k="27" g2="v,y,afii10085" g1="Z"/>
<hkern k="67" g2="quotedbl,quotesingle,quoteleft,quotedblleft,quotedblright" g1="a,afii10065"/>
<hkern k="15" g2="v,y,afii10085" g1="a,afii10065"/>
<hkern k="29" g2="quotedbl,quotesingle,quoteleft,quotedblleft,quotedblright" g1="b,p,afii10082,afii10086,afii10095"/>
<hkern k="11" g2="v,y,afii10085" g1="b,p,afii10082,afii10086,afii10095"/>
<hkern k="15" g2="z" g1="b,p,afii10082,afii10086,afii10095"/>
<hkern k="14" g2="afii10077" g1="b,p,afii10082,afii10086,afii10095"/>
<hkern k="15" g2="x,afii10072,afii10087" g1="b,p,afii10082,afii10086,afii10095"/>
<hkern k="11" g2="quotedbl,quotesingle,quoteleft,quotedblleft,quotedblright" g1="c,afii10083"/>
<hkern k="14" g2="quotedbl,quotesingle,quoteleft,quotedblleft,quotedblright" g1="e,afii10070,afii10071"/>
<hkern k="13" g2="v,y,afii10085" g1="e,afii10070,afii10071"/>
<hkern k="104" g2="quotedbl,quotesingle,quoteleft,quotedblleft,quotedblright" g1="h,m,n"/>
<hkern k="136" g2="quotedbl,quotesingle,quoteleft,quotedblleft,quotedblright" g1="o,afii10080"/>
<hkern k="15" g2="v,y,afii10085" g1="o,afii10080"/>
<hkern k="16" g2="z" g1="o,afii10080"/>
<hkern k="16" g2="afii10077" g1="o,afii10080"/>
<hkern k="21" g2="x,afii10072,afii10087" g1="o,afii10080"/>
<hkern k="-16" g2="quotedbl,quotesingle,quoteleft,quotedblleft,quotedblright" g1="r"/>
<hkern k="40" g2="a,afii10065" g1="r"/>
<hkern k="19" g2="c,d,e,g,q,afii10070,afii10083,afii10086,afii10071" g1="r"/>
<hkern k="20" g2="o,afii10080" g1="r"/>
<hkern k="-18" g2="v,y,afii10085" g1="r"/>
<hkern k="123" g2="comma,period,quotesinglbase,ellipsis" g1="r"/>
<hkern k="-15" g2="quotedbl,quotesingle,quoteleft,quotedblleft,quotedblright" g1="v,y,afii10085"/>
<hkern k="15" g2="a,afii10065" g1="v,y,afii10085"/>
<hkern k="13" g2="c,d,e,g,q,afii10070,afii10083,afii10086,afii10071" g1="v,y,afii10085"/>
<hkern k="15" g2="o,afii10080" g1="v,y,afii10085"/>
<hkern k="41" g2="afii10077" g1="v,y,afii10085"/>
<hkern k="107" g2="comma,period,quotesinglbase,ellipsis" g1="v,y,afii10085"/>
<hkern k="20" g2="c,d,e,g,q,afii10070,afii10083,afii10086,afii10071" g1="x,afii10072,afii10087"/>
<hkern k="20" g2="o,afii10080" g1="x,afii10072,afii10087"/>
<hkern k="16" g2="c,d,e,g,q,afii10070,afii10083,afii10086,afii10071" g1="z"/>
<hkern k="16" g2="o,afii10080" g1="z"/>
<hkern k="194" g2="A,afii10017" g1="afii10020"/>
<hkern k="212" g2="a,afii10065" g1="afii10020"/>
<hkern k="188" g2="c,d,e,g,q,afii10070,afii10083,afii10086,afii10071" g1="afii10020"/>
<hkern k="205" g2="m,n,p,afii10068,afii10074,afii10075,afii10076,afii10078,afii10079,afii10081,afii10082,afii10088,afii10090,afii10091,afii10094,afii10096" g1="afii10020"/>
<hkern k="188" g2="o,afii10080" g1="afii10020"/>
<hkern k="217" g2="s" g1="afii10020"/>
<hkern k="67" g2="C,G,O,Q,afii10032,afii10035" g1="afii10020"/>
<hkern k="-7" g2="T,afii10036" g1="afii10020"/>
<hkern k="-7" g2="V" g1="afii10020"/>
<hkern k="-5" g2="W" g1="afii10020"/>
<hkern k="-7" g2="Y" g1="afii10020"/>
<hkern k="181" g2="u" g1="afii10020"/>
<hkern k="142" g2="v,y,afii10085" g1="afii10020"/>
<hkern k="122" g2="z" g1="afii10020"/>
<hkern k="110" g2="afii10029" g1="afii10020"/>
<hkern k="241" g2="afii10077" g1="afii10020"/>
<hkern k="244" g2="afii10089" g1="afii10020"/>
<hkern k="390" g2="comma,period,quotesinglbase,ellipsis" g1="afii10020"/>
<hkern k="414" g2="hyphen,endash,emdash" g1="afii10020"/>
<hkern k="47" g2="S" g1="afii10020"/>
<hkern k="150" g2="x,afii10072,afii10087" g1="afii10020"/>
<hkern k="64" g2="quotedbl,quotesingle,quoteleft,quotedblleft,quotedblright" g1="afii10044,afii10046"/>
<hkern k="267" g2="T,afii10036" g1="afii10044,afii10046"/>
<hkern k="56" g2="V" g1="afii10044,afii10046"/>
<hkern k="83" g2="Y" g1="afii10044,afii10046"/>
<hkern k="11" g2="afii10029" g1="afii10044,afii10046"/>
<hkern k="25" g2="afii10041" g1="afii10044,afii10046"/>
<hkern k="21" g2="afii10037" g1="afii10044,afii10046"/>
<hkern k="16" g2="X,afii10024,afii10039" g1="afii10044,afii10046"/>
<hkern k="55" g2="x,afii10072,afii10087" g1="afii10044,afii10046"/>
<hkern k="91" g2="A,afii10017" g1="afii10037"/>
<hkern k="111" g2="a,afii10065" g1="afii10037"/>
<hkern k="67" g2="c,d,e,g,q,afii10070,afii10083,afii10086,afii10071" g1="afii10037"/>
<hkern k="102" g2="m,n,p,afii10068,afii10074,afii10075,afii10076,afii10078,afii10079,afii10081,afii10082,afii10088,afii10090,afii10091,afii10094,afii10096" g1="afii10037"/>
<hkern k="67" g2="o,afii10080" g1="afii10037"/>
<hkern k="46" g2="s" g1="afii10037"/>
<hkern k="23" g2="C,G,O,Q,afii10032,afii10035" g1="afii10037"/>
<hkern k="-18" g2="T,afii10036" g1="afii10037"/>
<hkern k="-18" g2="Y" g1="afii10037"/>
<hkern k="54" g2="afii10029" g1="afii10037"/>
<hkern k="69" g2="afii10077" g1="afii10037"/>
<hkern k="23" g2="afii10089" g1="afii10037"/>
<hkern k="403" g2="comma,period,quotesinglbase,ellipsis" g1="afii10037"/>
<hkern k="119" g2="hyphen,endash,emdash" g1="afii10037"/>
<hkern k="20" g2="c,d,e,g,q,afii10070,afii10083,afii10086,afii10071" g1="afii10068"/>
<hkern k="20" g2="o,afii10080" g1="afii10068"/>
<hkern k="40" g2="afii10077" g1="afii10068"/>
<hkern k="135" g2="quotedbl,quotesingle,quoteleft,quotedblleft,quotedblright" g1="afii10092,afii10094"/>
<hkern k="35" g2="v,y,afii10085" g1="afii10092,afii10094"/>
<hkern k="39" g2="afii10089" g1="afii10092,afii10094"/>
<hkern k="11" g2="x,afii10072,afii10087" g1="afii10092,afii10094"/>
</font>
</defs>
</svg>
